events,mms,sku,parent sku,name,description,price,categories,images,shipping month,dimension,color,qte step,provider_name,provider_logo_url,quantity unit,merch
couvreurs2020,51220699,59025000,,ENS. COUVREUR MED-LARGE,"Ensemble de couvreur Norguard, médium-large","  109,89  $ ",Vêtements et sécurité,https://cdn.rona.ca/images/59025000_L.jpg,Avril|Avril et Mai|Mai,,,1,NORGUARD,,ch,
couvreurs2020,019011292,0002013,,LAMES ULTRAMAX LBB-50B(50)9069,LAMES ULTRAMAX LBB-50B(50)9069,"  19,99  $ ",Outils manuels,https://cdn.rona.ca/images/0002013_L.jpg,Avril|Avril et Mai|Mai,,,1,CORELLE BRANDS,,paquet,
couvreurs2020,019016213,0002030,,COUTEAU L1 OLFA 18MM JN 5003,COUTEAU L1 OLFA 18MM JN 5003,"  5,99  $ ",Outils manuels,https://cdn.rona.ca/images/0002030_L.jpg,Avril|Avril et Mai|Mai,,,1,CORELLE BRANDS,,ch,
couvreurs2020,019016214,0002050,,"COUTEAU UTILITE #H1 1X10"" 5006","COUTEAU UTILITE #H1 1X10"" 5006","  8,99  $ ",Outils manuels,https://cdn.rona.ca/images/0002050_L.jpg,Avril|Avril et Mai|Mai,,,1,CORELLE BRANDS,,ch,
couvreurs2020,019022134,0002094,,LAMES CROCHET LH20B PK/5  9005,LAMES CROCHET LH20B PK/5  9005,"  5,99  $ ",Outils manuels,https://cdn.rona.ca/images/0002094_L.jpg,Avril|Avril et Mai|Mai,,,1,CORELLE BRANDS,,paquet,
couvreurs2020,051067577,00025016,,LAMES ULTRAM.HBB20B(20)1082209,LAMES ULTRAM.HBB20B(20)1082209,"  19,99  $ ",Outils manuels,https://cdn.rona.ca/images/00025016_L.jpg,Avril|Avril et Mai|Mai,,,1,CORELLE BRANDS,,paquet,
couvreurs2020,051149143,00025031,,LAME REMP.PR COUTEAU 18MM(100),LAME REMP.PR COUTEAU 18MM(100),"  29,99  $ ",Outils manuels,https://cdn.rona.ca/images/00025031_L.jpg,Avril|Avril et Mai|Mai,,,1,CORELLE BRANDS,,paquet,
couvreurs2020,051193823,00025038,,LAME CROCHET 25MMX3PK,LAME CROCHET 25MMX3PK,"  9,99  $ ",Outils manuels,https://cdn.rona.ca/images/00025038_L.jpg,Avril|Avril et Mai|Mai,,,1,CORELLE BRANDS,,ch,
couvreurs2020,051207044,00025042,,LAME COUTEAU UTIL.25MM PK40,LAME COUTEAU UTIL.25MM PK40,"  29,99  $ ",Outils manuels,https://cdn.rona.ca/images/00025042_L.jpg,Avril|Avril et Mai|Mai,,,1,CORELLE BRANDS,,paquet,
couvreurs2020,019072207,0012029,,BROCHES ARRO             50624,BROCHES ARRO             50624,"  2,25  $ ",Outils manuels,https://cdn.rona.ca/images/0012029_L.jpg,Avril|Avril et Mai|Mai,,,1,ARROW FASTENER CO. LLC,,paquet,
couvreurs2020,051166634,00276209,,"CLOUEUSE FINI.5/8-2"" 18CA","CLOUEUSE FINI.5/8-2"" 18CA","  99,00  $ ",Outils pneumatiques,https://cdn.rona.ca/images/00276209_L.jpg,Avril|Avril et Mai|Mai,,,1,STANLEY BLACK & DECKER CANADA CORPORAT.,,ch,
couvreurs2020,051196067,00276322,,RADIO CHARGEUR BLUETOOTH 20VT,RADIO CHARGEUR BLUETOOTH 20VT,"  249,00  $ ",Outil électrique portatif,https://cdn.rona.ca/images/00276322_L.jpg,Avril|Avril et Mai|Mai,,,1,STANLEY BLACK & DECKER CANADA CORPORAT.,,ch,
couvreurs2020,051216615,00276636,,LAMES A CROCHETS GRANDE PK50,LAMES A CROCHETS GRANDE PK50,"  14,99  $ ",Outils manuels,https://cdn.rona.ca/images/00276636_L.jpg,Avril|Avril et Mai|Mai,,,1,STANLEY BLACK & DECKER CANADA CORPORAT.,,ch,
couvreurs2020,051215819,00276643,,COUTEAU UTILIT.RETRACTABLE 2MX,COUTEAU UTILIT.RETRACTABLE 2MX,"  5,99  $ ",Outils manuels,https://cdn.rona.ca/images/00276643_L.jpg,Avril|Avril et Mai|Mai,,,1,STANLEY BLACK & DECKER CANADA CORPORAT.,,ch,
couvreurs2020,,00277070,,"CLOUEUSE TOITURE 3/4-1 3/4""","CLOUEUSE TOITURE 3/4-1 3/4""","  249,00  $ ",Outils pneumatiques,https://cdn.rona.ca/images/00277070_L.jpg,Avril|Avril et Mai|Mai,,,1,STANLEY BLACK & DECKER CANADA CORPORAT.,,ch,
couvreurs2020,019062027,0109005,,MARTEAU 16OZ,MARTEAU 16OZ,"  24,99  $ ",Outils manuels,https://cdn.rona.ca/images/0109005_L.jpg,Avril|Avril et Mai|Mai,,,1,ESTWING MFG. CO. LTD.,,ch,
couvreurs2020,019062038,0109010,,MARTEAU 20OZ ACIER,MARTEAU 20OZ ACIER,"  26,99  $ ",Outils manuels,https://cdn.rona.ca/images/0109010_L.jpg,Avril|Avril et Mai|Mai,,,1,ESTWING MFG. CO. LTD.,,ch,
couvreurs2020,019015033,0109012,,MARTEAU DE COUVREUR,MARTEAU DE COUVREUR,"  28,05  $ ",Outils manuels,https://cdn.rona.ca/images/0109012_L.jpg,Avril|Avril et Mai|Mai,,,1,ESTWING MFG. CO. LTD.,,ch,
couvreurs2020,051220200,01855521,,"RUBAN A MESURER NR 1-3/16""X25'","RUBAN A MESURER NR 1-3/16""X25'","  26,99  $ ",Outils manuels,https://cdn.rona.ca/images/01855521_L.jpg,Avril|Avril et Mai|Mai,,,1,APEX TOOL CANADA LTD,,ch,
couvreurs2020,051220201,01855522,,"RUBAN A MESURER OG 1-3/16""X26'","RUBAN A MESURER OG 1-3/16""X26'","  24,99  $ ",Outils manuels,https://cdn.rona.ca/images/01855522_L.jpg,Avril|Avril et Mai|Mai,,,1,APEX TOOL CANADA LTD,,ch,
couvreurs2020,L1135,01855523,,"RUBAN A MESURER OG 1-3/16""X35'","RUBAN A MESURER OG 1-3/16""X35'","  28,99  $ ",Outils manuels,https://cdn.rona.ca/images/01855523_L.jpg,Avril|Avril et Mai|Mai,,,1,APEX TOOL CANADA LTD,,ch,
couvreurs2020,051223236,01855524,,"RUBAN A MESURER OG 1-3/16""X33'","RUBAN A MESURER OG 1-3/16""X33'","  28,99  $ ",Outils manuels,https://cdn.rona.ca/images/01855524_L.jpg,Avril|Avril et Mai|Mai,,,1,APEX TOOL CANADA LTD,,ch,
couvreurs2020,L1116,01855525,,"RUBAN MESURER IMP.1-3/16""X16'","RUBAN MESURER IMP.1-3/16""X16'","  19,99  $ ",Outils manuels,https://cdn.rona.ca/images/01855525_L.jpg,Avril|Avril et Mai|Mai,,,1,APEX TOOL CANADA LTD,,ch,
couvreurs2020,L1116CME,01855526,,RUBAN MESURER MET/IMP.1.2X16',RUBAN MESURER MET/IMP.1.2X16',"  19,99  $ ",Outils manuels,https://cdn.rona.ca/images/01855526_L.jpg,Avril|Avril et Mai|Mai,,,1,APEX TOOL CANADA LTD,,ch,
couvreurs2020,051223233,01855531,,"RUBAN MES.IMPER.1-3/16""X16' NR","RUBAN MES.IMPER.1-3/16""X16' NR","  24,99  $ ",Outils manuels,https://cdn.rona.ca/images/01855531_L.jpg,Avril|Avril et Mai|Mai,,,1,APEX TOOL CANADA LTD,,ch,
couvreurs2020,051223234,01855532,,"RUBAN MES.IMPER.1-3/16""X35' NR","RUBAN MES.IMPER.1-3/16""X35' NR","  29,99  $ ",Outils manuels,https://cdn.rona.ca/images/01855532_L.jpg,Avril|Avril et Mai|Mai,,,1,APEX TOOL CANADA LTD,,ch,
couvreurs2020,019015756,0271275,,"TRUELLE CIM.B.CAR.2X5""   35930","TRUELLE CIM.B.CAR.2X5""   35930","  9,99  $ ",Outils manuels,https://cdn.rona.ca/images/0271275_L.jpg,Avril|Avril et Mai|Mai,,,1,OUTIL A. RICHARD CO,,ch,
couvreurs2020,019015770,0271314,,"TRUELLE CIM.B.CAR.1.5X5"" 35931","TRUELLE CIM.B.CAR.1.5X5"" 35931","  9,99  $ ",Outils manuels,https://cdn.rona.ca/images/0271314_L.jpg,Avril|Avril et Mai|Mai,,,1,OUTIL A. RICHARD CO,,ch,
couvreurs2020,051017821,0277074,,CLOUEUSE CHARP.BANDE     F28WW,CLOUEUSE CHARP.BANDE     F28WW,"  299,00  $ ",Outils pneumatiques,https://cdn.rona.ca/images/0277074_L.jpg,Avril|Avril et Mai|Mai,,,1,STANLEY BLACK & DECKER CANADA CORPORAT.,,ch,
couvreurs2020,051077194,03055954,,"AGRAFES 5/16""   (5000)TRA7055C","AGRAFES 5/16""   (5000)TRA7055C","  6,51  $ ",Outils manuels,https://cdn.rona.ca/images/03055954_L.jpg,Avril|Avril et Mai|Mai,,,1,STANLEY BLACK & DECKER CANADA CORPORAT.,,ch,
couvreurs2020,051077195,03055955,,"AGRAFES 3/8""    (5000)TRA7065C","AGRAFES 3/8""    (5000)TRA7065C","  7,02  $ ",Outils manuels,https://cdn.rona.ca/images/03055955_L.jpg,Avril|Avril et Mai|Mai,,,1,STANLEY BLACK & DECKER CANADA CORPORAT.,,ch,
couvreurs2020,051077196,03055956,,"AGRAFES 1/2""    (5000)TRA7085C","AGRAFES 1/2""    (5000)TRA7085C","  7,91  $ ",Outils manuels,https://cdn.rona.ca/images/03055956_L.jpg,Avril|Avril et Mai|Mai,,,1,STANLEY BLACK & DECKER CANADA CORPORAT.,,ch,
couvreurs2020,051124380,11975301,,ACCESS.PNEU.ENS.(17)PM284701AV,COMPRESSEUR A AIR 5.2GA 3HP,"  299,00  $ ",Outils pneumatiques,https://cdn.rona.ca/images/11975301_L.jpg,Avril|Avril et Mai|Mai,,,1,MAKITA CANADA INC.,,ch,
couvreurs2020,051204963,11975393,,RADIO CHANTIER SF  LXT,RADIO CHANTIER SF  LXT,"  199,00  $ ",Outil électrique portatif,https://cdn.rona.ca/images/11975393_L.jpg,Avril|Avril et Mai|Mai,,,1,MAKITA CANADA INC.,,ch,
couvreurs2020,019016513,1898004,,PORTE-RUBAN CUIR         HM224,PORTE-RUBAN CUIR         HM224,"  3,99  $ ",Outils manuels,https://cdn.rona.ca/images/1898004_L.jpg,Avril|Avril et Mai|Mai,,,1,KUNY'S LEATHER MFG CO. LTD,,ch,
couvreurs2020,019122259,1898019,,ETUI/PINCE+CANIF KUNY'S  PL-21,ETUI/PINCE+CANIF KUNY'S  PL-21,"  3,99  $ ",Outils manuels,https://cdn.rona.ca/images/1898019_L.jpg,Avril|Avril et Mai|Mai,,,1,KUNY'S LEATHER MFG CO. LTD,,ch,
couvreurs2020,019122256,1898027,,PORTE-MARTEAU KUNY'S    HM-213,PORTE-MARTEAU KUNY'S    HM-213,"  3,99  $ ",Outils manuels,https://cdn.rona.ca/images/1898027_L.jpg,Avril|Avril et Mai|Mai,,,1,KUNY'S LEATHER MFG CO. LTD,,ch,
couvreurs2020,019122230,1898081,,PORTE-CRAYON NOIR        PH-40,PORTE-CRAYON NOIR        PH-40,"  6,99  $ ",Outils manuels,https://cdn.rona.ca/images/1898081_L.jpg,Avril|Avril et Mai|Mai,,,1,KUNY'S LEATHER MFG CO. LTD,,ch,
couvreurs2020,019012173,1898095,,ETUI COUT.UTIL.CUIR BR    PH38,ETUI COUT.UTIL.CUIR BR    PH38,"  9,99  $ ",Outils manuels,https://cdn.rona.ca/images/1898095_L.jpg,Avril|Avril et Mai|Mai,,,1,KUNY'S LEATHER MFG CO. LTD,,ch,
couvreurs2020,051097739,18985121,,GENOUILLERES GEL DEWALT DG5204,GENOUILLERES GEL DEWALT DG5204,"  29,99  $ ",Outils manuels,https://cdn.rona.ca/images/18985121_L.jpg,Avril|Avril et Mai|Mai,,,1,KUNY'S LEATHER MFG CO. LTD,,ch,
couvreurs2020,051097386,18985135,,TABLIER MENUIS.20COMPAT.NR/JN,TABLIER MENUIS.20COMPAT.NR/JN,"  89,99  $ ",Outils manuels,https://cdn.rona.ca/images/18985135_L.jpg,Avril|Avril et Mai|Mai,,,1,KUNY'S LEATHER MFG CO. LTD,,ch,
couvreurs2020,051102751,18985146,,GENOUILLERES PLANCHER TISS/PVC,GENOUILLERES PLANCHER TISS/PVC,"  19,99  $ ",Outils manuels,https://cdn.rona.ca/images/18985146_L.jpg,Avril|Avril et Mai|Mai,,,1,KUNY'S LEATHER MFG CO. LTD,,ch,
couvreurs2020,051149480,19835938,,MESUREUR DISTANCE LASER 100',TELEMETRE LASER 0 A 65',"  49,99  $ ",Outils manuels,https://cdn.rona.ca/images/19835938_L.jpg,Avril|Avril et Mai|Mai,,,1,ROBERT BOSCH INC.,,ch,
couvreurs2020,051220446,37815178,,"Cloueuse à toiture pneumatique à rouleaux, 7/8""-1 3/4"", 16°","CLOUEUSE TOIT.7/8-1 3/4"" 16DG
À l’achat de 3 unités, obtenez 18% de rabais (376,38 $ / chaque)
À l’achat de 5 unités, obtenez 20% de rabais (367,20 $ / chaque)
À l’achat de 10 unités, obtenez 22% de rabais (358,02 $ / chaque)","349,00 $ ",Outils pneumatiques,https://cdn.rona.ca/images/37815178_L.jpg,Avril|Avril et Mai|Mai,,,1,KOKI HOLDINGS CANADA CO,,ch,
couvreurs2020,051217540,37815181,,"CLOUEUSE CHARP.BANDE 2-3.5""","CLOUEUSE CHARP.BANDE 2-3.5""","  249,00  $ ",Outils pneumatiques,https://cdn.rona.ca/images/37815181_L.jpg,Avril|Avril et Mai|Mai,,,1,KOKI HOLDINGS CANADA CO,,ch,
couvreurs2020,051222928,37815202,,"Tuyau à air Metabo HPT, 1/4'' x 100', polyuréthane","TUYAU A AIR POLY.1/4""X100'VT ","  29,99  $ ",Outils pneumatiques,https://cdn.rona.ca/images/37815202_L.jpg,Avril|Avril et Mai|Mai,,,1,KOKI HOLDINGS CANADA CO,,ch,
couvreur,051221582,37815209,,"Clous à toiture électro-galvanisés, acier, 1,25"", 7200 pièces","CLOU TOIT.ROUL1.25X120""X7200BT
7200 par boite","  22,97  $ ",Clous,,Avril|Avril et Mai|Mai,"1.25""x120""x7200BT",GALVANISE  ,48,KOKI HOLDINGS CANADA CO,,boîte,
couvreur,051221582,37815209-1,,"Clous à toiture électro-galvanisés, acier, 1,25"", 7200 pièces","CLOU TOIT.ROUL1.25X120""X7200BT 
Obtenez l'outil gratuit (37815178)
7200 par boite","25,00 $ ",Clous,,Avril|Avril et Mai|Mai,"1.25""x120""x7200BT",GALVANISE  ,48,KOKI HOLDINGS CANADA CO,,boîte,
couvreurs2020,051091777,39205025,,PINCE COUPE PROFILE EN J,PINCE COUPE PROFILE EN J,"  59,99  $ ",Outils manuels,https://cdn.rona.ca/images/39205025_L.jpg,Avril|Avril et Mai|Mai,,,1,MALCO PRODUCTS INC.,,ch,
couvreurs2020,051091778,39205026,,PINCE SERTIR PR MONTANT METAL,PINCE SERTIR PR MONTANT METAL,"  89,99  $ ",Outils manuels,https://cdn.rona.ca/images/39205026_L.jpg,Avril|Avril et Mai|Mai,,,1,MALCO PRODUCTS INC.,,ch,
couvreurs2020,051091779,39205027,,"PINCE A JOINTER 3""","PINCE A JOINTER 3""","  49,99  $ ",Outils manuels,https://cdn.rona.ca/images/39205027_L.jpg,Avril|Avril et Mai|Mai,,,1,MALCO PRODUCTS INC.,,ch,
couvreurs2020,051091780,39205028,,"PINCE A JOINTER 6""","PINCE A JOINTER 6""","  69,99  $ ",Outils manuels,https://cdn.rona.ca/images/39205028_L.jpg,Avril|Avril et Mai|Mai,,,1,MALCO PRODUCTS INC.,,ch,
couvreurs2020,051091781,39205029,,"PINCE A JOINTER 9""","PINCE A JOINTER 9""","  79,99  $ ",Outils manuels,https://cdn.rona.ca/images/39205029_L.jpg,Avril|Avril et Mai|Mai,,,1,MALCO PRODUCTS INC.,,ch,
couvreurs2020,051091783,39205031,,PINCE A SERTIR A 5 LAMES,PINCE A SERTIR A 5 LAMES,"  29,99  $ ",Outils manuels,https://cdn.rona.ca/images/39205031_L.jpg,Avril|Avril et Mai|Mai,,,1,MALCO PRODUCTS INC.,,ch,
couvreurs2020,051219548,46595000,,"BOYAU AIR HYB.POLY 1/4""X25'BL","BOYAU AIR HYB.POLY 1/4""X25'BL","  9,99  $ ",Outils pneumatiques,https://cdn.rona.ca/images/46595000_L.jpg,Avril|Avril et Mai|Mai,,,1,CRISPO CANADA INC,,ch,
couvreurs2020,051219549,46595003,,BOYAU AIR HYB.POLY.1/4X100'OG,BOYAU AIR HYB.POLY.1/4X100'OG,"  29,99  $ ",Outils pneumatiques,https://cdn.rona.ca/images/46595003_L.jpg,Avril|Avril et Mai|Mai,,,1,CRISPO CANADA INC,,ch,
couvreurs2020,051110055,6618018,,MARTEAU CHARPENTE 22OZ,MARTEAU CHARPENTE 22OZ,"  34,99  $ ",Outils manuels,https://cdn.rona.ca/images/6618018_L.jpg,Avril|Avril et Mai|Mai,,,1,ESTWING MFG. CO. LTD.,,ch,
couvreurs2020,051110056,66185035,,MAILLET CAOUTCHOUC 18OZ GRIS,MAILLET CAOUTCHOUC 18OZ GRIS,"  14,99  $ ",Outils manuels,https://cdn.rona.ca/images/66185035_L.jpg,Avril|Avril et Mai|Mai,,,1,ESTWING MFG. CO. LTD.,,ch,
couvreurs2020,051207275,66185041,,MARTEAU PR MACON 22OZ,MARTEAU PR MACON 22OZ,"  25,09  $ ",Outils manuels,https://cdn.rona.ca/images/66185041_L.jpg,Avril|Avril et Mai|Mai,,,1,ESTWING MFG. CO. LTD.,,ch,
couvreurs2020,051220199,01855520,,"RUBAN A MESURER OG 1-3/16""X25'","RUBAN A MESURER OG 1-3/16""X25'","  24,99  $ ",Outils manuels,https://cdn.rona.ca/images/01855520_L.jpg,Avril|Avril et Mai|Mai,,,1,APEX TOOL CANADA LTD,,ch,
couvreurs2020,000134305,58315025,,"NOUE GALVANISE 135D 9X9""X8'","NOUE GALVANISE 135D 9X9""X8'","  10,42  $ ",Revêtement extérieur,https://cdn.rona.ca/images/58315025_L.jpg,Avril|Avril et Mai|Mai,,,1,BAILEY METAL PRODUCTS LIMITED,,ch,
couvreurs2020,051135635,58315024,,"NOUE GALVANISE 135D   6X6""X8'","NOUE GALVANISE 135D   6X6""X8'","  9,36  $ ",Revêtement extérieur,https://cdn.rona.ca/images/58315024_L.jpg,Avril|Avril et Mai|Mai,,,1,BAILEY METAL PRODUCTS LIMITED,,ch,
couvreurs2020,000204880,50465378,,"NOUE GALVANISE 90D 4x4""X8'","NOUE GALVANISE 90D 4x4""X8'","  5,35  $ ",Revêtement extérieur,https://cdn.rona.ca/images/50465378_L.jpg,Avril|Avril et Mai|Mai,,,1,BAILEY METAL PRODUCTS LIMITED,,ch,
couvreurs2020,000134317,58315045,,"NOUE GALVANISE  90D   6X6""X8'","NOUE GALVANISE  90D   6X6""X8'","  7,40  $ ",Revêtement extérieur,https://cdn.rona.ca/images/58315045_L.jpg,Avril|Avril et Mai|Mai,,,1,BAILEY METAL PRODUCTS LIMITED,,ch,
couvreurs2020,,58315046,,"NOUE GALVANISE  90D   9X9""X8'","NOUE GALVANISE  90D   9X9""X8'","  10,42  $ ",Revêtement extérieur,https://cdn.rona.ca/images/58315046_L.jpg,Avril|Avril et Mai|Mai,,,1,BAILEY METAL PRODUCTS LIMITED,,ch,
couvreurs2020,051156671,09515443,,MEMBRANE SUREDECK 4X250'1000PC,MEMBRANE SUREDECK 4X250'1000PC,"  70,53  $ ",Toiture,https://cdn.rona.ca/images/09515443_L.jpg,Avril|Avril et Mai|Mai,,,1,BUILDING PRODUCTS OF CANADA CORP,,rouleau,
couvreurs2020,051156670,09515442,,MEMBRANE WEATHERTEX 3X65',MEMBRANE WEATHERTEX 3X65',"  44,09  $ ",Toiture,https://cdn.rona.ca/images/09515442_L.jpg,Avril|Avril et Mai|Mai,,,1,BUILDING PRODUCTS OF CANADA CORP,,rouleau,
couvreurs2020,051218567,09515461,,SOUS-COUCHE BC 4'X250' PRODECK,SOUS-COUCHE BC 4'X250' PRODECK,"  54,59  $ ",Toiture,https://cdn.rona.ca/images/09515461_L.jpg,Avril|Avril et Mai|Mai,,,1,BUILDING PRODUCTS OF CANADA CORP,,ch,
couvreurs2020,051090551,09515362,,MEMBRANE DECKGARD  4X250',MEMBRANE DECKGARD  4X250',"  102,29  $ ",Toiture,https://cdn.rona.ca/images/09515362_L.jpg,Avril|Avril et Mai|Mai,,,1,BUILDING PRODUCTS OF CANADA CORP,,rouleau,
couvreurs2020,51029464,0951209,,GRIPGARD AUTO-COLLANTE 3'X65',GRIPGARD AUTO-COLLANTE 3'X65',"  45,84  $ ",Toiture,https://cdn.rona.ca/images/0951209_L.jpg,Avril|Avril et Mai|Mai,,,1,BUILDING PRODUCTS OF CANADA CORP,,rouleau,
couvreurs2020,051029462,0951169,,REVETEM.SEC NORMAL 430.5'RG401,REVETEM.SEC NORMAL 430.5'RG401,"  12,64  $ ",Toiture,https://cdn.rona.ca/images/0951169_L.jpg,Avril|Avril et Mai|Mai,,,1,BUILDING PRODUCTS OF CANADA CORP,,ch,
couvreurs2020,051030110,0951166,,ROUL.FEUTRE UNI#15 432PC RF403,ROUL.FEUTRE UNI#15 432PC RF403,"  25,95  $ ",Toiture,https://cdn.rona.ca/images/0951166_L.jpg,Avril|Avril et Mai|Mai,,,1,BUILDING PRODUCTS OF CANADA CORP,,ch,
couvreurs2020,051135176,0951003,,ROUL.FEUTRE UNI#15 LEG.432PC,ROUL.FEUTRE UNI#15 LEG.432PC,"  20,74  $ ",Toiture,https://cdn.rona.ca/images/0951003_L.jpg,Avril|Avril et Mai|Mai,,,1,BUILDING PRODUCTS OF CANADA CORP,,ch,
couvreurs2020,000113891,9515045,,ROUL.FEUTRE UNI#15 LIGNE RF405,ROUL.FEUTRE UNI#15 LIGNE RF405,"  27,77  $ ",Toiture,https://cdn.rona.ca/images/9515045_L.jpg,Avril|Avril et Mai|Mai,,,1,BUILDING PRODUCTS OF CANADA CORP,,ch,
couvreurs2020,018036791,5318002,,AERATEUR TOIT CAR.NR PL.6050BL,AERATEUR TOIT CAR.NR PL.6050BL,"  6,25  $ ",Ventilation,https://cdn.rona.ca/images/5318002_L.jpg,Avril|Avril et Mai|Mai,,,1,CANPLAS INDUSTRIES LTD,,ch,
couvreurs2020,018041885,8497053,,VENTILATEUR TOIT 4' NO PLAST.,VENTILATEUR TOIT 4' NO PLAST.,"  9,66  $ ",Ventilation,https://cdn.rona.ca/images/8497053_L.jpg,Avril|Avril et Mai|Mai,,,1,CANPLAS INDUSTRIES LTD,,ch,
couvreurs2020,018036792,5318001,,AERATEUR TOIT CAR.BR PL.6050BR,AERATEUR TOIT CAR.BR PL.6050BR,"  6,68  $ ",Ventilation,https://cdn.rona.ca/images/5318001_L.jpg,Avril|Avril et Mai|Mai,,,1,CANPLAS INDUSTRIES LTD,,ch,
couvreurs2020,051022090,5318006,,AERATEUR TOIT NOIR PLA. 6075BL,AERATEUR TOIT NOIR PLA. 6075BL,"  10,02  $ ",Ventilation,https://cdn.rona.ca/images/5318006_L.jpg,Avril|Avril et Mai|Mai,,,1,CANPLAS INDUSTRIES LTD,,ch,
couvreurs2020,018036705,8497033,,AERAT.TOIT P-ABRUPTE NR 6065BL,AERAT.TOIT P-ABRUPTE NR 6065BL,"  7,28  $ ",Ventilation,https://cdn.rona.ca/images/8497033_L.jpg,Avril|Avril et Mai|Mai,,,1,CANPLAS INDUSTRIES LTD,,ch,
couvreurs2020,051022089,5318005,,AERATEUR TOIT BRUN PLA. 6075BR,AERATEUR TOIT BRUN PLA. 6075BR,"  9,35  $ ",Ventilation,https://cdn.rona.ca/images/5318005_L.jpg,Avril|Avril et Mai|Mai,,,1,CANPLAS INDUSTRIES LTD,,ch,
couvreurs2020,,77205007,,CIMENT PLAS.GRADE ETE 13.6KG,CIMENT PLAS.GRADE ETE 13.6KG,"  23,05  $ ",Toiture,https://cdn.rona.ca/images/77205007_L.jpg,Avril|Avril et Mai|Mai,,,1,CONDOR CHIMIQUES INC,,ch,
couvreurs2020,000142369,77205008,,CIMENT PLAS.GRADE ETE 20KG,CIMENT PLAS.GRADE ETE 20KG,"  29,88  $ ",Toiture,https://cdn.rona.ca/images/77205008_L.jpg,Avril|Avril et Mai|Mai,,,1,CONDOR CHIMIQUES INC,,ch,
couvreurs2020,000142370,77205009,,CIMENT PLAS.GRADE HIVER 13.6KG,CIMENT PLAS.GRADE HIVER 13.6KG,"  28,65  $ ",Toiture,https://cdn.rona.ca/images/77205009_L.jpg,Avril|Avril et Mai|Mai,,,1,CONDOR CHIMIQUES INC,,ch,
couvreurs2020,00142371,77205010,,CIMENT PLAS.GRADE HIVER 20KG,CIMENT PLAS.GRADE HIVER 20KG,"  38,09  $ ",Toiture,https://cdn.rona.ca/images/77205010_L.jpg,Avril|Avril et Mai|Mai,,,1,CONDOR CHIMIQUES INC,,ch,
couvreurs2020,051211815,78685016,,MEMBRANE ETANCH.WEATHERWATCH,MEMBRANE ETANCH.WEATHERWATCH,"  68,68  $ ",Toiture,https://cdn.rona.ca/images/78685016_L.jpg,Avril|Avril et Mai|Mai,,,1,GAF CANADA ULC,,ch,
couvreurs2020,051221870,78685014,,SOUS-COUCHE GR DECK-ARMOR 10PC,SOUS-COUCHE GR DECK-ARMOR 10PC,"  211,01  $ ",Toiture,https://cdn.rona.ca/images/78685014_L.jpg,Avril|Avril et Mai|Mai,,,1,GAF CANADA ULC,,ch,
couvreurs2020,051221871,78685015,,MEMBRANE ETANCH.STORMGUARD NR,MEMBRANE ETANCH.STORMGUARD NR,"  76,57  $ ",Toiture,https://cdn.rona.ca/images/78685015_L.jpg,Avril|Avril et Mai|Mai,,,1,GAF CANADA ULC,,ch,
couvreurs2020,004020342,7267004,,CIMENT PLAS.10K BAK.     81021,CIMENT PLAS.10K BAK.     81021,"  31,74  $ ",Toiture,https://cdn.rona.ca/images/7267004_L.jpg,Avril|Avril et Mai|Mai,,,1,HENRY COMPANY CANADA INC,,ch,
couvreurs2020,,52925057,,"VALLEY-BLK STL 12""X12""X10'30GA","VALLEY-BLK STL 12""X12""X10'30GA","  32,54  $ ",Revêtement extérieur,https://cdn.rona.ca/images/52925057_L.jpg,Avril|Avril et Mai|Mai,,,1,IDEAL REVETEMENT COMPAGNIE LIMITEE,,ch,
couvreurs2020,029420353,0173117,,"SOLIN DE TOIT NEOPRENE 3""","SOLIN DE TOIT NEOPRENE 3""","  3,99  $ ",Plomberie de base,https://cdn.rona.ca/images/0173117_L.jpg,Avril|Avril et Mai|Mai,,,1,JOHN L.SCHULTZ LTD,,ch,
couvreurs2020,029420354,0173118,,"SOLIN DE TOIT NEOPRENE 4""","SOLIN DE TOIT NEOPRENE 4""","  3,99  $ ",Plomberie de base,https://cdn.rona.ca/images/0173118_L.jpg,Avril|Avril et Mai|Mai,,,1,JOHN L.SCHULTZ LTD,,ch,
couvreurs2020,051025465,7416041,,RESISTO LB1236 3'X65'X1.35MM,RESISTO LB1236 3'X65'X1.35MM,"  39,89  $ ",Toiture,https://cdn.rona.ca/images/7416041_L.jpg,Avril|Avril et Mai|Mai,,,1,SOPREMA INC.- DIV.RESISTO,,ch,
couvreurs2020,051088548,74165070,,LASTOBOND PRO HT-N BGE 3'X65',LASTOBOND PRO HT-N BGE 3'X65',"  101,33  $ ",Toiture,https://cdn.rona.ca/images/74165070_L.jpg,Avril|Avril et Mai|Mai,,,1,SOPREMA INC.- DIV.RESISTO,,rouleau,
couvreurs2020,004020570,7416001,,PROTECTEUR AVANT-TOIT 3X 65',PROTECTEUR AVANT-TOIT 3X 65',"  51,94  $ ",Toiture,https://cdn.rona.ca/images/7416001_L.jpg,Avril|Avril et Mai|Mai,,,1,SOPREMA INC.- DIV.RESISTO,,ch,
couvreurs2020,004020585,7416025,,MEMBRANE FIN. HR NOIR 1X7 ME,MEMBRANE FIN. HR NOIR 1X7 ME,"  74,95  $ ",Toiture,https://cdn.rona.ca/images/7416025_L.jpg,Avril|Avril et Mai|Mai,,,1,SOPREMA INC.- DIV.RESISTO,,rouleau,
couvreurs2020,004020584,7416024,,MEMBRANE FIN.HR GRIS 1X7ME,MEMBRANE FIN.HR GRIS 1X7ME,"  74,95  $ ",Toiture,https://cdn.rona.ca/images/7416024_L.jpg,Avril|Avril et Mai|Mai,,,1,SOPREMA INC.- DIV.RESISTO,,rouleau,
couvreurs2020,051085711,74165103,,CIMENT PLAS.PRO NR RS35-20KG,CIMENT PLAS.PRO NR RS35-20KG,"  31,99  $ ",Toiture,https://cdn.rona.ca/images/74165103_L.jpg,Avril|Avril et Mai|Mai,,,1,SOPREMA INC.- DIV.RESISTO,,ch,
couvreurs2020,051085716,74165109,,ENDUIT TOIT FIB.RS225-18.9LT,ENDUIT TOIT FIB.RS225-18.9LT,"  35,78  $ ",Toiture,https://cdn.rona.ca/images/74165109_L.jpg,Avril|Avril et Mai|Mai,,,1,SOPREMA INC.- DIV.RESISTO,,ch,
couvreurs2020,051135851,74165080,,"RESISTOR PLUS 500 GR 40""X150'","RESISTOR PLUS 500 GR 40""X150'","  76,57  $ ",Toiture,https://cdn.rona.ca/images/74165080_L.jpg,Avril|Avril et Mai|Mai,,,1,SOPREMA INC.- DIV.RESISTO,,ch,
couvreurs2020,051085706,74165098,,CIMENT PLAS.PRO NR RS35-300ML,CIMENT PLAS.PRO NR RS35-300ML,"  2,10  $ ",Toiture,https://cdn.rona.ca/images/74165098_L.jpg,Avril|Avril et Mai|Mai,,,1,SOPREMA INC.- DIV.RESISTO,,ch,
couvreurs2020,051085718,74165111,,ENDUIT TOIT N-FIB.RS235-18.9LT,ENDUIT TOIT N-FIB.RS235-18.9LT,"  37,67  $ ",Toiture,https://cdn.rona.ca/images/74165111_L.jpg,Avril|Avril et Mai|Mai,,,1,SOPREMA INC.- DIV.RESISTO,,ch,
couvreurs2020,051214094,74165188,,COIN PROTECT.RED ZONE RG,COIN PROTECT.RED ZONE RG,"  1,72  $ ",Toiture,https://cdn.rona.ca/images/74165188_L.jpg,Avril|Avril et Mai|Mai,,,1,SOPREMA INC.- DIV.RESISTO,,ch,
couvreurs2020,051208227,74165179,,MEMBRANE 71'X3'GR.4SAIS.POLY,MEMBRANE 71'X3'GR.4SAIS.POLY,"  105,18  $ ",Toiture,https://cdn.rona.ca/images/74165179_L.jpg,Avril|Avril et Mai|Mai,,,1,SOPREMA INC.- DIV.RESISTO,,ch,
couvreurs2020,004020587,7416027,,MEMBRANE FIN. HR BRUN 1X7 ME,MEMBRANE FIN. HR BRUN 1X7 ME,"  74,33  $ ",Toiture,https://cdn.rona.ca/images/7416027_L.jpg,Avril|Avril et Mai|Mai,,,1,SOPREMA INC.- DIV.RESISTO,,rouleau,
couvreurs2020,051085709,74165101,,CIMENT PLAS.PRO NR RS35-4KG,CIMENT PLAS.PRO NR RS35-4KG,"  6,22  $ ",Toiture,https://cdn.rona.ca/images/74165101_L.jpg,Avril|Avril et Mai|Mai,,,1,SOPREMA INC.- DIV.RESISTO,,ch,
couvreurs2020,051220357,74165223,,"BANDE ETANCH. T.TEMP.12""X75'BC","BANDE ETANCH. T.TEMP.12""X75'BC","  61,90  $ ",Toiture,https://cdn.rona.ca/images/74165223_L.jpg,Avril|Avril et Mai|Mai,,,1,SOPREMA INC.- DIV.RESISTO,,ch,
couvreurs2020,051085703,74165095,,CIMENT PLASTIQUE NOIR 300ML,CIMENT PLASTIQUE NOIR 300ML,"  1,55  $ ",Toiture,https://cdn.rona.ca/images/74165095_L.jpg,Avril|Avril et Mai|Mai,,,1,SOPREMA INC.- DIV.RESISTO,,ch,
couvreurs2020,051220356,74165222,,"BANDE ETANCH. T.TEMP. 9""X75'BC","BANDE ETANCH. T.TEMP. 9""X75'BC","  53,65  $ ",Toiture,https://cdn.rona.ca/images/74165222_L.jpg,Avril|Avril et Mai|Mai,,,1,SOPREMA INC.- DIV.RESISTO,,ch,
couvreurs2020,051220354,74165220,,"BANDE ETANCH. T.TEMP. 4""X75'BC","BANDE ETANCH. T.TEMP. 4""X75'BC","  23,83  $ ",Toiture,https://cdn.rona.ca/images/74165220_L.jpg,Avril|Avril et Mai|Mai,,,1,SOPREMA INC.- DIV.RESISTO,,ch,
couvreurs2020,004020582,7416019,,SCELLANT ETANC. 310 ML,SCELLANT ETANC. 310 ML,"  5,72  $ ",Produit de réparation de surface,https://cdn.rona.ca/images/7416019_L.jpg,Avril|Avril et Mai|Mai,,,1,SOPREMA INC.- DIV.RESISTO,,ch,
couvreurs2020,051208229,74165181,,"MEMBRANE 75'X12""GR.HIVER POLY","MEMBRANE 75'X12""GR.HIVER POLY","  35,94  $ ",Toiture,https://cdn.rona.ca/images/74165181_L.jpg,Avril|Avril et Mai|Mai,,,1,SOPREMA INC.- DIV.RESISTO,,ch,
couvreurs2020,051085705,74165097,,CIMENT PLASTIQ.NOIR RS25-20KG,CIMENT PLASTIQ.NOIR RS25-20KG,"  30,34  $ ",Toiture,https://cdn.rona.ca/images/74165097_L.jpg,Avril|Avril et Mai|Mai,,,1,SOPREMA INC.- DIV.RESISTO,,ch,
couvreurs2020,051220355,74165221,,"BANDE ETANCH. T.TEMP. 6""X75'BC","BANDE ETANCH. T.TEMP. 6""X75'BC","  35,76  $ ",Toiture,https://cdn.rona.ca/images/74165221_L.jpg,Avril|Avril et Mai|Mai,,,1,SOPREMA INC.- DIV.RESISTO,,ch,
couvreurs2020,051208230,74165182,,"MEMBRANE 75'X9""GR.HIVER POLY","MEMBRANE 75'X9""GR.HIVER POLY","  27,24  $ ",Toiture,https://cdn.rona.ca/images/74165182_L.jpg,Avril|Avril et Mai|Mai,,,1,SOPREMA INC.- DIV.RESISTO,,ch,
couvreurs2020,051135853,74165156,,"BANDE T-USAGE ETAN.18""X16.4'","BANDE T-USAGE ETAN.18""X16.4'","  27,74  $ ",Toiture,https://cdn.rona.ca/images/74165156_L.jpg,Avril|Avril et Mai|Mai,,,1,SOPREMA INC.- DIV.RESISTO,,ch,
couvreurs2020,004020621,7416039,,PROT.AV-TOIT ETA.ELAS.91CMX10M,PROT.AV-TOIT ETA.ELAS.91CMX10M,"  37,22  $ ",Toiture,https://cdn.rona.ca/images/7416039_L.jpg,Avril|Avril et Mai|Mai,,,1,SOPREMA INC.- DIV.RESISTO,,boîte,
couvreurs2020,051126388,74165154,,"BANDE T-USAGE ETAN.12""X16.4'","BANDE T-USAGE ETAN.12""X16.4'","  18,89  $ ",Toiture,https://cdn.rona.ca/images/74165154_L.jpg,Avril|Avril et Mai|Mai,,,1,SOPREMA INC.- DIV.RESISTO,,ch,
couvreurs2020,051126389,74165155,,"BANDE T-USAGE ETAN.6""X16.4'","BANDE T-USAGE ETAN.6""X16.4'","  10,18  $ ",Toiture,https://cdn.rona.ca/images/74165155_L.jpg,Avril|Avril et Mai|Mai,,,1,SOPREMA INC.- DIV.RESISTO,,ch,
couvreurs2020,051085704,74165096,,CIMENT PLASTIQ.NOIR RS25- 4KG,CIMENT PLASTIQ.NOIR RS25- 4KG,"  6,17  $ ",Toiture,https://cdn.rona.ca/images/74165096_L.jpg,Avril|Avril et Mai|Mai,,,1,SOPREMA INC.- DIV.RESISTO,,ch,
couvreurs2020,051085715,74165108,,ENDUIT TOIT FIB.RS225-3.78LT,ENDUIT TOIT FIB.RS225-3.78LT,"  9,32  $ ",Toiture,https://cdn.rona.ca/images/74165108_L.jpg,Avril|Avril et Mai|Mai,,,1,SOPREMA INC.- DIV.RESISTO,,ch,
couvreurs2020,051208231,74165183,,"MEMBRANE 75'X6""GR.HIVER POLY","MEMBRANE 75'X6""GR.HIVER POLY","  18,59  $ ",Toiture,https://cdn.rona.ca/images/74165183_L.jpg,Avril|Avril et Mai|Mai,,,1,SOPREMA INC.- DIV.RESISTO,,ch,
couvreurs2020,051085717,74165110,,ENDUIT TOIT N-FIB.RS235-3.78LT,ENDUIT TOIT N-FIB.RS235-3.78LT,"  9,10  $ ",Toiture,https://cdn.rona.ca/images/74165110_L.jpg,Avril|Avril et Mai|Mai,,,1,SOPREMA INC.- DIV.RESISTO,,ch,
couvreurs2020,051208232,74165184,,"MEMBRANE 75'X4""GR.HIVER POLY","MEMBRANE 75'X4""GR.HIVER POLY","  11,69  $ ",Toiture,https://cdn.rona.ca/images/74165184_L.jpg,Avril|Avril et Mai|Mai,,,1,SOPREMA INC.- DIV.RESISTO,,ch,
couvreurs2020,051103302,6467006,,VENTILATEUR TOIT INC.301-12-N,VENTILATEUR TOIT INC.301-12-N,"  65,42  $ ",Ventilation,https://cdn.rona.ca/images/6467006_L.jpg,Avril|Avril et Mai|Mai,,,1,VENTILATION MAXIMUM LTEE,,ch,
couvreurs2020,051103301,6467005,,VENTILATEUR TOIT INC.301-12-B,VENTILATEUR TOIT INC.301-12-B,"  65,42  $ ",Ventilation,https://cdn.rona.ca/images/6467005_L.jpg,Avril|Avril et Mai|Mai,,,1,VENTILATION MAXIMUM LTEE,,ch,
couvreurs2020,,6467012,,VENTILATEUR TOIT INCL.303-12-N,VENTILATEUR TOIT INCL.303-12-N,"  62,27  $ ",Ventilation,https://cdn.rona.ca/images/6467012_L.jpg,Avril|Avril et Mai|Mai,,,1,VENTILATION MAXIMUM LTEE,,ch,
couvreurs2020,,6467011,,VENTILATEUR TOIT INCL.303-12-B,VENTILATEUR TOIT INCL.303-12-B,"  56,84  $ ",Ventilation,https://cdn.rona.ca/images/6467011_L.jpg,Avril|Avril et Mai|Mai,,,1,VENTILATION MAXIMUM LTEE,,ch,
couvreurs2020,,6467009,,VENTILATEUR TOIT INCL.302-12-N,VENTILATEUR TOIT INCL.302-12-N,"  35,21  $ ",Ventilation,https://cdn.rona.ca/images/6467009_L.jpg,Avril|Avril et Mai|Mai,,,1,VENTILATION MAXIMUM LTEE,,ch,
couvreurs2020,051103306,6467007,,VENTILATEUR TOIT INC 301-12-G,VENTILATEUR TOIT INC 301-12-G,"  65,42  $ ",Ventilation,https://cdn.rona.ca/images/6467007_L.jpg,Avril|Avril et Mai|Mai,,,1,VENTILATION MAXIMUM LTEE,,ch,
couvreurs2020,,6467031,,"CLAPET DE TOIT 4"" NR    CT-4-N","CLAPET DE TOIT 4"" NR    CT-4-N","  34,11  $ ",Accessoires de ventilation et évacuation,https://cdn.rona.ca/images/6467031_L.jpg,Avril|Avril et Mai|Mai,,,1,VENTILATION MAXIMUM LTEE,,ch,
couvreurs2020,000137300,6467008,,VENTILATEUR TOIT INCL.302-12-B,VENTILATEUR TOIT INCL.302-12-B,"  35,21  $ ",Ventilation,https://cdn.rona.ca/images/6467008_L.jpg,Avril|Avril et Mai|Mai,,,1,VENTILATION MAXIMUM LTEE,,ch,
couvreurs2020,051148239,6467032,,"CLAPET DE TOIT 4"" BRUN  CT-4-B","CLAPET DE TOIT 4"" BRUN  CT-4-B","  37,64  $ ",Accessoires de ventilation et évacuation,https://cdn.rona.ca/images/6467032_L.jpg,Avril|Avril et Mai|Mai,,,1,VENTILATION MAXIMUM LTEE,,ch,
couvreurs2020,000137306,6467033,,"CLAPET DE TOIT 6"" NOIR  CT-6-N","CLAPET DE TOIT 6"" NOIR  CT-6-N","  35,00  $ ",Accessoires de ventilation et évacuation,https://cdn.rona.ca/images/6467033_L.jpg,Avril|Avril et Mai|Mai,,,1,VENTILATION MAXIMUM LTEE,,ch,
couvreurs2020,,LLLLLLLLLL,,GENOUILLÈRE,"Pour 12 paires et plus, obtenez la paire à 29,95$","31,95 $ ",Vêtements et sécurité,https://cdn.rona.ca/images/LLLLLLLLLL_L.jpg,Avril|Avril et Mai|Mai,,,1,,,ch,
couvreurs2020,,94945078,,BALAI MAGNÉTIQUE 24'',BALAI MAGNÉTIQUE 24'',"  37,00  $ ",Outils manuels,https://cdn.rona.ca/images/94945078_L.jpg,Avril|Avril et Mai|Mai,,,1,HOLLAND IMPORTS INC.,,ch,
couvreurs2020,000102297,01235357,,"PELLE À BARDEAUX, LAME ACIER 7po","Pelle à bardeaux, lame acier 7 po","  39,99  $ ",Outils manuels,https://cdn.rona.ca/images/01235357_L.jpg,Avril|Avril et Mai|Mai,,,1,GARANT PRO SERIES,,ch,