id,"User Email","User Login","First Name","Last Name","Entreprise (livraison)",nom_du_rep,"Billing Phone"
1,marc-antoine.leclerc@rona.ca,admin,Elizabeth,Lévesque,,"YVES MASSICOTTE",5149104488
2,hekka.ca@gmail.com,hekka.ca,Louis,Lebel,,"DANNY MICHAUD","514 966-0415"
3,elpe23@hotmail.com,elpe23,Brian,Lebel,,"No sales representative",5149660415
4,messier.jp@hotmail.com,messier.jp,Jean-Philippe,Messier,,"Aucun représentant",819-469-0689
5,melanie.lefort@rona.ca,melanie.lefort,Mélanie,Lefort,,"Aucun représentant",514-975-3926
6,tony.levesque@rona.ca,tony.levesque,Tony,Levesque,,"ALAIN CANTARA",5142166227
7,gabriel@serveko.ca,gabriel,Gabriel,Michaud-Lacoste,,"Aucun représentant",5148840432
8,claude.tomco@hotmail.com,claude.tomco,Claude,Berthelot,,"NORMAND DUBE","514 942-8159"
9,couvreurastral@videotron.ca,couvreurastral,claude,gravel,,"NORMAND DUBE",5142943601
10,benoitgougeon@videotron.ca,benoitgougeon,benoit,gougeon,,"NORMAND DUBE","514 209 9720"
11,mftoitureelite@gmail.com,mftoitureelite,michael,houle,,"NORMAND DUBE",5142473491
12,niko9h@hotmail.ca,niko9h,nicolas,houde,,"Aucun représentant",5145735879
13,st-pierreguylainecouvreur@hotmail.com,st-pierreguylainecouvreur,GUYLAINE,ST-PIERRE,,"Aucun représentant",514-386-1237
14,toitvallee@globetrotter.net,toitvallee,STEVE,CHAREST,,"DANNY MICHAUD",418-629-7281
15,ce_brodeur@hotmail.com,ce_brodeur,"charles etienne",Brodeur,,"AUDREY BOURGEOIS","514 835 3828"
16,couvreurduquette@hotmail.com,couvreurduquette,mario,duquette,,"MARIO DOYON",450-776-4955
17,toituregiroux@hotmail.com,toituregiroux,pascal,giroux,,"Aucun représentant",5146086629
18,toiturealarie@hotmail.ca,toiturealarie,mario,alarie,,"Aucun représentant",514-220-3569
19,marcandre_lavoie@yahoo.ca,marcandre_lavoie,Marc-André,Lavoie,,"PATRICK LEMIEUX",514-209-6272
20,benoit@toituresboyer.com,benoit,benoit,boyer,,"Aucun représentant",514-706-5794
21,constructiongc2001@gmail.com,constructiongc2001,Gaetan,Comtois,,"AUDREY BOURGEOIS",450-444-3755
22,patrickpelchat@hotmail.com,patrickpelchat,Patrick,Pelchat,,"MARC CLOUTIER",514-919-1960
23,sommet.renovation@gmail.com,sommet.renovation,Brigitte,Chevalier,,"AUDREY BOURGEOIS",4504678587
24,toituressurmesures@hotmail.com,toituressurmesures,Frederic,Carriere,,"PIERRE-HENRI OUELLETTE",514-660-6920
25,jean-olivier.levesque@rona.ca,jean-olivier.levesque,Jean-Olivier,Lévesque,,"JEAN-OLIVIER LEVESQUE",450-405-3486
26,patrick.blais@rona.ca,patrick.blais,patrick,blais,,"Aucun représentant",450-521-2557
27,bruno@toiture-polaire.com,bruno,Bruno,Gagnon-Duval,,"GAETAN SYLVESTRE",418-520-0413
28,mario.doyon@rona.ca,mario.doyon,mario,doyon,,"MARIO DOYON",450-775-7221
29,msca1170@live.com,msca1170,Mélanie,Beaudoin,,"Aucun représentant",5147040196
30,toituresjsbrisson@hotmail.com,toituresjsbrisson,Jannie,Martel-Mercier,,"GAETAN SYLVESTRE",418-951-6260
31,info@lesentrepriseslafco.ca,info,Lafco,Entreprises,,"Aucun représentant",8196698292
32,caron.richard@videotron.ca,caron.richard,Richard,Caron,,"Aucun représentant",5149447272
33,patrickchevalier@live.ca,patrickchevalier,Patrick,Chevalier,,"Aucun représentant",6134080435
34,info@toituresadrenaline.com,info1,THIERRY,MIGNOT,,"DOMINIC BERTRAND",5142904344
35,info@toitureunion.com,info2,Philippe,Marcoux,,"PATRICK BLAIS",514-816-8168
36,toituresnlegault@gmail.com,toituresnlegault,Marcel,Brossard,,"Aucun représentant",514-214-2363
37,toiturelesassocies@yahoo.ca,toiturelesassocies,Sebastien,Brunet,,"DOMINIC BERTRAND",5147715875
38,loumay@videotron.ca,loumay,louis,lemay,,"Aucun représentant",819-643-5656
39,guylussier@gmail.com,guylussier,Guy,Lussier,,"Aucun représentant",450-522-3335
40,info@matoitureinc.ca,info3,Alain,Rivest,,"Aucun représentant",514-371-7182
41,revetementshsolution@hotmail.com,revetementshsolution,Tina,Marleau,,"Aucun représentant",5149173510
42,danny.michaud@rona.ca,danny.michaud,Danny,Michaud,,"DANNY MICHAUD",4185092229
43,rpbjimmy@nb.aibn.com,rpbjimmy,Jimmy,Bosse,,"DANNY MICHAUD",506-736-9804
44,entreprisesblevesque@hotmail.com,entreprisesblevesque,Levesque,Bruno,,"GAETAN SYLVESTRE",4186676777
45,constructionj.lepage@gmail.com,constructionj.lepage,Jacques,Lepage,,"DANNY MICHAUD",4187242569
46,info@protectoit.com,info4,Eric,Bergeron,,"GAETAN SYLVESTRE",4185207125
49,cboyer@boyerduretterenos.com,cboyer,Christian,Boyer,,"DOMINIC BERTRAND",514-709-2121
51,info@centroconstruction.ca,info5,DAVE,PELETIER,,"PIERRE-HENRI OUELLETTE",438-862-2004
52,aemichaud@outlook.com,aemichaud,André,Emond,,"DANNY MICHAUD",5067373989
53,audrey.bourgeois@rona.ca,audrey.bourgeois,audrey,bourgeois,,"AUDREY BOURGEOIS",514-347-0566
54,toituresylevesque@globetrotter.net,toituresylevesque,Yvan,Levesque,,"DANNY MICHAUD",4187229542
55,isabelle.raymond@actiplus.ca,isabelle.raymond,Christian,Boire,,"Aucun représentant",514-299-6694
56,xavier@durotoit.com,xavier,Xavier,Trépanier,,"Aucun représentant",5147798648
57,toitures.sirois@gmail.com,toitures.sirois,Maxime,Sirois,,"Aucun représentant",8196987529
58,toiturerivesud@gmail.com,toiturerivesud,Christian,Fettu,,"Aucun représentant","514 726 7033"
59,toitureskarolfrancis@gmail.com,toitureskarolfrancis,Karol,Francis,,"DANNY MICHAUD",4187322511
60,pc.qualitetoits@gmail.com,pc.qualitetoits,Cassandra,Castonguay,,"Aucun représentant",514-699-5086
61,toitures.protex@outlook.com,toitures.protex,Mixalis,Rizos,,"Aucun représentant",5145783204
62,stephane-gauthier2010@hotmail.com,stephane-gauthier2010,Gauthier,Stephane,,"Aucun représentant",8193456423
63,info@toitureslapointe.ca,info6,Gaétan,Lapointe,,"Aucun représentant",514-616-7385
64,toiturespolygone@hotmail.com,toiturespolygone,Robert,Dugas,,"PATRICK BLAIS",514-506-9250
65,toituresfrancoismiron@hotmail.com,toituresfrancoismiron,francois,miron,,"NORMAND DUBE",514-884-5696
66,donbanville263@outlook.com,donbanville263,DONALD,BANVILLE,,"DANNY MICHAUD","(506) 733-0977"
67,refectoit.inc@hotmail.com,refectoit.inc,s,b,,"Aucun représentant","514 968-1564"
68,jsdroofing@gmail.com,jsdroofing,Jeansimon,Dufour,,"Aucun représentant",8197903736
69,couverturesmichelsylvain@gmail.com,couverturesmichelsylvain,Michel,Sylvain,,"Aucun représentant","514 237 9147"
70,renovationts@gmail.com,renovationts,Guy,Rollin,,"Aucun représentant","819 431 9399"
71,gilles.pelletier@rona.ca,gilles.pelletier,gilles,pelletier,,"Aucun représentant",514-347-0271
72,ent.berube@videotron.ca,ent.berube,Donald,Bérubé,,"Aucun représentant","819 243 4115"
73,yves@toituresphenix.com,yves,Yves,Brodeur,,"PATRICK BLAIS",514-269-4583
74,info@couvreurcdp.com,info7,Esther,Dupont,,"Aucun représentant",8195620123
75,constructions.srdk@gmail.com,constructions.srdk,kevin,bouchard,,"Aucun représentant",506-740-1222
76,v.perreault@toituresvperreault.com,v.perreault,Vincent,Perreault,,"NORMAND DUBE",5147997856
77,jls.lamontagnes@gmail.com,jls.lamontagnes,Sylvain,Lamontagne,,"Aucun représentant",514-830-3218
78,couvreurrivesud2006@msn.com,couvreurrivesud2006,Yves,Lortie,,"Aucun représentant",5149775683
79,alaindesjardinscouvreur@msn.com,alaindesjardinscouvreur,Alain,Desjardins,,"Aucun représentant",4506600441
80,sl.nwr@nb.aibn.com,sl.nwr,STEVEN,LAVOIE,,"DANNY MICHAUD",506-733-1814
81,bininngroofing@hotmail.com,bininngroofing,amrik,bininng,,"Aucun représentant",5146388282
82,toiturejfberard@hotmail.com,toiturejfberard,Jeanfrancois,Berard,,"MARC CLOUTIER",5145131066
83,babyland06@hotmail.fr,babyland06,Stéphane,Picard,,"Aucun représentant","450 378 1240"
84,c.grenier@lesgeants.ca,c.grenier,CLEMENT,GRENIER,,"Aucun représentant",514-838-8525
85,slacasse@lacasseetfils.com,slacasse,Serge,Lacasse,,"MARIO DOYON",819-578-3407
86,toiturestplinc@hotmail.com,toiturestplinc,Pascal,Tribout,,"NORMAND DUBE",514-268-0372
87,guyleger01@gmail.com,guyleger01,Guy,Léger,,"Aucun représentant",5147033641
88,toiturestacygosselin@hotmail.com,toiturestacygosselin,Stacy,Gosselin,,"Aucun représentant",5145670935
89,info@mecba.ca,info8,Marie-Josée,Goulet,,"Aucun représentant",4185700620
90,jf-ski@hotmail.com,jf-ski,jean-frederic,pinard,,"PATRICK LEMIEUX",5147585954
91,admin@silanictoitures.com,admin1,Sylvain,Durance,,"NORMAND DUBE",514-945-250
92,toitures.lg@gmail.com,toitures.lg,Luc,Champigny,,"ALAIN CANTARA",5149177487
93,info@hekka.ca,info9,Mario,Lebel,,"Aucun représentant",514-966-0415
94,toituresdavidpage@gmail.com,toituresdavidpage,David,Pagé,,"Aucun représentant",819-531-0321
95,pierreluclaberge@yahoo.ca,pierreluclaberge,pierre-luc,laberge,,"PATRICK LEMIEUX","514 707-5875"
96,sfiliatreault@asfiliatreault.com,sfiliatreault,Sébastien,Filiatreault,,"Aucun représentant",514-914-8482
97,toituresuperieure@gmail.com,toituresuperieure,Tomy,Payeur,,"Aucun représentant",418-281-9615
98,billy@couvreurcouvtoit.com,billy,Billy,Ouimet,,"Aucun représentant",5144448641
99,info@lesconstructionsdpsignature.com,info10,Dario,Truchon,,"ETIENNE FECTEAU",5148173750
100,select.dant@gmail.com,select.dant,Daniel,Thériault,,"DANNY MICHAUD",506-737-7528
101,francis@toitures-tech.ca,francis,Francis,"Brunet PT",,"PIERRE-HENRI OUELLETTE",5142392868
102,mcaron@toiturescaron.com,mcaron,Mario,Caron,,"SYLVIE PLOURDE",4505301436
103,toituresmartinlafontaine@videotron.ca,toituresmartinlafontaine,Martin,Lafontaine,,"MARC CLOUTIER","514 924 5466"
104,info@toitureslarose.com,info11,Marc,Larose,,"JEAN-OLIVIER LEVESQUE",450-994-7779
105,alain.cantara@rona.ca,alain.cantara,Alain,Cantara,,"ALAIN CANTARA",450-587-3937
106,toituresguillette@hotmail.com,toituresguillette,Pierre,Guillette,,"Aucun représentant",4505784129
107,lestoituresgaumond@hotmail.com,lestoituresgaumond,Jean-Francois,Gaumond,,"NORMAND DUBE",514-884-1604
108,pmenardcouvreur@hotmail.com,pmenardcouvreur,Philippe,Ménard,,"MARIO DOYON","450 531-7447"
109,gbcouvreur@bellnet.ca,gbcouvreur,Eric,"L\\\\\\\\\\\\\\\\\\\\\\\\\\\\\\\\\\\\\\\\\\\\\\\\\\\\\\\\\\\\\\\'Archeveque",,"Aucun représentant",450-368-5221
110,info@toituressoleil.com,info12,Marie-Lyne,Charest-Brunet,,"NORMAND DUBE",4504784530
111,toiturelavoie@gmail.com,toiturelavoie,Gino,Lavoie,,"PATRICK BLAIS",4505617869
112,mgeoffrion87@Gmail.com,mgeoffrion87,martin,geoffrion,,"DANIEL CHEVRIER",5142229786
113,mjbhivon@videotron.ca,mjbhivon,Benoit,Hivon,,"ALAIN CANTARA",450-880-0233
114,info2@hekka.ca,info21,Louis,Lebel,,"Aucun représentant","514 966-0415"
115,sebastien@groupebouda.com,sebastien,Sebastien,Boulanger,,"AUDREY BOURGEOIS",5145813928
116,stephane@lestoituresmorel.com,stephane,Stéphane,Morel,,"Aucun représentant",4508989061
117,infos@toiturescemalie.com,infos,Cedric,Lepine,,"Aucun représentant",5149100246
119,toiturebeaudoin@outlook.com,toiturebeaudoin,Eric,Beaudoin,,"Aucun représentant",450-670-6771
120,jagnew@brico-toit.com,jagnew,Jessica,Agnew,,"NORMAND DUBE",514-663-3277
121,pierre.lachance@rona.ca,pierre.lachance,pierre,lachance,,"Aucun représentant",5142128459
122,DOMINIC.BERTRAND@RONA.CA,DOMINIC.BERTRAND,DOMINIC,BERTRAND,,"DOMINIC BERTRAND",514-972-2392
123,etienne.fecteau@rona.ca,etienne.fecteau,Etienne,Fecteau,,"Aucun représentant","514 239 0811"
124,daniel.lauzon@rona.ca,daniel.lauzon,Daniel,Lauzon,,"DANIEL LAUZON",514-863-5905
125,yann.dufault@marcilcdr.com,yann.dufault,Yann,Dufault,,"Aucun représentant",514-239-3256
126,alain_stjean2000@yahoo.ca,alain_stjean2000,Alain,"St Jean",,"AUDREY BOURGEOIS",5148389595
127,MARC.CLOUTIER@RONA.CA,MARC.CLOUTIER,Marc,Cloutier,,"Aucun représentant",5143472619
128,sylvie.plourde@rona.ca,sylvie.plourde,sylvie,plourde,,"SYLVIE PLOURDE",5144443135
129,info@toitureunix.com,info13,Andy,Tremblay,,"ALAIN CANTARA",514-742-8647
130,pierre-henri.ouellette@rona.ca,pierre-henri.ouellette,pierre-henri,ouellette,,"Aucun représentant","514 217 9114"
131,mikeblatter929@gmail.com,mikeblatter929,Mike,Blatter,,"Aucun représentant",5147309019
132,jbriere@couvertures.ca,jbriere,johanne,briere,,"Aucun représentant",514-926-0399
133,lestoituresadvitam@hotmail.ca,lestoituresadvitam,Yan,Cormier,,"Aucun représentant",5148209198
134,daniel.chevrier@rona.ca,daniel.chevrier,Daniel,Chevrier,,"Aucun représentant",5149840487
135,production@rfd2000.ca,production,Francis,Doyon,,"ALAIN CANTARA",4506555031
136,toituresg@gmail.com,toituresg,sylvain,garceau,,"Aucun représentant",8195386661
137,toituresatherrien@videotron.ca,toituresatherrien,alain,therrien,,"Aucun représentant","819 668 2432"
138,toituresdupont@hotmail.comn,toituresdupont,François,Dupont,,"Aucun représentant","514 444 9360"
139,toituredg@gmail.com,toituredg,Ghislaing,Grenier,,"Aucun représentant",819-829-3889
140,toiturechaudiereappalaches@hotmail.com,toiturechaudiereappalaches,Mathieu,Ruel,,"Aucun représentant",4182819421
141,andrevinet@live.ca,andrevinet,andre,Vinet,,"DOMINIC BERTRAND",514-918-0241
142,denis@toituresbl.ca,denis,Denis,Boisvert,,"ALAIN CANTARA","514 3490305"
143,toituresparagon@gmail.com,toituresparagon,Kenny,Clarke,,"AUDREY BOURGEOIS",514-290-5646
144,eric.dubois@hotmail.com,eric.dubois,Eric,Dubois,,"MARIO DOYON",4505250597
145,steve.racicot@live.ca,steve.racicot,steve,racicot,,"ETIENNE FECTEAU",514-501-0087
146,eric@toiturelajoie.com,eric,Eric,Lajoie,,"Aucun représentant",418-3344277
147,admin@toiture-bardeaux.com,admin2,Pascal,Belanger,,"ALAIN CANTARA",5148385945
148,yoakim@hotmail.ca,yoakim,"Abdel Hakim",Dahir,,"Aucun représentant",4389897375
149,j.lauze@toituredelta.com,j.lauze,Julien,Lauzé,,"GAETAN SYLVESTRE",4188321007
150,toituresultima@gmail.com,toituresultima,Éric,Bigeault,,"Aucun représentant",450-516-4802
151,benoit@toitures24.ca,benoit1,benoit,trussart,,"Aucun représentant",5144047927
152,bstgeorges@liquiteck.com,bstgeorges,benoit,st-georges,,"Aucun représentant",438-827-8327
153,fred.lajoie.71@gmail.com,fred.lajoie.71,Frédérik,Lajoie,,"Aucun représentant",418-932-2767
154,carj@rona.ca,carj,Julie,Caron,,"Aucun représentant",5145995900
155,gigi@rona.ca,gigi,Isabelle,Giguère,,"ALAIN CANTARA",5147924324
156,sergelavallee@videotron.ca,sergelavallee,Serge,Lavallée,,"DANIEL CHEVRIER",5148177458
157,alainmorin61@hotmail.com,alainmorin61,Alain,Morin,,"MARIO DOYON",450-378-2037
158,aptoituresetfils@gmail.com,aptoituresetfils,Peter,Massie,,"DOMINIC BERTRAND",514-220-8492
159,toituresremigagne@hotmail.com,toituresremigagne,Rémi,Gagné,,"DANIEL CHEVRIER",514-919-6016
160,info@couvreurexcel.com,info14,thedy,joseph,,"Aucun représentant",5146861695
161,toituresbolduc@gmail.com,toituresbolduc,Marc,Bolduc,,"Aucun représentant",4189564144
162,707marco@gmail.com,707marco,Marco,Ricignuolo,,"Aucun représentant",514-629-5404
163,couvreurs@toit-direct.com,couvreurs,simon,benoit,,"NORMAND DUBE",4388808648
164,dominique.boule@rona.ca,dominique.boule,Dominique,Boule,,"Aucun représentant",4182227756
165,dale_scullion@yahoo.ca,dale_scullion,Dale,Scullion,,"Aucun représentant",418-655-5599
166,hamelfrancois1@hormail.com,hamelfrancois1,François,Hamel,,"Aucun représentant",819-574-4255
167,info@toiture640.com,info15,Marco,Brisson,,"NORMAND DUBE",514-945-8977
168,pifpafconstruction@icloud.com,pifpafconstruction,Manuel,Moreau,,"Aucun représentant",4508064666
169,welonboss@hotmail.com,welonboss,Steven,Gladu,,"Aucun représentant",514-291-5775
170,couvreurcomtois@hotmail.com,couvreurcomtois,Claude,Comtois,,"ALAIN CANTARA",524-269-5394
171,toiturequalipro@hotmail.com,toiturequalipro,Eric,"Boulanger Gaudreau",,"Aucun représentant",4182918454
172,info@toituresbarbeauetfils.com,info16,Pascal,Barbeau,,"Aucun représentant","514 821-8348"
173,toitureroy@hotmail.ca,toitureroy,Pierre,Roy,,"NORMAND DUBE",514-829-3777
174,,seed_cspv5_clientview_test,,,,,
175,simontoit@hotmail.com,simontoit,Pascal,simon,,"NORMAND DUBE",4503689400
176,dg.44070@marcilcdr.com,dg.44070,gilbert,leblanc,,"NORMAND DUBE",549530369
177,normand.dube@rona.ca,normand.dube,Pascal,Simon,,"NORMAND DUBE",4508989400
178,ci.41330@rona.ca,ci.41330,Pierre,Généreux,,"Aucun représentant",514-586-2498
179,leclercmarcantoine1@gmail.com,leclercmarcantoine1,Marc-Antoine,Leclerc,,"Aucun représentant",5149104488
180,marcmorindeziel@gmail.com,marcmorindeziel,Marc-André,Déziel,,"ALAIN CANTARA",5146182932
181,mamd94@hotmail.com,mamd94,Marc-André,Déziel,,"Aucun représentant",5146182932
182,eagle_174@hotmail.com,eagle_174,Test,Test,,"Aucun représentant",514-910-4488
183,melissa@serveko.ca,melissa,Mélissa,Sigouin,,"NORMAND DUBE",5144758074
184,toitureftd@hotmail.com,toitureftd,Francis,Tremblay-Desjardins,,"ETIENNE FECTEAU",450-486-4757
185,benponton@hotmail.com,benponton,Benoit,Ponton,,"Aucun représentant",5148332012
186,info@lesconstructionsnb.com,info17,Nicolas,Bellegarde,,"Aucun représentant",418-227-5301
187,plourde.unic@bellnet.ca,plourde.unic,Sébastien,Plourde,,"DANNY MICHAUD",418-893-2242
188,renovationguildochouinard@hotmail.com,renovationguildochouinard,GUILDO,CHOUINARD,,"DANNY MICHAUD",418-853-2444
189,marco@constructionsnormandpigeon.com,marco,Marco,Pigeon,,"Aucun représentant",5147771446
190,jean-francois@rmrleblanc.com,jean-francois,Jean-francois,Leblanc,,"Aucun représentant",5144444973
191,charbonneauclaude6@gmail.com,charbonneauclaude6,Claude,Charbonneau,,"GILLES PELLETIER","514 572 6600"
192,constructionmlb@gmail.com,constructionmlb,"Mike allen","Lavoie Berube",,"DANNY MICHAUD",418-750-9067
193,constructionpatrickleclair@gmail.com,constructionpatrickleclair,Patrick,Leclair,,"Aucun représentant",450-522-2239
194,lapointef267@gmail.com,lapointef267,François,Lapointe,,"Aucun représentant",5142647053
195,ncaron.enc@gmail.com,ncaron.enc,Nicolas,Caron,,"AUDREY BOURGEOIS",4388873500
196,constructionmarcc@gmail.com,constructionmarcc,marc,chevalier,,"Aucun représentant",5147941148
197,laboiteconstruction@gmail.com,laboiteconstruction,Félix,Monette-Dubeau,,"Aucun représentant",514-916-6666
198,constlpaquette@gmail.com,constlpaquette,LUC,PAQUETTE,,"Aucun représentant",819-773-0141
199,f.bouchard.robko@gmail.com,f.bouchard.robko,Francis,Bouchard,,"GAETAN SYLVESTRE","418.407.0752 p.3"
200,lucouimet@hotmail.fr,lucouimet,luc,ouimet,,"Aucun représentant",514-248-7891
201,constructionmaximegagne@gmail.com,constructionmaximegagne,Maxime,Gagné,,"PIERRE LACHANCE",5149473078
202,maxco_construction@hotmail.com,maxco_construction,Maxime,Trepanier,,"Aucun représentant",5146178224
203,mathieupicotin19@hotmail.com,mathieupicotin19,Mathieu,Picotin,,"Aucun représentant",5067401312
204,constructiondumais@live.ca,constructiondumais,Steve,Barriault,,"Aucun représentant",724-6319
205,couvreurroch@live.ca,couvreurroch,Danny,Bolduc,,"Aucun représentant",450-830-5399
206,workmanmtl@gmail.com,workmanmtl,Alex,Workman,,"AUDREY BOURGEOIS","514 995697"
207,ngaboury@mayton.ca,ngaboury,NANCY,GABOURY,,"MARIO DOYON",4505341785
208,const.bl@videotron.ca,const.bl,Benoit,Laflamme,,"MARIO DOYON",450-777-3882
209,constructionfmaloinc@hotmail.com,constructionfmaloinc,Francois,Malo,,"MARIO DOYON",4503795417
210,guysalvas@gmail.com,guysalvas,guy,salvas,,"GILLES PELLETIER",5148982989
211,toituresvarin@gmail.com,toituresvarin,Eric,Varin,,"PATRICK CHEVALIER",819-351-7647
212,j.bilodeau@outlook.com,j.bilodeau,Jimmy,Bilodeau,,"DOMINIC BOULE",4182223612
213,mrichard@agilis.ca,mrichard,Michèle,Richard,,"Aucun représentant",819-663-5430
214,entrpquirion@gmail.com,entrpquirion,pascal,quirion,,"Aucun représentant",418-226-7513
215,cotetoitures@hotmail.com,cotetoitures,Martin,Côté,,"ETIENNE FECTEAU",5147084830
216,admin@groupegince.com,admin3,Karine,Gince,,"MARIO DOYON",4505390370
217,Toitelegant@gmail.com,Toitelegant,Pierre,Filion,,"ETIENNE FECTEAU",418-387-0101
218,gillesboulianne@bell.net,gillesboulianne,Gilles,Boulianne,,"Aucun représentant",418-805-0672
219,renodker@hotmail.com,renodker,Daniel,Brisson,,"Aucun représentant",4183385351
220,sebastienmorin@globetrotter.net,sebastienmorin,Sebastien,Morin,,"Aucun représentant",4182223228
221,davelachance@live.ca,davelachance,Dave,Lachance,,"Aucun représentant",418-221-5865
222,rn.nwr@nb.aibn.com,rn.nwr,Real,Nadeau,,"DANNY MICHAUD",5067391811
223,lavoie.pierre68@gmail.com,lavoie.pierre68,Pierre,Lavoie,,"SYLVIE PLOURDE",514-918-6655
224,toitureslarose@gmail.com,toitureslarose,Marc-Edouard,Larose,,"JEAN-OLIVIER LEVESQUE",4509947779
225,lise.lajoie@uqo.ca,lise.lajoie,Denis,Martel,,"PATRICK CHEVALIER",819-767-2186
226,johamannconstruction@gmail.com,johamannconstruction,jean-olivier,hamann,,"JEAN-OLIVIER LEVESQUE",4505218369
227,info@hu-nic.com,info18,Nicholas,Audet-Besner,,"AUDREY BOURGEOIS",5149079013
228,toituresbmt@gmail.com,toituresbmt,Benjamin,Ménard,,"Aucun représentant",450-558-3358
229,pprimeau@constructionprimeau.ca,pprimeau,Pascal,Primeau,,"ALEXANDRE MCKENNA",450-427-2387
230,info@toitureroyalemd.com,info19,Martin,daigle,,"Aucun représentant",418-999-2166
231,toitures.vnc@hotmail.com,toitures.vnc,vincent,vachon,,"Aucun représentant",4384941665
232,Toituresnordika@hotmail.ca,Toituresnordika,Frederic,Viens,,"Aucun représentant",4507127601
233,test123@gmail.com,test123,Marc-André,Déziel,,"ALAIN CANTARA",5146182932
234,david.dube@rona.ca,david.dube,David,Dube,,"Aucun représentant",4189315274
235,alexandre.mckenna@rona.ca,alexandre.mckenna,Alexandre,McKenna,,"ALEXANDRE MCKENNA",5146862203
236,yves.massicotte@rona.ca,yves.massicotte,yves,massicotte,,"YVES MASSICOTTE",8195314227
237,b.b-8toitures@hotmail.com,b.b-8toitures,Benjamin,Boyer,,"Aucun représentant",450-525-0081
238,mc3jconstruction@gmail.com,mc3jconstruction,Josianne,Tardif,,"MARIO DOYON",514-820-3388
239,yann.dufault@rona.ca,yann.dufault1,Yann,Dufault,,"YANN DUFAULT",514-239-3256
240,alexandre.champagne@rona.ca,alexandre.champagne,alexandre,champagne,,"ALEXANDRE CHAMPAGNE",5146901385
241,patrick.chevalier@rona.ca,patrick.chevalier,Patrick,Chevalier,,"PATRICK CHEVALIER",613-408-0435
242,sammy_ranciurt@hotmail.com,sammy_ranciurt,Sammy,Rancourt,,"Aucun représentant",8197908164
243,m_lefort11@hotmail.com,m_lefort11,Mélanie,Lefort,,"ALAIN CANTARA",514-975-3926
244,constructionscrg@hotmail.com,constructionscrg,Goulet,Jacques,,"DOMINIC BOULE",4183336113
245,k.d.g.construction.inc@gmail.com,k.d.g.construction.inc,Gilles,Veronneau,,"PATRICK BLAIS",5148674520
246,isabelletremblay.irq@videotron.ca,isabelletremblay.irq,Isabelle,tremblay,,"ETIENNE FECTEAU","450 906-3207"
247,ent.berube@videoteron.ca,ent.berube1,Donald,Bérubé,,"Aucun représentant","819 243 4115"
248,slacasse@lasseetfils.com,slacasse1,SERGE,LACASSE,,"MARIO DOYON",819-843-2681
249,st.blais@hotmail.com,st.blais,Alain,Rivest,,"Aucun représentant",514-371-7182
250,danielgouin@hotmail.com,danielgouin,Daniel,Gouin,,"MARIO DOYON",8195711602
251,samuel@toituresphenix.com,samuel,Samuel,Phénix,,"PATRICK BLAIS",4509290550
252,constructionyvonbouchard@live.ca,constructionyvonbouchard,Yvon,Bouchard,,"Aucun représentant",5142623135
253,lclginc@hotmail.com,lclginc,Luc,Girard,,"Aucun représentant",5142298859
254,info@couverturesgarneau.com,info20,Jean-François,Garneau,,"DOMINIC BOULE",418-334-1626
255,Info@optiontoiture.com,Info22,Mathieu,Lafleur,,"Aucun représentant",5149665580
256,info@toiture-polaire.com,info23,Bruno,"Gagnon Duval",,"DAVID DUBÉ",418-871-0875
257,gabriel_lussier@icloud.com,gabriel_lussier,Gabriel,Lussier,,"AUDREY BOURGEOIS",5149628721
258,j-p-dufour@hotmail.com,j-p-dufour,JEAN-PIERRE,DUFOUR,,"Aucun représentant",514-838-1377
259,alex_tha_pimp@hotmail.com,alex_tha_pimp,Alex,Chevalier,,"Aucun représentant",8192093465
260,carlpoirier@hotmail.com,carlpoirier,Carl,Poirier,,"DOMINIC BERTRAND",4504551643
261,toituresd.s@gmail.com,toituresd.s,Dany,Simard-collins,,"Aucun représentant",8196399401
262,kokandelroofing@gmail.com,kokandelroofing,Dave,Topping,,"DOMINIC BERTRAND",514-972-9604
263,toiture.titans@gmail.com,toiture.titans,philipe,menard,,"MARIO DOYON",450-531-7447
264,heleneboilard@icloud.com,heleneboilard,Helene,Boilard,,"DAVID DUBÉ",418-687-6668
265,toituresamh@videotron.ca,toituresamh,Michel,Harvey,,"DAVID DUBÉ",418-569-4561
266,constructionlbl@hotmail.com,constructionlbl,yanick,dube,,"Aucun représentant",4188946699
267,claudesylvetteperreault@gmail.com,claudesylvetteperreault,Claude,Perreault,,"DANNY MICHAUD",15067402841
268,m.ouellet@maisonsouellet.com,m.ouellet,Marco,Ouellet,,"Aucun représentant","418 867-2329"
269,alex@renovationsvachon.com,alex,alexandre,vachon,,"Aucun représentant",4183312127
270,constructionmad@hotmail.com,constructionmad,marc-andré,dion,,"NORMAND DUBE",5147542157
271,eric.harrisson@hmcmaison.com,eric.harrisson,Eric,Harrisson,,"DANNY MICHAUD",4183643838
272,michael@construction-harmonie.com,michael,Michael,Lequin,,"MARIO DOYON",450-775-9777
273,nathalie@tremblayetassocies.ca,nathalie,NATHALIE,MARTEL,,"DOMINIC BOULE",418-338-5791
274,gestionscaron@gmail.com,gestionscaron,Steve,Scattolin,,"AUDREY BOURGEOIS",514-928-3616
275,cdesgens@athenaconstruction.ca,cdesgens,Cassandra,Desgens,,"JEAN-OLIVIER LEVESQUE",4502630445
276,test@gmail.com,test,Marc-André,Déziel,,"ALAIN CANTARA",5146182932
277,alexandre@groupebbc.com,alexandre,Alexandre,Sauvé,,"PATRICK BLAIS",514-667-9874
278,info@constructionrancourt.com,info24,Dave,Rancourt,,"DOMINIC BOULE",4182257821
279,liligarden4@hotmail.com,liligarden4,Alain,Seguin,,"NORMAND DUBE",514-947-4609
280,lc-construction@videotron.ca,lc-construction,Luc,Hivon,,"PATRICK BLAIS",4508801580
281,mnolin@constructionsnovard.com,mnolin,Michel,Nolin,,"JEAN-OLIVIER LEVESQUE",450-293-2999
282,info@constructioninnovaction.ca,info25,Christian,Hétu,,"Aucun représentant",5142603214
283,martin@mavicconstruction.com,martin,Martin,"Vienneau T.P.",,"Aucun représentant","613 762 4833"
284,info@habitationjlj.com,info26,Carl-andré,Gagnon,,"AUDREY BOURGEOIS",5245834766
285,yann@tremblaymaitreconstructeur.com,yann,yann,tremblay,,"JEAN-PIERRE GAUTHIER",4503729223
286,Benchekconstruction@gmail.com,Benchekconstruction,Taoufiq,Benchekroun,,"GILLES PELLETIER",5142093336
287,habitationsmara@videotron.ca,habitationsmara,lavoie,derek,,"Aucun représentant","438 868 6272"
288,constructionspremium@hotmail.com,constructionspremium,Kevin,Deschenes,,"MARIO DOYON",4507700335
289,slapointegesconov@cgocable.ca,slapointegesconov,Steeve,Lapointe,,"Aucun représentant",418-333-5379
290,info@pascalusereau.com,info27,Pascal,Usereau,,"Aucun représentant",5147021259
291,construction@bernardgrondin.com,construction,Bernard,Grondin,,"MARIO DOYON",4504058950
292,alexbelisle@live.ca,alexbelisle,alexandre,bélisle,,"PATRICK BLAIS",4508800643
293,sylvainroy@expertmaison.com,sylvainroy,Sylvain,Roy,,"DANNY MICHAUD",418-862-9628
294,Mike@structureajm.com,Mike,Michel,Perusse,,"AUDREY BOURGEOIS",5142295326
295,constfmb@yahoo.ca,constfmb,Francis,Beaudoin,,"Aucun représentant",418-334-6870
296,rmorin@habitationsroussillon.ca,rmorin,Rémi,Morin,,"Aucun représentant",5149745204
297,habitationscontractor@gmail.com,habitationscontractor,Olivier,Raynauld,,"YVAN BOIVIN",5142339586
298,constructioncroteau@gmail.com,constructioncroteau,Jf,Croteau,,"Aucun représentant",4505786905
299,plaliberte@constructionspl2.com,plaliberte,Pierre,laliberte,,"DOMINIC BERTRAND",5147795184
300,ptconst@globetrotter.net,ptconst,Donald,Turmel,,"DOMINIC BOULE",418-253-6400
301,aucare@live.ca,aucare,Patrice,Quevillon,,"PATRICK CHEVALIER",819-360-8368
302,rioux_jeff@hotmail.com,rioux_jeff,Jean-françois,Rioux,,"DANNY MICHAUD",4187235518
303,kalypso@videotron.ca,kalypso,Freferic,Veilleux,,"ALEXANDRE MCKENNA",5149796452
304,info@constructionsjt.com,info28,Jonathan,Tetreault,,"JEAN-PIERRE GAUTHIER",5147138205
305,Jprimeau@constructionprimeau.ca,Jprimeau,Jasmin,Primeau,,"ALEXANDRE MCKENNA",514-242-9383
306,habitationsentourages@gmail.com,habitationsentourages,Marie-Philipe,Maltais,,"Aucun représentant",4388885856
307,samuel.paquet22@icloud.com,samuel.paquet22,Samuel,Paquet,,"DOMINIC BERTRAND",514-983-5226
308,habitatforceconstruction@hotmail.com,habitatforceconstruction,Jean,sebastien,,"Aucun représentant",5148636785
309,constructionag@videotron.ca,constructionag,Alain,Gaudreault,,"NORMAND DUBE",5142697199
310,test@test1234.ca,test1,test1234,test1234,,"Aucun représentant",5149104488
311,patrice@entdaunais.com,patrice,Patrice,Daunais,,"YANN DUFAULT",4504745412
312,test@test.ca,test2,"Marc-Antoine test",test,,"Aucun représentant","514 910 5599"
313,pereira@construction-reno.com,pereira,Vérissimo,Pereira,,"AUDREY BOURGEOIS",5148316183
314,bpconstruction2011@live.com,bpconstruction2011,bertrand,poisson,,"PATRICK BLAIS","450 880 0735"
315,renoclement@hotmail.com,renoclement,Clément,Bouchard,,"PIERRE LACHANCE",4508261450
316,achats@constructionmgp.com,achats,remi,fecteau,,"ETIENNE FECTEAU",418-484-5740
317,jean-pierre.gauthier@rona.ca,jean-pierre.gauthier,jean-pierre,gauthier,,"JEAN-PIERRE GAUTHIER",514-816-7860
318,Nroy@fmenard.com,Nroy,Nicolas,Roy,,"Aucun représentant",450293-5349
319,info@thibodeaupere.com,info29,Francis,Thibodeau,,"DAVID DUBÉ",5819994934
320,menuiseriem.b@hotmail.ca,menuiseriem.b,Mario,Blanchard,,"JEAN-OLIVIER LEVESQUE",4503340588
321,info@leveq.ca,info30,Maxime,Levesque,,"MARIO DOYON",4508306045
322,joelaperle@hotmail.ca,joelaperle,Jonathan,Laperle,,"MARIO DOYON",450-521-6827
323,constructionmborduas@hotmail.com,constructionmborduas,MATHIEU,BORDUAS,,"MARIO DOYON",4508300163
324,b2g2construction@hotmail.ca,b2g2construction,Hugo,Gentelletti,,"YVES MASSICOTTE",8199964919
325,gparent@legroupeultra.com,gparent,gilles,Parent,,"MARIO DOYON","450 378 9600"
326,constrsanterre@gmail.com,constrsanterre,Réjean,Santerre,,"Aucun représentant",4502445794
327,elevasseur83@hotmail.com,elevasseur83,Levasseur,Gilles,,"DANNY MICHAUD",5067397147
328,ronalddomingue@videotron.ca,ronalddomingue,Ronald,Domingue,,"MARIO DOYON",450-375-0795
329,renovationshanel@bell.net,renovationshanel,Christian,Dery,,"ALEXANDRE CHAMPAGNE",5147572121
330,francisgirard87@hotmail.com,francisgirard87,Francis,Girard,,"DAVID DUBÉ",418-809-2895
331,ssjoncas@sympatico.ca,ssjoncas,serge,joncas,,"JEAN-OLIVIER LEVESQUE",4502937351
332,d_labelle1002@hotmail.com,d_labelle1002,Daniel,Labelle,,"GILLES PELLETIER",5147030445
333,kevin@provek.ca,kevin,Kevin,Proulx,,"MARIO DOYON",4505771473
334,regesco@hotmail.com,regesco,Daniel,Luc,,"MARIO DOYON",8196741733
335,adesgens@athenaconstruction.ca,adesgens,Alexandre,Desgens,,"JEAN-OLIVIER LEVESQUE",4502630445
336,mathchevalier@hotmail.com,mathchevalier,mathieu,chevalier,,"PATRICK CHEVALIER",8196390245
337,bouladierlocation803@hotmail.com,bouladierlocation803,denis,leblanc,,"Aucun représentant",819-568-3492
338,info@coffragesisolants.com,info31,Oliver,Houle,,"MARIO DOYON",4507753784
339,charestjoel1@hotmail.com,charestjoel1,Joël,Charest,,"ALEXANDRE CHAMPAGNE",5149494617
340,dodo7406@hotmail.com,dodo7406,Marcus,Bernard,,"DANNY MICHAUD",(506)263-5206
341,chuyenvu@hotmail.com,chuyenvu,Uy,Vu,,"NORMAND DUBÉ",5148861893
342,philippedube@msn.com,philippedube,Philippe,Dubé,,"NORMAND DUBE","514 531 8618"
343,cetremblay@hotmail.com,cetremblay,Eric,Tremblay,,"PIERRE LACHANCE",4504540013
344,jonathan@royaljp.com,jonathan,jonathan,perreault,,"MARIO DOYON",4505784842
345,info@lescharpenteselite.com,info32,Jean-Sébastien,Bergeron,,"AUDREY BOURGEOIS",5144625194
346,entrepreneur.cpg@gmail.com,entrepreneur.cpg,Patrick,Giard,,"Aucun représentant",514-239-9777
347,mike_blais@videotron.ca,mike_blais,Mike,Blais,,"YANN DUFAULT","450 759 7400"
348,info@mach2000construction.com,info33,Marc-André,Martin,,"DANNY MICHAUD",418-732-8799
349,info@devcaldi.ca,info34,Alain,Dicaire,,"MARIO DOYON",819-678-1718
350,info@constructionericostiguy.com,info35,ERIC,OSTIGUY,,"MARIO DOYON",4507773172
351,const.laflamme@videotron.ca,const.laflamme,Éric,Laflamme,,"JEAN-OLIVIER LEVESQUE",450-777-0954
352,esp.construction@yahoo.ca,esp.construction,Éric,St-Pierre,,"NORMAND DUBE",450-621-4540
353,do-bert@videotron.ca,do-bert,dominic,gilbert,,"JEAN-PIERRE GAUTHIER",5148388185
354,constructionsfortier@videotron.ca,constructionsfortier,Sylvain,Fortier,,"Aucun représentant",4507779515
355,Const.jftoulouse@hotmail.com,Const.jftoulouse,"Jean francois",Toulouse,,"PATRICK BLAIS",5148380261
356,const.laflamme@cideotron.ca,const.laflamme1,Eric,Laflamme,,"JEAN-OLIVIER LEVESQUE","(450) 777-0954"
357,hugo.carufel@gmail.com,hugo.carufel,Carufel,Hugo,,"ALEXANDRE CHAMPAGNE",514-206-0416
358,info@habitationsmathieurivard.com,info36,Mathieu,Rivard,,"Aucun représentant",4505312676
359,marc_antoinelussier@hotmail.com,marc_antoinelussier,marc-antoine,lussier,,"Aucun représentant",4503303679
360,info@exessconstruction.com,info37,Mathieu,Proulx,,"MARIO DOYON",450-521-6313
361,toiturecema@gmail.com,toiturecema,ouimetema,cedric,,"Aucun représentant",5147437770
362,c.rheaumelajeunesse@outlook.com,c.rheaumelajeunesse,Dave,Rheaume,,"NORMAND DUBE",5148953463
363,glupien@toituresimoertech.com,glupien,Gabriel,Lupien,,"Aucun représentant",5145547104
364,info@constructionsublime.ca,info38,Cédric,Rioux,,"DANNY MICHAUD",4187327360
365,info@toituresvp.com,info39,Vincent,Perreault,,"NORMAND DUBE",514-799-7334
366,tglinc@hotmail.com,tglinc,Normand,Legault,,"Aucun représentant","450 473 2944"
367,protoitoutaouais@gmail.com,protoitoutaouais,Mélanie,Ruel,,"Aucun représentant",8196698068
368,goose36@videotron.ca,goose36,andre,Gosselin,,"Aucun représentant",5149263735
369,info@toiturerhino.com,info40,Dale,Scullion,,"Aucun représentant",4186555599
370,ben.jenni@icloud.com,ben.jenni,Bernard,Jenni,,"Aucun représentant",819-384-2754
371,carl.revetementsmaxguard@gmail.com,carl.revetementsmaxguard,Carl,Vesnaver,,"ETIENNE FECTEAU",438-499-7057
372,jbelhumeur@icloud.com,jbelhumeur,Jonathan,Belhumeur,,"Aucun représentant",514-892-7878
373,yveslortie64@msn.com,yveslortie64,Yves,Lortie,,"ALAIN CANTARA",5149775683
374,toiturebenjamin@outlook.com,toiturebenjamin,Steve,Benjamin,,"Aucun représentant",4508951412
375,projet@toituresblp.ca,projet,Renaud,Grenier,,"Aucun représentant",4189621241
376,carlfleury@toituresgillesveilleux.com,carlfleury,Carl,Fleury,,"Aucun représentant",4185407235
377,francis@toiturespro-tech.ca,francis1,Francis,Brunet,,"YANN DUFAULT",514-239-2868
378,toitures@toituressmithetdubois.ca,toitures,Andre,Smith,,"Aucun représentant",450-263-6111
379,info@couverturerivenord.com,info41,Kevin,Chartrand,,"Aucun représentant",5148357617
380,info@groupetoitutesancestrales.com,info42,Marc,Nareau,,"Aucun représentant",418-977-1100
381,keven@toitureskl.com,keven,Keven,Lebrun,,"NORMAND DUBE",5144513086
382,info@toituresmathieugravel.com,info43,Mathieu,Gravel,,"NORMAND DUBE",5148169672
383,toituresd2@outlook.com,toituresd2,Francis,Hawkins,,"Aucun représentant",514-269-7019
384,toituresstpierre@gmail.com,toituresstpierre,Benoît,St-Pierre,,"Aucun représentant",819-696-4656
385,toitureamigau@gmail.com,toitureamigau,Jonathan,"Loyer coderre",,"Aucun représentant",5148386044
386,toiture.sbujold@videotron.ca,toiture.sbujold,Shawn,bujold,,"PATRICK CHEVALIER",8196647693
387,caron.bergeron@cgocable.ca,caron.bergeron,Eric,Marois,,"MARIO DOYON",8194775167
388,toituresouellet@videotron.ca,toituresouellet,Annik,Ouellet,,"Aucun représentant",4503784893
389,p.cote@hotmail.com,p.cote,Patrick,Côté,,"Aucun représentant",5149718332
390,info@toituregsigne.com,info44,Martin,Genest,,"Aucun représentant",4185543644
391,info@toituresvallee.com,info45,François,Vallée,,"MARC CLOUTIER",5146184695
392,toiturestacygosselin@live.ca,toiturestacygosselin1,Stacy,Gosselin,,"Aucun représentant",5145670935
393,toitures_serenite@outlook.com,toitures_serenite,Stephan,Pitre,,"Aucun représentant",5818881472
394,toituressergeetfilles@gmail.com,toituressergeetfilles,melissa,bigras,,"PATRICK CHEVALIER",819-665-7999
395,A.L.COUVREUR@VIDEOTRON.CA,A.L.COUVREUR,Andre,Levesque,,"Aucun représentant",514-444-9209
396,toituresbmt@hotmail.com,toituresbmt1,Benjamin,Ménard,,"Aucun représentant",450-558-3358
397,jhtoitures@gmail.com,jhtoitures,samuel,bire,,"Aucun représentant",438-797-8227
