"Numéro de commande","Afin clé","Date de la Commande","Date dachèvement",Titre,"État de la commande","Afin devise","Payment Method Title","Total Commande","Client ID de lutilisateur","Note client","Billing First Name","Billing Last Name","Billing Company","Billing Address 1","Billing Address 2","Billing City","Billing Postcode","Billing Country","Billing State","Billing Email Address","Customer Account Email Address","Billing Phone","Shipping First Name","Shipping Last Name","Shipping Company","Shipping Address 1","Shipping Address 2","Shipping City","Shipping Postcode","Shipping Country","Shipping State","ID Produit :",Réference,"Nom du projet","Produit Variation Détails (shipping-month)",Quantité,"coût de l’article","Total des biens","Item Tax","Item Tax Total","Item Tax Data","Order Line ID","Order Line Title","Code de taux (par limpôt)","Rate Pourcentage (par limpôt)","Montant (par limpôt)","Montant total","Méthode de livraison","Frais de livraison","Shipping Taxes","Montant de la remise (par coupon)","Coupon Code","Valeur des coupons utilisés","Montant total de Discount","Montant des frais (par supplément)","Fee Name","Montant total des frais","Fee Taxes","Note Content","Note Date","Note Visibility","Note User Name","Note User Email","Refund Total","Refund ID","Refund Amounts","Refund Reason","Refund Date","Refund Author Email",_date_completed,_date_paid,_paid_date,_cart_hash,_billing_address_index,_shipping_address_index,numero_de_compte,nom_du_rep,wpml_language,_download_permissions_granted,"Variation ID","Tax Class","Rate ID",Label,Compound,"Tax Amount","Shipping Tax Amount","Prices Include Tax","Customer Ip Address","Customer User Agent","Created Via","Order Version","Payment Method","Cart Discount Tax","Order Shipping Tax","Recorded Sales","Order Stock Reduced","Recorded Coupon Usage Counts","Transaction ID","Titre étape 1","Texte étape 1","Titre étape 2","Texte étape 2","Titre étape 3","Texte étape 3","Icone de lévénement","Image des fournisseurs",Activé,"Date de début","Date de fin","Identifiants dévénement",Légal,"MMS Number","Provider name","Provider logo","Quantity unit",Merch,Events,Discount,"Date d'achèvement","Client ID de l'utilisateur","Code de taux (par l'impôt)","Rate Pourcentage (par l'impôt)","Montant (par l'impôt)"
1419,wc_order_q3V2aXKhTqpmi,2019-03-20,,"Order - mars 20, 2019 @ 03:21  ",wc-processing,CAD,Précommande,29.39,1,,Louis-Philippe,Lebel,"Hekka Design Multimédia","1161 Léa-lafontaine",,Beloeil,"J3G 0L1",CA,QC,lplebel@hekka.ca,marc-antoine.leclerc@rona.ca,5149660415,,,,,,,,,,1309,,"AGRAFEUSE SUR CARTON",,1,25.56,25.56,3.82761,3.82761,"a:2:{s:5:""total"";a:2:{i:13;s:5:""1.278"";i:17;s:7:""2.54961"";}s:8:""subtotal"";a:2:{i:13;s:5:""1.278"";i:17;s:7:""2.54961"";}}",1,"AGRAFEUSE SUR CARTON","CA-QC-GST (5%)-1|CA-QC-PST (9.975%)-2",5.0000|9.9750,1.28|2.55,3.83,,,,,,,0,,,,,"Paiement à effectuer à la livraison. État de la commande modifié de Attente paiement à En cours.","2019-03-20 03:21:16",private,WooCommerce,woocommerce@ronaevenement.ca,0,,,,,,,,,852008c8ab77db7089052677c84f3296,"Louis-Philippe Lebel Hekka Design Multimédia 1161 Léa-lafontaine  Beloeil QC J3G 0L1 CA lplebel@hekka.ca 5149660415","        ",1234567890,"YVES MASSICOTTE",fr,yes,0,,,,,,,no,24.200.170.4,"Mozilla/5.0 (Macintosh; Intel Mac OS X 10_14_0) AppleWebKit/537.36 (KHTML, like Gecko) Chrome/72.0.3626.109 Safari/537.36",checkout,3.5.5,cod,0,0,yes,yes,yes,,,,,,,,,,,,,,,,,,,,,,,,,,
2795,wc_order_45KtDr373fF8H,2019-03-20,,"Order - mars 20, 2019 @ 01:40  ",wc-processing,CAD,Précommande,5939.03,1,Test,Mélanie,Lefort,"lefort construction","42 tsse des cerisiers",,Sainte-Martine,"J0S 1V0",CA,QC,melanie.lefort@rona.ca,marc-antoine.leclerc@rona.ca,514-975-3926,,,,,,,,,,2771,,"Ventilateur de toit noir - Mai",mai,44,71.45,3143.60002,470.754103,470.754103,"a:2:{s:5:""total"";a:2:{i:13;s:10:""157.180001"";i:17;s:10:""313.574102"";}s:8:""subtotal"";a:2:{i:13;s:10:""157.180001"";i:17;s:10:""313.574102"";}}",4,"Ventilateur de toit noir - Mai","CA-QC-GST (5%)-1|CA-QC-PST (9.975%)-2",5.0000|9.9750,258.28|515.25,773.53,,,,,,,0,,,,,"Paiement à effectuer à la livraison. État de la commande modifié de Attente paiement à En cours.","2019-03-20 13:40:11",private,WooCommerce,woocommerce@ronaevenement.ca,0,,,,,,,,,305c2f3fc929cc78ac1afdc9a2b8f2a9,"Mélanie Lefort lefort construction 42 tsse des cerisiers  Sainte-Martine QC J0S 1V0 CA melanie.lefort@rona.ca 514-975-3926","        ",123456,"PATRICK BLAIS",fr,yes,2771,,,,,,,no,199.188.60.194,"Mozilla/5.0 (Windows NT 10.0; WOW64; Trident/7.0; rv:11.0) like Gecko",checkout,3.5.5,cod,0,0,yes,yes,yes,,,,,,,,,,,,,,,,,,,,,,,,,,
2795,wc_order_45KtDr373fF8H,2019-03-20,,"Order - mars 20, 2019 @ 01:40  ",wc-processing,CAD,Précommande,5939.03,1,Test,Mélanie,Lefort,"lefort construction","42 tsse des cerisiers",,Sainte-Martine,"J0S 1V0",CA,QC,melanie.lefort@rona.ca,marc-antoine.leclerc@rona.ca,514-975-3926,,,,,,,,,,2775,,"Ventilateur de toit brun - Mai",mai,11,71.45,785.900005,117.688525,117.688525,"a:2:{s:5:""total"";a:2:{i:13;s:6:""39.295"";i:17;s:9:""78.393525"";}s:8:""subtotal"";a:2:{i:13;s:6:""39.295"";i:17;s:9:""78.393525"";}}",5,"Ventilateur de toit brun - Mai","CA-QC-GST (5%)-1|CA-QC-PST (9.975%)-2",5.0000|9.9750,258.28|515.25,773.53,,,,,,,0,,,,,"Paiement à effectuer à la livraison. État de la commande modifié de Attente paiement à En cours.","2019-03-20 13:40:11",private,WooCommerce,woocommerce@ronaevenement.ca,0,,,,,,,,,305c2f3fc929cc78ac1afdc9a2b8f2a9,"Mélanie Lefort lefort construction 42 tsse des cerisiers  Sainte-Martine QC J0S 1V0 CA melanie.lefort@rona.ca 514-975-3926","        ",123456,"PATRICK BLAIS",fr,yes,2775,,,,,,,no,199.188.60.194,"Mozilla/5.0 (Windows NT 10.0; WOW64; Trident/7.0; rv:11.0) like Gecko",checkout,3.5.5,cod,0,0,yes,yes,yes,,,,,,,,,,,,,,,,,,,,,,,,,,
2795,wc_order_45KtDr373fF8H,2019-03-20,,"Order - mars 20, 2019 @ 01:40  ",wc-processing,CAD,Précommande,5939.03,1,Test,Mélanie,Lefort,"lefort construction","42 tsse des cerisiers",,Sainte-Martine,"J0S 1V0",CA,QC,melanie.lefort@rona.ca,marc-antoine.leclerc@rona.ca,514-975-3926,,,,,,,,,,2553,,"Clou toiture 1 1/4""  (7200) - Mai",mai,48,25.75,1236,185.091,185.091,"a:2:{s:5:""total"";a:2:{i:13;s:4:""61.8"";i:17;s:7:""123.291"";}s:8:""subtotal"";a:2:{i:13;s:4:""61.8"";i:17;s:7:""123.291"";}}",6,"Clou toiture 1 1/4""  (7200) - Mai","CA-QC-GST (5%)-1|CA-QC-PST (9.975%)-2",5.0000|9.9750,258.28|515.25,773.53,,,,,,,0,,,,,"Paiement à effectuer à la livraison. État de la commande modifié de Attente paiement à En cours.","2019-03-20 13:40:11",private,WooCommerce,woocommerce@ronaevenement.ca,0,,,,,,,,,305c2f3fc929cc78ac1afdc9a2b8f2a9,"Mélanie Lefort lefort construction 42 tsse des cerisiers  Sainte-Martine QC J0S 1V0 CA melanie.lefort@rona.ca 514-975-3926","        ",123456,"PATRICK BLAIS",fr,yes,2553,,,,,,,no,199.188.60.194,"Mozilla/5.0 (Windows NT 10.0; WOW64; Trident/7.0; rv:11.0) like Gecko",checkout,3.5.5,cod,0,0,yes,yes,yes,,,,,,,,,,,,,,,,,,,,,,,,,,
2811,wc_order_VJbnV0vZO9tfo,2019-03-20,,"Order - mars 20, 2019 @ 05:22  ",wc-processing,CAD,Précommande,17499.72,1,,Mélanie,Lefort,"lefort construction","42 tsse des cerisiers",,Sainte-Martine,"J0S 1V0",CA,QC,melanie.lefort@rona.ca,marc-antoine.leclerc@rona.ca,514-975-3926,,,,,,,,,,2771,,"Ventilateur de toit noir - Mai",mai,55,71.45,3929.500025,588.442628,588.442628,"a:2:{s:5:""total"";a:2:{i:13;s:10:""196.475001"";i:17;s:10:""391.967627"";}s:8:""subtotal"";a:2:{i:13;s:10:""196.475001"";i:17;s:10:""391.967627"";}}",9,"Ventilateur de toit noir - Mai","CA-QC-GST (5%)-1|CA-QC-PST (9.975%)-2",5.0000|9.9750,761.03|1518.24,2279.27,,,,,,,0,,,,,"Paiement à effectuer à la livraison. État de la commande modifié de Attente paiement à En cours.","2019-03-20 17:22:33",private,WooCommerce,woocommerce@ronaevenement.ca,0,,,,,,,,,2414d3f1083cc6cd10bd9d46f3645b7d,"Mélanie Lefort lefort construction 42 tsse des cerisiers  Sainte-Martine QC J0S 1V0 CA melanie.lefort@rona.ca 514-975-3926","        ",1234567890,"YVES MASSICOTTE",fr,yes,2771,,,,,,,no,199.188.60.198,"Mozilla/5.0 (Windows NT 6.1; Win64; x64) AppleWebKit/537.36 (KHTML, like Gecko) Chrome/72.0.3626.121 Safari/537.36",checkout,3.5.5,cod,0,0,yes,yes,yes,,,,,,,,,,,,,,,,,,,,,,,,,,
2811,wc_order_VJbnV0vZO9tfo,2019-03-20,,"Order - mars 20, 2019 @ 05:22  ",wc-processing,CAD,Précommande,17499.72,1,,Mélanie,Lefort,"lefort construction","42 tsse des cerisiers",,Sainte-Martine,"J0S 1V0",CA,QC,melanie.lefort@rona.ca,marc-antoine.leclerc@rona.ca,514-975-3926,,,,,,,,,,2794,,"Clou toiture 1 1/4""  (7200) / import - Juin",juin,432,23.95,10346.4,1549.3734,1549.3734,"a:2:{s:5:""total"";a:2:{i:13;s:6:""517.32"";i:17;s:9:""1032.0534"";}s:8:""subtotal"";a:2:{i:13;s:6:""517.32"";i:17;s:9:""1032.0534"";}}",10,"Clou toiture 1 1/4""  (7200) / import - Juin","CA-QC-GST (5%)-1|CA-QC-PST (9.975%)-2",5.0000|9.9750,761.03|1518.24,2279.27,,,,,,,0,,,,,"Paiement à effectuer à la livraison. État de la commande modifié de Attente paiement à En cours.","2019-03-20 17:22:33",private,WooCommerce,woocommerce@ronaevenement.ca,0,,,,,,,,,2414d3f1083cc6cd10bd9d46f3645b7d,"Mélanie Lefort lefort construction 42 tsse des cerisiers  Sainte-Martine QC J0S 1V0 CA melanie.lefort@rona.ca 514-975-3926","        ",1234567890,"YVES MASSICOTTE",fr,yes,2794,,,,,,,no,199.188.60.198,"Mozilla/5.0 (Windows NT 6.1; Win64; x64) AppleWebKit/537.36 (KHTML, like Gecko) Chrome/72.0.3626.121 Safari/537.36",checkout,3.5.5,cod,0,0,yes,yes,yes,,,,,,,,,,,,,,,,,,,,,,,,,,
2811,wc_order_VJbnV0vZO9tfo,2019-03-20,,"Order - mars 20, 2019 @ 05:22  ",wc-processing,CAD,Précommande,17499.72,1,,Mélanie,Lefort,"lefort construction","42 tsse des cerisiers",,Sainte-Martine,"J0S 1V0",CA,QC,melanie.lefort@rona.ca,marc-antoine.leclerc@rona.ca,514-975-3926,,,,,,,,,,2802,,"ENSEMBLE ANTICHUTE POUR COUVREUR - Avril",avril,5,144.00,720,107.82,107.82,"a:2:{s:5:""total"";a:2:{i:13;s:2:""36"";i:17;s:5:""71.82"";}s:8:""subtotal"";a:2:{i:13;s:2:""36"";i:17;s:5:""71.82"";}}",11,"ENSEMBLE ANTICHUTE POUR COUVREUR - Avril","CA-QC-GST (5%)-1|CA-QC-PST (9.975%)-2",5.0000|9.9750,761.03|1518.24,2279.27,,,,,,,0,,,,,"Paiement à effectuer à la livraison. État de la commande modifié de Attente paiement à En cours.","2019-03-20 17:22:33",private,WooCommerce,woocommerce@ronaevenement.ca,0,,,,,,,,,2414d3f1083cc6cd10bd9d46f3645b7d,"Mélanie Lefort lefort construction 42 tsse des cerisiers  Sainte-Martine QC J0S 1V0 CA melanie.lefort@rona.ca 514-975-3926","        ",1234567890,"YVES MASSICOTTE",fr,yes,2802,,,,,,,no,199.188.60.198,"Mozilla/5.0 (Windows NT 6.1; Win64; x64) AppleWebKit/537.36 (KHTML, like Gecko) Chrome/72.0.3626.121 Safari/537.36",checkout,3.5.5,cod,0,0,yes,yes,yes,,,,,,,,,,,,,,,,,,,,,,,,,,
2811,wc_order_VJbnV0vZO9tfo,2019-03-20,,"Order - mars 20, 2019 @ 05:22  ",wc-processing,CAD,Précommande,17499.72,1,,Mélanie,Lefort,"lefort construction","42 tsse des cerisiers",,Sainte-Martine,"J0S 1V0",CA,QC,melanie.lefort@rona.ca,marc-antoine.leclerc@rona.ca,514-975-3926,,,,,,,,,,2808,,"RUBAN À MESURER PRO 13, 25' - Avril et Mai",avril-et-mai,9,24.95,224.55,33.626362,33.626362,"a:2:{s:5:""total"";a:2:{i:13;s:7:""11.2275"";i:17;s:9:""22.398862"";}s:8:""subtotal"";a:2:{i:13;s:7:""11.2275"";i:17;s:9:""22.398862"";}}",12,"RUBAN À MESURER PRO 13, 25' - Avril et Mai","CA-QC-GST (5%)-1|CA-QC-PST (9.975%)-2",5.0000|9.9750,761.03|1518.24,2279.27,,,,,,,0,,,,,"Paiement à effectuer à la livraison. État de la commande modifié de Attente paiement à En cours.","2019-03-20 17:22:33",private,WooCommerce,woocommerce@ronaevenement.ca,0,,,,,,,,,2414d3f1083cc6cd10bd9d46f3645b7d,"Mélanie Lefort lefort construction 42 tsse des cerisiers  Sainte-Martine QC J0S 1V0 CA melanie.lefort@rona.ca 514-975-3926","        ",1234567890,"YVES MASSICOTTE",fr,yes,2808,,,,,,,no,199.188.60.198,"Mozilla/5.0 (Windows NT 6.1; Win64; x64) AppleWebKit/537.36 (KHTML, like Gecko) Chrome/72.0.3626.121 Safari/537.36",checkout,3.5.5,cod,0,0,yes,yes,yes,,,,,,,,,,,,,,,,,,,,,,,,,,
2812,wc_order_h5Fmm1m6bXCYy,2019-03-20,,"Order - mars 20, 2019 @ 05:51  ",wc-processing,CAD,Précommande,7428.53,1,"TEST 20 mars 13h51",Mélanie,Lefort,"lefort construction","42 tsse des cerisiers",,Sainte-Martine,"J0S 1V0",CA,QC,melanie.lefort@rona.ca,marc-antoine.leclerc@rona.ca,514-975-3926,,,,,,,,,,2803,,"ENSEMBLE ANTICHUTE POUR COUVREUR - Avril et Mai",avril-et-mai,5,144.00,720,107.82,107.82,"a:2:{s:5:""total"";a:2:{i:13;s:2:""36"";i:17;s:5:""71.82"";}s:8:""subtotal"";a:2:{i:13;s:2:""36"";i:17;s:5:""71.82"";}}",15,"ENSEMBLE ANTICHUTE POUR COUVREUR - Avril et Mai","CA-QC-GST (5%)-1|CA-QC-PST (9.975%)-2",5.0000|9.9750,323.06|644.48,967.54,,,,,,,0,,,,,"Paiement à effectuer à la livraison. État de la commande modifié de Attente paiement à En cours.","2019-03-20 17:52:00",private,WooCommerce,woocommerce@ronaevenement.ca,0,,,,,,,,,148091c2e3c62bf7ea3a1bf71e46ef3d,"Mélanie Lefort lefort construction 42 tsse des cerisiers  Sainte-Martine QC J0S 1V0 CA melanie.lefort@rona.ca 514-975-3926","        ",1234567890,"YVES MASSICOTTE",fr,yes,2803,,,,,,,no,199.188.60.198,"Mozilla/5.0 (Windows NT 10.0; WOW64; Trident/7.0; rv:11.0) like Gecko",checkout,3.5.5,cod,0,0,yes,yes,yes,,,,,,,,,,,,,,,,,,,,,,,,,,
2812,wc_order_h5Fmm1m6bXCYy,2019-03-20,,"Order - mars 20, 2019 @ 05:51  ",wc-processing,CAD,Précommande,7428.53,1,"TEST 20 mars 13h51",Mélanie,Lefort,"lefort construction","42 tsse des cerisiers",,Sainte-Martine,"J0S 1V0",CA,QC,melanie.lefort@rona.ca,marc-antoine.leclerc@rona.ca,514-975-3926,,,,,,,,,,2807,,"RUBAN À MESURER PRO 13, 25' - Avril",avril,1,24.95,24.95,3.736262,3.736262,"a:2:{s:5:""total"";a:2:{i:13;s:6:""1.2475"";i:17;s:8:""2.488762"";}s:8:""subtotal"";a:2:{i:13;s:6:""1.2475"";i:17;s:8:""2.488762"";}}",16,"RUBAN À MESURER PRO 13, 25' - Avril","CA-QC-GST (5%)-1|CA-QC-PST (9.975%)-2",5.0000|9.9750,323.06|644.48,967.54,,,,,,,0,,,,,"Paiement à effectuer à la livraison. État de la commande modifié de Attente paiement à En cours.","2019-03-20 17:52:00",private,WooCommerce,woocommerce@ronaevenement.ca,0,,,,,,,,,148091c2e3c62bf7ea3a1bf71e46ef3d,"Mélanie Lefort lefort construction 42 tsse des cerisiers  Sainte-Martine QC J0S 1V0 CA melanie.lefort@rona.ca 514-975-3926","        ",1234567890,"YVES MASSICOTTE",fr,yes,2807,,,,,,,no,199.188.60.198,"Mozilla/5.0 (Windows NT 10.0; WOW64; Trident/7.0; rv:11.0) like Gecko",checkout,3.5.5,cod,0,0,yes,yes,yes,,,,,,,,,,,,,,,,,,,,,,,,,,
2812,wc_order_h5Fmm1m6bXCYy,2019-03-20,,"Order - mars 20, 2019 @ 05:51  ",wc-processing,CAD,Précommande,7428.53,1,"TEST 20 mars 13h51",Mélanie,Lefort,"lefort construction","42 tsse des cerisiers",,Sainte-Martine,"J0S 1V0",CA,QC,melanie.lefort@rona.ca,marc-antoine.leclerc@rona.ca,514-975-3926,,,,,,,,,,2780,,"Membrane Weather watch - Avril et Mai",avril-et-mai,40,65.60,2624,392.944,392.944,"a:2:{s:5:""total"";a:2:{i:13;s:5:""131.2"";i:17;s:7:""261.744"";}s:8:""subtotal"";a:2:{i:13;s:5:""131.2"";i:17;s:7:""261.744"";}}",17,"Membrane Weather watch - Avril et Mai","CA-QC-GST (5%)-1|CA-QC-PST (9.975%)-2",5.0000|9.9750,323.06|644.48,967.54,,,,,,,0,,,,,"Paiement à effectuer à la livraison. État de la commande modifié de Attente paiement à En cours.","2019-03-20 17:52:00",private,WooCommerce,woocommerce@ronaevenement.ca,0,,,,,,,,,148091c2e3c62bf7ea3a1bf71e46ef3d,"Mélanie Lefort lefort construction 42 tsse des cerisiers  Sainte-Martine QC J0S 1V0 CA melanie.lefort@rona.ca 514-975-3926","        ",1234567890,"YVES MASSICOTTE",fr,yes,2780,,,,,,,no,199.188.60.198,"Mozilla/5.0 (Windows NT 10.0; WOW64; Trident/7.0; rv:11.0) like Gecko",checkout,3.5.5,cod,0,0,yes,yes,yes,,,,,,,,,,,,,,,,,,,,,,,,,,
2812,wc_order_h5Fmm1m6bXCYy,2019-03-20,,"Order - mars 20, 2019 @ 05:51  ",wc-processing,CAD,Précommande,7428.53,1,"TEST 20 mars 13h51",Mélanie,Lefort,"lefort construction","42 tsse des cerisiers",,Sainte-Martine,"J0S 1V0",CA,QC,melanie.lefort@rona.ca,marc-antoine.leclerc@rona.ca,514-975-3926,,,,,,,,,,2794,,"Clou toiture 1 1/4""  (7200) / import - Juin",juin,96,23.95,2299.2,344.3052,344.3052,"a:2:{s:5:""total"";a:2:{i:13;s:6:""114.96"";i:17;s:8:""229.3452"";}s:8:""subtotal"";a:2:{i:13;s:6:""114.96"";i:17;s:8:""229.3452"";}}",18,"Clou toiture 1 1/4""  (7200) / import - Juin","CA-QC-GST (5%)-1|CA-QC-PST (9.975%)-2",5.0000|9.9750,323.06|644.48,967.54,,,,,,,0,,,,,"Paiement à effectuer à la livraison. État de la commande modifié de Attente paiement à En cours.","2019-03-20 17:52:00",private,WooCommerce,woocommerce@ronaevenement.ca,0,,,,,,,,,148091c2e3c62bf7ea3a1bf71e46ef3d,"Mélanie Lefort lefort construction 42 tsse des cerisiers  Sainte-Martine QC J0S 1V0 CA melanie.lefort@rona.ca 514-975-3926","        ",1234567890,"YVES MASSICOTTE",fr,yes,2794,,,,,,,no,199.188.60.198,"Mozilla/5.0 (Windows NT 10.0; WOW64; Trident/7.0; rv:11.0) like Gecko",checkout,3.5.5,cod,0,0,yes,yes,yes,,,,,,,,,,,,,,,,,,,,,,,,,,
2812,wc_order_h5Fmm1m6bXCYy,2019-03-20,,"Order - mars 20, 2019 @ 05:51  ",wc-processing,CAD,Précommande,7428.53,1,"TEST 20 mars 13h51",Mélanie,Lefort,"lefort construction","42 tsse des cerisiers",,Sainte-Martine,"J0S 1V0",CA,QC,melanie.lefort@rona.ca,marc-antoine.leclerc@rona.ca,514-975-3926,,,,,,,,,,2771,,"Ventilateur de toit noir - Mai",mai,11,71.45,785.900005,117.688525,117.688525,"a:2:{s:5:""total"";a:2:{i:13;s:6:""39.295"";i:17;s:9:""78.393525"";}s:8:""subtotal"";a:2:{i:13;s:6:""39.295"";i:17;s:9:""78.393525"";}}",19,"Ventilateur de toit noir - Mai","CA-QC-GST (5%)-1|CA-QC-PST (9.975%)-2",5.0000|9.9750,323.06|644.48,967.54,,,,,,,0,,,,,"Paiement à effectuer à la livraison. État de la commande modifié de Attente paiement à En cours.","2019-03-20 17:52:00",private,WooCommerce,woocommerce@ronaevenement.ca,0,,,,,,,,,148091c2e3c62bf7ea3a1bf71e46ef3d,"Mélanie Lefort lefort construction 42 tsse des cerisiers  Sainte-Martine QC J0S 1V0 CA melanie.lefort@rona.ca 514-975-3926","        ",1234567890,"YVES MASSICOTTE",fr,yes,2771,,,,,,,no,199.188.60.198,"Mozilla/5.0 (Windows NT 10.0; WOW64; Trident/7.0; rv:11.0) like Gecko",checkout,3.5.5,cod,0,0,yes,yes,yes,,,,,,,,,,,,,,,,,,,,,,,,,,
2812,wc_order_h5Fmm1m6bXCYy,2019-03-20,,"Order - mars 20, 2019 @ 05:51  ",wc-processing,CAD,Précommande,7428.53,1,"TEST 20 mars 13h51",Mélanie,Lefort,"lefort construction","42 tsse des cerisiers",,Sainte-Martine,"J0S 1V0",CA,QC,melanie.lefort@rona.ca,marc-antoine.leclerc@rona.ca,514-975-3926,,,,,,,,,,2637,,"AGRAFES 3/8"" - Avril",avril,1,6.94,6.94,1.039265,1.039265,"a:2:{s:5:""total"";a:2:{i:13;s:5:""0.347"";i:17;s:8:""0.692265"";}s:8:""subtotal"";a:2:{i:13;s:5:""0.347"";i:17;s:8:""0.692265"";}}",20,"AGRAFES 3/8"" - Avril","CA-QC-GST (5%)-1|CA-QC-PST (9.975%)-2",5.0000|9.9750,323.06|644.48,967.54,,,,,,,0,,,,,"Paiement à effectuer à la livraison. État de la commande modifié de Attente paiement à En cours.","2019-03-20 17:52:00",private,WooCommerce,woocommerce@ronaevenement.ca,0,,,,,,,,,148091c2e3c62bf7ea3a1bf71e46ef3d,"Mélanie Lefort lefort construction 42 tsse des cerisiers  Sainte-Martine QC J0S 1V0 CA melanie.lefort@rona.ca 514-975-3926","        ",1234567890,"YVES MASSICOTTE",fr,yes,2637,,,,,,,no,199.188.60.198,"Mozilla/5.0 (Windows NT 10.0; WOW64; Trident/7.0; rv:11.0) like Gecko",checkout,3.5.5,cod,0,0,yes,yes,yes,,,,,,,,,,,,,,,,,,,,,,,,,,
