id,"User Email","User Login","First Name","Last Name","User Registered","Billing Email","Billing Phone",last_update,nom_du_rep,numero_de_compte,"Entreprise (livraison)","Entreprise (facturation)"
1,marc-antoine.leclerc@rona.ca,admin,Elizabeth,Lévesque,2018-02-06,elizabeth.levesque@rona.ca,5149104488,1582058886,"YVES MASSICOTTE",1234567890,,"Marc-Antoine Leclerc"
2,hekka.ca@gmail.com,hekka.ca,Louis,Lebel,2018-02-07,hekka.ca@gmail.com,"514 966-0415",1539617781,"DANNY MICHAUD",1234567890,,"Hekka Design"
3,elpe23@hotmail.com,elpe23,Brian,Lebel,2018-03-14,,5149660415,1521041076,"No sales representative",0000123456,,"Lebel Toiture 2000"
4,messier.jp@hotmail.com,messier.jp,Jean-Philippe,Messier,2018-03-14,messier.jp@hotmail.com,819-469-0689,1522158830,"Aucun représentant",1837603411,,CyberMess
5,melanie.lefort@rona.ca,melanie.lefort,Mélanie,Lefort,2018-03-14,melanie.lefort@rona.ca,514-975-3926,1541532727,"Aucun représentant",1234564,,rona
6,tony.levesque@rona.ca,tony.levesque,Tony,Levesque,2018-03-14,,5142166227,1521051904,"ALAIN CANTARA",000000,,Rona
7,gabriel@serveko.ca,gabriel,Gabriel,Michaud-Lacoste,2018-03-14,gabriel@serveko.ca,5148840432,1581881706,"Aucun représentant",007552,,"Groupe Serveko inc"
8,claude.tomco@hotmail.com,claude.tomco,Claude,Berthelot,2018-03-14,,"514 942-8159",1521056399,"NORMAND DUBE",5149428159,,"Toiture tomco"
9,couvreurastral@videotron.ca,couvreurastral,claude,gravel,2018-03-14,gucci2@videotron.ca,5142943601,1581881704,"NORMAND DUBE",0000162981,,"couvreur astral inc"
10,benoitgougeon@videotron.ca,benoitgougeon,benoit,gougeon,2018-03-14,,"514 209 9720",1521061032,"NORMAND DUBE",555000,,"groupe gn"
11,mftoitureelite@gmail.com,mftoitureelite,michael,houle,2018-03-14,mftoitureelite@gmail.com,5142473491,1581881716,"NORMAND DUBE",164979,,"MF toiture Elite INC."
12,niko9h@hotmail.ca,niko9h,nicolas,houde,2018-03-14,niko9h@hotmail.ca,5145735879,1581881730,"Aucun représentant",168369,,"Les Toitures Niko"
13,st-pierreguylainecouvreur@hotmail.com,st-pierreguylainecouvreur,GUYLAINE,ST-PIERRE,2018-03-14,,514-386-1237,1521069056,"Aucun représentant",10214,,"MICHEL ST-PIERRE, COUVREUR INC."
14,toitvallee@globetrotter.net,toitvallee,STEVE,CHAREST,2018-03-15,,418-629-7281,1521116812,"DANNY MICHAUD",142455,,"TOITURE DE LA VALLÉE INC"
15,ce_brodeur@hotmail.com,ce_brodeur,"charles etienne",Brodeur,2018-03-15,,"514 835 3828",1521120192,"AUDREY BOURGEOIS",8353828,,"les constructions CE Brodeur inc"
16,couvreurduquette@hotmail.com,couvreurduquette,mario,duquette,2018-03-15,,450-776-4955,1521120720,"MARIO DOYON",9408993380,,"couvreur Duquette Inc."
17,toituregiroux@hotmail.com,toituregiroux,pascal,giroux,2018-03-15,toituregiroux@hotmail.com,5146086629,1521663411,"Aucun représentant",141840,,"toiture pascal giroux inc"
18,toiturealarie@hotmail.ca,toiturealarie,mario,alarie,2018-03-15,toiturealarie@hotmail.ca,514-220-3569,1521661973,"Aucun représentant",141981,,"toitures alarie et fils inc"
19,marcandre_lavoie@yahoo.ca,marcandre_lavoie,Marc-André,Lavoie,2018-03-15,,514-209-6272,1521142903,"PATRICK LEMIEUX",5142096272,,"Toitures Everest"
20,benoit@toituresboyer.com,benoit,benoit,boyer,2018-03-15,benoit@toituresboyer.com,514-706-5794,1581881726,"Aucun représentant",5147725794,,"toitures tb boyer inc"
21,constructiongc2001@gmail.com,constructiongc2001,Gaetan,Comtois,2018-03-15,constructiongc2001@gmail.com,450-444-3755,1581881720,"AUDREY BOURGEOIS",166845.000,,"Construction G.C. 2001 Inc."
22,patrickpelchat@hotmail.com,patrickpelchat,Patrick,Pelchat,2018-03-16,patrickpelchat@hotmail.com,514-919-1960,1521672621,"MARC CLOUTIER",172010,,"Toitures Pelchat Inc"
23,sommet.renovation@gmail.com,sommet.renovation,Brigitte,Chevalier,2018-03-16,sommet.renovation@gmail.com,4504678587,1521209930,"AUDREY BOURGEOIS",0000113738,,"Sommet Rénovation Inc"
24,toituressurmesures@hotmail.com,toituressurmesures,Frederic,Carriere,2018-03-16,,514-660-6920,1521212451,"PIERRE-HENRI OUELLETTE",169534,,"Toitures sur mesures"
25,jean-olivier.levesque@rona.ca,jean-olivier.levesque,Jean-Olivier,Lévesque,2018-03-16,,450-405-3486,1521216540,"JEAN-OLIVIER LEVESQUE",000000,,Jean-Olivier
26,patrick.blais@rona.ca,patrick.blais,patrick,blais,2018-03-16,,450-521-2557,1521218425,"Aucun représentant",000000,,rona
27,bruno@toiture-polaire.com,bruno,Bruno,Gagnon-Duval,2018-03-16,bruno@toiture-polaire.com,418-520-0413,1521671307,"GAETAN SYLVESTRE",8710875,,"Toiture Polaire Inc."
28,mario.doyon@rona.ca,mario.doyon,mario,doyon,2018-03-16,,450-775-7221,1521224467,"MARIO DOYON",775722,,"mario doyon construction"
29,msca1170@live.com,msca1170,Mélanie,Beaudoin,2018-03-16,,5147040196,1521225836,"Aucun représentant",172541.000,,"Toitures Dussault inc"
30,toituresjsbrisson@hotmail.com,toituresjsbrisson,Jannie,Martel-Mercier,2018-03-16,toituresjsbrisson@hotmail.com,418-951-6260,1521666274,"GAETAN SYLVESTRE",0000117355,,"Toitures J.S. Brisson Inc."
31,info@lesentrepriseslafco.ca,info,Lafco,Entreprises,2018-03-16,info@lesentrepriseslafco.ca,8196698292,1581881735,"Aucun représentant",108308,,Lafco2012
32,caron.richard@videotron.ca,caron.richard,Richard,Caron,2018-03-16,,5149447272,1521236779,"Aucun représentant",5149447272,,"Les Toitures Richard Caron"
33,patrickchevalier@live.ca,patrickchevalier,Patrick,Chevalier,2018-03-17,,6134080435,1521245081,"Aucun représentant",8195983352,,Rona
34,info@toituresadrenaline.com,info1,THIERRY,MIGNOT,2018-03-17,info@toituresadrenaline.com,5142904344,1581881706,"DOMINIC BERTRAND",41450,,"LES TOITURES ADRENALINE INC"
35,info@toitureunion.com,info2,Philippe,Marcoux,2018-03-17,,514-816-8168,1521299560,"PATRICK BLAIS",113270,,"Toiture Union"
36,toituresnlegault@gmail.com,toituresnlegault,Marcel,Brossard,2018-03-17,toituresnlegault@gmail.com,514-214-2363,1581881727,"Aucun représentant",169100,,"Toitures N. Legault 1986 Inc."
37,toiturelesassocies@yahoo.ca,toiturelesassocies,Sebastien,Brunet,2018-03-17,toiturelesassocies@yahoo.ca,5147715875,1521665407,"DOMINIC BERTRAND",170608,,"Toiture les associes"
38,loumay@videotron.ca,loumay,louis,lemay,2018-03-17,loumay@videotron.ca,819-643-5656,1581881730,"Aucun représentant",0000108313,,M.
39,guylussier@gmail.com,guylussier,Guy,Lussier,2018-03-19,,450-522-3335,1521457619,"Aucun représentant",0000138691,,"Guy Lussier Immeubles"
40,info@matoitureinc.ca,info3,Alain,Rivest,2018-03-19,info@matoitureinc.ca,514-371-7182,1581881697,"Aucun représentant",5143717182,,"MA TOITURE"
41,revetementshsolution@hotmail.com,revetementshsolution,Tina,Marleau,2018-03-19,revetementshsolution@hotmail.com,5149173510,1521661834,"Aucun représentant",142003,,"Revetement SH Solution"
42,danny.michaud@rona.ca,danny.michaud,Danny,Michaud,2018-03-19,,4185092229,1521463670,"DANNY MICHAUD",111111,,"Représentant RONA"
43,rpbjimmy@nb.aibn.com,rpbjimmy,Jimmy,Bosse,2018-03-19,rpbjimmy@nb.aibn.com,506-736-9804,1521498359,"DANNY MICHAUD",130-281,,"RPB construction Ltee"
44,entreprisesblevesque@hotmail.com,entreprisesblevesque,Levesque,Bruno,2018-03-19,entreprisesblevesque@hotmail.com,4186676777,1521668082,"GAETAN SYLVESTRE",103520,,"Entrerpises Bruno Levesque"
45,constructionj.lepage@gmail.com,constructionj.lepage,Jacques,Lepage,2018-03-19,constructionj.lepage@gmail.com,4187242569,1521662034,"DANNY MICHAUD",142797,,"CONST. J. LEPAGE"
46,info@protectoit.com,info4,Eric,Bergeron,2018-03-19,info@protectoit.com,4185207125,1521665329,"GAETAN SYLVESTRE",103461,,"Les Constructions Protectoit inc."
49,cboyer@boyerduretterenos.com,cboyer,Christian,Boyer,2018-03-19,cboyer@boyerduretterenos.com,514-709-2121,1581881707,"DOMINIC BERTRAND",170240,,"Boyer Durette Rénovations inc"
51,info@centroconstruction.ca,info5,DAVE,PELETIER,2018-03-19,info@centroconstruction.ca,438-862-2004,1521661563,"PIERRE-HENRI OUELLETTE",171583,,"CENTRO CONSTRUCTION INC."
52,aemichaud@outlook.com,aemichaud,André,Emond,2018-03-19,,5067373989,1521470368,"DANNY MICHAUD",130291,,"AFE CONSTRUCTION & RENOVATION"
53,audrey.bourgeois@rona.ca,audrey.bourgeois,audrey,bourgeois,2018-03-19,,514-347-0566,1521472291,"AUDREY BOURGEOIS",207518,,"audrey bourgeois"
54,toituresylevesque@globetrotter.net,toituresylevesque,Yvan,Levesque,2018-03-19,toituresylevesque@globetrotter.net,4187229542,1522174461,"DANNY MICHAUD",142295,,"ToituresYvan Levesque"
55,isabelle.raymond@actiplus.ca,isabelle.raymond,Christian,Boire,2018-03-19,,514-299-6694,1521477394,"Aucun représentant",145541,,"Construction Actiplus"
56,xavier@durotoit.com,xavier,Xavier,Trépanier,2018-03-19,,5147798648,1521481910,"Aucun représentant",1705410000,,"Les couvreurs Duro-Toit Inc"
57,toitures.sirois@gmail.com,toitures.sirois,Maxime,Sirois,2018-03-19,,8196987529,1521485344,"Aucun représentant",144553,,"Toitures Sirois"
58,toiturerivesud@gmail.com,toiturerivesud,Christian,Fettu,2018-03-19,,"514 726 7033",1521485595,"Aucun représentant",113315,,"Toiture rive-sud"
59,toitureskarolfrancis@gmail.com,toitureskarolfrancis,Karol,Francis,2018-03-19,,4187322511,1521486152,"DANNY MICHAUD",000142277,,"Toitures Karol Francis"
60,pc.qualitetoits@gmail.com,pc.qualitetoits,Cassandra,Castonguay,2018-03-19,,514-699-5086,1521488656,"Aucun représentant",QC,,"PC QUALITÉ TOITS Inc"
61,toitures.protex@outlook.com,toitures.protex,Mixalis,Rizos,2018-03-19,,5145783204,1521489610,"Aucun représentant",0000100171,,"Toitures protex"
62,stephane-gauthier2010@hotmail.com,stephane-gauthier2010,Gauthier,Stephane,2018-03-19,,8193456423,1521490793,"Aucun représentant",134770,,"maître couvreur stephane gauthier"
63,info@toitureslapointe.ca,info6,Gaétan,Lapointe,2018-03-19,,514-616-7385,1521490860,"Aucun représentant",112712,,"Toitures Lapointe Inc."
64,toiturespolygone@hotmail.com,toiturespolygone,Robert,Dugas,2018-03-19,toiturespolygone@hotmail.com,514-506-9250,1581881705,"PATRICK BLAIS",113162,,"Toitures Polygone inc."
65,toituresfrancoismiron@hotmail.com,toituresfrancoismiron,francois,miron,2018-03-19,toituresfrancoismiron@hotmail.com,514-884-5696,1581881728,"NORMAND DUBE",5884276,,"Les toitures francois miron"
66,donbanville263@outlook.com,donbanville263,DONALD,BANVILLE,2018-03-19,donbanville263@outlook.com,"(506) 733-0977",1521670404,"DANNY MICHAUD",130321,,"DON BANVILLE CONSTRUCTION"
67,refectoit.inc@hotmail.com,refectoit.inc,s,b,2018-03-20,,"514 968-1564",1521506576,"Aucun représentant",0000119386,,"refec-toit inc"
68,jsdroofing@gmail.com,jsdroofing,Jeansimon,Dufour,2018-03-20,,8197903736,1521508258,"Aucun représentant",0000106130,,Jsdroofing
69,couverturesmichelsylvain@gmail.com,couverturesmichelsylvain,Michel,Sylvain,2018-03-20,,"514 237 9147",1521510768,"Aucun représentant",134186,,"Couvertures Michel Sylvain"
70,renovationts@gmail.com,renovationts,Guy,Rollin,2018-03-20,,"819 431 9399",1521542550,"Aucun représentant",0000115025,,"renovation toutes saison"
71,gilles.pelletier@rona.ca,gilles.pelletier,gilles,pelletier,2018-03-20,,514-347-0271,1521547028,"Aucun représentant",160130,,rona
72,ent.berube@videotron.ca,ent.berube,Donald,Bérubé,2018-03-20,ent.berube@videotron.ca,"819 243 4115",1581881695,"Aucun représentant",107851,,"Les Entreprisese Bérubé Inc"
73,yves@toituresphenix.com,yves,Yves,Brodeur,2018-03-20,yves@toituresphenix.com,514-269-4583,1521662835,"PATRICK BLAIS",113951,,"Toitures Phénix"
74,info@couvreurcdp.com,info7,Esther,Dupont,2018-03-20,,8195620123,1521554846,"Aucun représentant",0000157139,,"Couvreur C.D.P."
75,constructions.srdk@gmail.com,constructions.srdk,kevin,bouchard,2018-03-20,,506-740-1222,1521560893,"Aucun représentant",0000130705,,"Les constructions SRDK inc"
76,v.perreault@toituresvperreault.com,v.perreault,Vincent,Perreault,2018-03-20,v.perreault@toituresvperreault.com,5147997856,1581881778,"NORMAND DUBE",170829,,"Toitures V. Perreault"
77,jls.lamontagnes@gmail.com,jls.lamontagnes,Sylvain,Lamontagne,2018-03-20,,514-830-3218,1521568412,"Aucun représentant",0000112498,,"Jls Lamontagne"
78,couvreurrivesud2006@msn.com,couvreurrivesud2006,Yves,Lortie,2018-03-20,,5149775683,1521569288,"Aucun représentant",113573,,"Couvreur RiveSud 2006"
79,alaindesjardinscouvreur@msn.com,alaindesjardinscouvreur,Alain,Desjardins,2018-03-20,,4506600441,1521569625,"Aucun représentant",147653,,"Alain Desjardins Couvreur Inc."
80,sl.nwr@nb.aibn.com,sl.nwr,STEVEN,LAVOIE,2018-03-20,,506-733-1814,1521569797,"DANNY MICHAUD",130454,,"NORTHWEST ROOFERS LTD"
81,bininngroofing@hotmail.com,bininngroofing,amrik,bininng,2018-03-20,bininngroofing@hotmail.com,5146388282,1521664206,"Aucun représentant",13221647,,"bininng roofing"
82,toiturejfberard@hotmail.com,toiturejfberard,Jeanfrancois,Berard,2018-03-20,,5145131066,1521573709,"MARC CLOUTIER",168017,,"Les toitures jf berard inc"
83,babyland06@hotmail.fr,babyland06,Stéphane,Picard,2018-03-20,,"450 378 1240",1521574349,"Aucun représentant",3781240,,"Toiture Stéphane picard"
84,c.grenier@lesgeants.ca,c.grenier,CLEMENT,GRENIER,2018-03-20,,514-838-8525,1521574688,"Aucun représentant",165769.000,,"LES GÉANTS DU COUVRE-PLANCHER INC"
85,slacasse@lacasseetfils.com,slacasse,Serge,Lacasse,2018-03-20,,819-578-3407,1521576169,"MARIO DOYON",124394,,"Lacasse et fils maitres couvreurs inc."
86,toiturestplinc@hotmail.com,toiturestplinc,Pascal,Tribout,2018-03-20,,514-268-0372,1521576854,"NORMAND DUBE",7176662,,"Toitures TPL inc"
87,guyleger01@gmail.com,guyleger01,Guy,Léger,2018-03-20,,5147033641,1521577773,"Aucun représentant",3641,,"Construction Guy Léger inc"
88,toiturestacygosselin@hotmail.com,toiturestacygosselin,Stacy,Gosselin,2018-03-20,toiturestacygosselin@hotmail.com,5145670935,1521662613,"Aucun représentant",185351,,"Toiture Stacy gosselin inc"
89,info@mecba.ca,info8,Marie-Josée,Goulet,2018-03-20,info@mecba.ca,4185700620,1581970348,"Aucun représentant",103171,,"Toitures MECBA inc."
90,jf-ski@hotmail.com,jf-ski,jean-frederic,pinard,2018-03-20,,5147585954,1521579303,"PATRICK LEMIEUX",5147585954,,"toitures jf pinard"
91,admin@silanictoitures.com,admin1,Sylvain,Durance,2018-03-20,,514-945-250,1521579619,"NORMAND DUBE",172201,,"Construction Silanic Inc"
92,toitures.lg@gmail.com,toitures.lg,Luc,Champigny,2018-03-20,toitures.lg@gmail.com,5149177487,1582146617,"ALAIN CANTARA",113715,,"Toitures LG inc"
93,info@hekka.ca,info9,Mario,Lebel,2018-03-20,,514-966-0415,1521583775,"Aucun représentant",1234567890,,"Camping de l'amitie"
94,toituresdavidpage@gmail.com,toituresdavidpage,David,Pagé,2018-03-20,toituresdavidpage@gmail.com,819-531-0321,1521663113,"Aucun représentant",150917,,"Les Toitures David Pagé Inc."
95,pierreluclaberge@yahoo.ca,pierreluclaberge,pierre-luc,laberge,2018-03-20,,"514 707-5875",1521584752,"PATRICK LEMIEUX",5147075875,,"construction alain laberge & fils inc"
96,sfiliatreault@asfiliatreault.com,sfiliatreault,Sébastien,Filiatreault,2018-03-20,,514-914-8482,1521586245,"Aucun représentant",12345,,"A.S. Filiatreault"
97,toituresuperieure@gmail.com,toituresuperieure,Tomy,Payeur,2018-03-20,,418-281-9615,1521588066,"Aucun représentant",125782,,"Toiture supérieure"
98,billy@couvreurcouvtoit.com,billy,Billy,Ouimet,2018-03-20,,5144448641,1521588426,"Aucun représentant",00000000 »,,"Couvreur couv toit inc"
99,info@lesconstructionsdpsignature.com,info10,Dario,Truchon,2018-03-20,,5148173750,1521588916,"ETIENNE FECTEAU",207013,,Lesconstructionsdpsignature
100,select.dant@gmail.com,select.dant,Daniel,Thériault,2018-03-21,,506-737-7528,1521630267,"DANNY MICHAUD",130420,,"Sélect construction,inc."
101,francis@toitures-tech.ca,francis,Francis,"Brunet PT",2018-03-21,francis@toitures-tech.ca,5142392868,1521663394,"PIERRE-HENRI OUELLETTE",164405,,"Toitures Pro-Tech"
102,mcaron@toiturescaron.com,mcaron,Mario,Caron,2018-03-21,mcaron@toiturescaron.com,4505301436,1581881718,"SYLVIE PLOURDE",168093,,"Toitures Caron et Fils Inc"
103,toituresmartinlafontaine@videotron.ca,toituresmartinlafontaine,Martin,Lafontaine,2018-03-21,toituresmartinlafontaine@videotron.ca,"514 924 5466",1522852953,"MARC CLOUTIER",172059,,"Toitures Martin lafontaine"
104,info@toitureslarose.com,info11,Marc,Larose,2018-03-21,info@toitureslarose.com,450-994-7779,1521667817,"JEAN-OLIVIER LEVESQUE",0000113825,,"Toitures Larose"
105,alain.cantara@rona.ca,alain.cantara,Alain,Cantara,2018-03-21,,450-587-3937,1521635980,"ALAIN CANTARA",043040,,"Rona 43040"
106,toituresguillette@hotmail.com,toituresguillette,Pierre,Guillette,2018-03-21,toituresguillette@hotmail.com,4505784129,1581881706,"Aucun représentant",135915.000,,"Toitures Guillette & Fils Inc."
107,lestoituresgaumond@hotmail.com,lestoituresgaumond,Jean-Francois,Gaumond,2018-03-21,,514-884-1604,1521636106,"NORMAND DUBE",171706,,"Les toitures gaumond inc"
108,pmenardcouvreur@hotmail.com,pmenardcouvreur,Philippe,Ménard,2018-03-21,pmenardcouvreur@hotmail.com,"450 531-7447",1521662507,"MARIO DOYON",000000,,"Toiture Titans"
109,gbcouvreur@bellnet.ca,gbcouvreur,Eric,"L\\\\\\\\\\\\\\\\\\\\\\\\\\\\\\\\\\\\\\\\\\\\\\\\\\\\\\\\\\\\\\\'Archeveque",2018-03-21,,450-368-5221,1521636970,"Aucun représentant",4503685221,,"GB couvreur"
110,info@toituressoleil.com,info12,Marie-Lyne,Charest-Brunet,2018-03-21,,4504784530,1521637121,"NORMAND DUBE",6174530,,"Les Toitures Soleil Inc."
111,toiturelavoie@gmail.com,toiturelavoie,Gino,Lavoie,2018-03-21,,4505617869,1521640083,"PATRICK BLAIS",113361,,"Toiture Lavoie 2014 inc"
112,mgeoffrion87@Gmail.com,mgeoffrion87,martin,geoffrion,2018-03-21,,5142229786,1521640281,"DANIEL CHEVRIER",174114,,"toiture Grégoire"
113,mjbhivon@videotron.ca,mjbhivon,Benoit,Hivon,2018-03-21,mjbhivon@videotron.ca,450-880-0233,1521675068,"ALAIN CANTARA",122059,,"MJB Construction"
114,info2@hekka.ca,info21,Louis,Lebel,2018-03-21,,"514 966-0415",1521641588,"Aucun représentant",#123456789,,"Camping de l\'amitie"
115,sebastien@groupebouda.com,sebastien,Sebastien,Boulanger,2018-03-21,sebastien@groupebouda.com,5145813928,1581881777,"AUDREY BOURGEOIS",172363,,"Groupe Bouda"
116,stephane@lestoituresmorel.com,stephane,Stéphane,Morel,2018-03-21,stephane@lestoituresmorel.com,4508989061,1581881696,"Aucun représentant",4507609061,,"Toitures Morel inc."
117,infos@toiturescemalie.com,infos,Cedric,Lepine,2018-03-21,,5149100246,1521649105,"Aucun représentant",0000112364,,"Toitures cemalie"
119,toiturebeaudoin@outlook.com,toiturebeaudoin,Eric,Beaudoin,2018-03-21,,450-670-6771,1521654663,"Aucun représentant",0000125719,,"Toitures Beaudoin"
120,jagnew@brico-toit.com,jagnew,Jessica,Agnew,2018-03-21,,514-663-3277,1521656219,"NORMAND DUBE",170991,,"Les Couvreurs Brico-Toit Inc."
121,pierre.lachance@rona.ca,pierre.lachance,pierre,lachance,2018-03-21,pierre.lachance@rona.ca,5142128459,1521656847,"Aucun représentant",1234567890,,Rona
122,DOMINIC.BERTRAND@RONA.CA,DOMINIC.BERTRAND,DOMINIC,BERTRAND,2018-03-21,,514-972-2392,1521657061,"DOMINIC BERTRAND",11111111,,RONA
123,etienne.fecteau@rona.ca,etienne.fecteau,Etienne,Fecteau,2018-03-21,,"514 239 0811",1521657088,"Aucun représentant",123456,,"Toiture abs"
124,daniel.lauzon@rona.ca,daniel.lauzon,Daniel,Lauzon,2018-03-21,,514-863-5905,1521657232,"DANIEL LAUZON",123456789,,Rona
125,yann.dufault@marcilcdr.com,yann.dufault,Yann,Dufault,2018-03-21,,514-239-3256,1521657252,"Aucun représentant",1234567890,,Rona
126,alain_stjean2000@yahoo.ca,alain_stjean2000,Alain,"St Jean",2018-03-21,,5148389595,1521657478,"AUDREY BOURGEOIS",169417,,"Toiture Alain st jean"
127,MARC.CLOUTIER@RONA.CA,MARC.CLOUTIER,Marc,Cloutier,2018-03-21,,5143472619,1521657536,"Aucun représentant",000000,,RONA
128,sylvie.plourde@rona.ca,sylvie.plourde,sylvie,plourde,2018-03-21,,5144443135,1521657577,"SYLVIE PLOURDE",000000,,rona
129,info@toitureunix.com,info13,Andy,Tremblay,2018-03-21,,514-742-8647,1521657703,"ALAIN CANTARA",5142577337,,"Toiture Unix"
130,pierre-henri.ouellette@rona.ca,pierre-henri.ouellette,pierre-henri,ouellette,2018-03-21,,"514 217 9114",1521657729,"Aucun représentant",000000,,rona
131,mikeblatter929@gmail.com,mikeblatter929,Mike,Blatter,2018-03-21,,5147309019,1521657747,"Aucun représentant",0004587,,"Couvreur B.P. élite inc."
132,jbriere@couvertures.ca,jbriere,johanne,briere,2018-03-21,,514-926-0399,1521658011,"Aucun représentant",0000112511,,"couvertures monteregiennes"
133,lestoituresadvitam@hotmail.ca,lestoituresadvitam,Yan,Cormier,2018-03-21,,5148209198,1521658072,"Aucun représentant",194927,,"Les toitures as vitam"
134,daniel.chevrier@rona.ca,daniel.chevrier,Daniel,Chevrier,2018-03-21,,5149840487,1521658589,"Aucun représentant",123456,,"Toiture chevrier"
135,production@rfd2000.ca,production,Francis,Doyon,2018-03-21,,4506555031,1521659240,"ALAIN CANTARA",0000113333,,"Toiture RFD2000 inc"
136,toituresg@gmail.com,toituresg,sylvain,garceau,2018-03-21,,8195386661,1521659405,"Aucun représentant",00000,,"toiture mauricie sg"
137,toituresatherrien@videotron.ca,toituresatherrien,alain,therrien,2018-03-21,,"819 668 2432",1521659643,"Aucun représentant",151837,,"les toitures alain therrien inc"
138,toituresdupont@hotmail.comn,toituresdupont,François,Dupont,2018-03-21,,"514 444 9360",1521660374,"Aucun représentant",134239,,"Toitures Dupont inc"
139,toituredg@gmail.com,toituredg,Ghislaing,Grenier,2018-03-21,toituredg@gmail.com,819-829-3889,1521660454,"Aucun représentant",8198293889,,"toitures D.G"
140,toiturechaudiereappalaches@hotmail.com,toiturechaudiereappalaches,Mathieu,Ruel,2018-03-21,,4182819421,1521660458,"Aucun représentant",138925,,"toiture chaudière-appalaches inc"
141,andrevinet@live.ca,andrevinet,andre,Vinet,2018-03-21,andrevinet@live.ca,514-918-0241,1521663255,"DOMINIC BERTRAND",171988,,"Toiture FA"
142,denis@toituresbl.ca,denis,Denis,Boisvert,2018-03-21,,"514 3490305",1521660747,"ALAIN CANTARA",3490305,,"Les Toitures Boisvert Lafrance Inc"
143,toituresparagon@gmail.com,toituresparagon,Kenny,Clarke,2018-03-21,,514-290-5646,1521660801,"AUDREY BOURGEOIS",165218,,"Toitures Paragon"
144,eric.dubois@hotmail.com,eric.dubois,Eric,Dubois,2018-03-21,eric.dubois@hotmail.com,4505250597,1581881703,"MARIO DOYON",122965,,"Toitures smith et dubois"
145,steve.racicot@live.ca,steve.racicot,steve,racicot,2018-03-21,,514-501-0087,1521661061,"ETIENNE FECTEAU",000000,,"totitures steve racicot inc."
146,eric@toiturelajoie.com,eric,Eric,Lajoie,2018-03-21,,418-3344277,1521661067,"Aucun représentant",125340,,"Toiture Lajoie 2000 inc."
147,admin@toiture-bardeaux.com,admin2,Pascal,Belanger,2018-03-21,,5148385945,1521661422,"ALAIN CANTARA",000000,,"les entreprise belanger 2002"
148,yoakim@hotmail.ca,yoakim,"Abdel Hakim",Dahir,2018-03-21,,4389897375,1521661667,"Aucun représentant",000000,,"Les toitures montdore inc."
149,j.lauze@toituredelta.com,j.lauze,Julien,Lauzé,2018-03-21,j.lauze@toituredelta.com,4188321007,1581881695,"GAETAN SYLVESTRE",103160,,"TOITURE DELTA"
150,toituresultima@gmail.com,toituresultima,Éric,Bigeault,2018-03-21,,450-516-4802,1521662249,"Aucun représentant",147601,,"Toitures Ultima"
151,benoit@toitures24.ca,benoit1,benoit,trussart,2018-03-21,,5144047927,1521662629,"Aucun représentant",7547927,,"Toitures 24 inc."
152,bstgeorges@liquiteck.com,bstgeorges,benoit,st-georges,2018-03-21,,438-827-8327,1521662711,"Aucun représentant",60,,"benoit st-georges"
153,fred.lajoie.71@gmail.com,fred.lajoie.71,Frédérik,Lajoie,2018-03-21,,418-932-2767,1521663000,"Aucun représentant",102707,,"Québec Toits Construction inc"
154,carj@rona.ca,carj,Julie,Caron,2018-03-21,,5145995900,1521663675,"Aucun représentant",000000,,Rona
155,gigi@rona.ca,gigi,Isabelle,Giguère,2018-03-21,,5147924324,1521663783,"ALAIN CANTARA",000000,,"Rona Bureau chef"
156,sergelavallee@videotron.ca,sergelavallee,Serge,Lavallée,2018-03-21,sergelavallee@videotron.ca,5148177458,1521666812,"DANIEL CHEVRIER",0000166877,,"Toitures Serge Lavallée & Fils"
157,alainmorin61@hotmail.com,alainmorin61,Alain,Morin,2018-03-21,alainmorin61@hotmail.com,450-378-2037,1581881782,"MARIO DOYON",136642,,"Toitures Nadeau et Morin INC"
158,aptoituresetfils@gmail.com,aptoituresetfils,Peter,Massie,2018-03-21,aptoituresetfils@gmail.com,514-220-8492,1581881713,"DOMINIC BERTRAND",164130,,"AP toiture"
159,toituresremigagne@hotmail.com,toituresremigagne,Rémi,Gagné,2018-03-21,toituresremigagne@hotmail.com,514-919-6016,1581881694,"DANIEL CHEVRIER",0000172017,,"Toiture Rémi Gagné"
160,info@couvreurexcel.com,info14,thedy,joseph,2018-03-21,,5146861695,1521665106,"Aucun représentant",145770,,"couvreur excel"
161,toituresbolduc@gmail.com,toituresbolduc,Marc,Bolduc,2018-03-21,toituresbolduc@gmail.com,4189564144,1581881717,"Aucun représentant",0000103485,,"Toituresbolduc inc"
162,707marco@gmail.com,707marco,Marco,Ricignuolo,2018-03-21,707marco@gmail.com,514-629-5404,1521668008,"Aucun représentant",160022,,"couvreur 4 saisons"
163,couvreurs@toit-direct.com,couvreurs,simon,benoit,2018-03-21,,4388808648,1521667519,"NORMAND DUBE",172732,,toit-direct
164,dominique.boule@rona.ca,dominique.boule,Dominique,Boule,2018-03-21,,4182227756,1521668084,"Aucun représentant",123456,,"toiture bole"
165,dale_scullion@yahoo.ca,dale_scullion,Dale,Scullion,2018-03-21,,418-655-5599,1521668829,"Aucun représentant",000000,,"Toiture Rhino"
166,hamelfrancois1@hormail.com,hamelfrancois1,François,Hamel,2018-03-21,,819-574-4255,1521669755,"Aucun représentant",000000,,"Les Constructions François Hamel"
167,info@toiture640.com,info15,Marco,Brisson,2018-03-21,,514-945-8977,1521670351,"NORMAND DUBE",172387,,"Toitures 640 inc"
168,pifpafconstruction@icloud.com,pifpafconstruction,Manuel,Moreau,2018-03-21,pifpafconstruction@icloud.com,4508064666,1581881708,"Aucun représentant",170868,,"pif paf construction"
169,welonboss@hotmail.com,welonboss,Steven,Gladu,2018-03-21,,514-291-5775,1521672342,"Aucun représentant",203173,,"Les couvreurs d ‘élite"
170,couvreurcomtois@hotmail.com,couvreurcomtois,Claude,Comtois,2018-03-21,couvreurcomtois@hotmail.com,524-269-5394,1581881779,"ALAIN CANTARA",113952,,"Couvreur Comtois"
171,toiturequalipro@hotmail.com,toiturequalipro,Eric,"Boulanger Gaudreau",2018-03-21,toiturequalipro@hotmail.com,4182918454,1521674311,"Aucun représentant",114191,,"Toiture Quali Pro"
172,info@toituresbarbeauetfils.com,info16,Pascal,Barbeau,2018-03-21,,"514 821-8348",1521673792,"Aucun représentant",0000000000,,"Toitures barbeau et fils inc"
173,toitureroy@hotmail.ca,toitureroy,Pierre,Roy,2018-03-21,,514-829-3777,1521674424,"NORMAND DUBE",167762,,"Toiture Roy Inc."
174,,seed_cspv5_clientview_test,,,2018-03-28,,,,,,,
175,simontoit@hotmail.com,simontoit,Pascal,simon,2018-03-28,simontoit@hotmail.com,4503689400,1522268799,"NORMAND DUBE",165941,,"simontoit inc."
176,dg.44070@marcilcdr.com,dg.44070,gilbert,leblanc,2018-03-28,normand.dube@rona.ca,549530369,1522269673,"NORMAND DUBE",168948,,"couvreur oullette et leblanc"
177,normand.dube@rona.ca,normand.dube,Pascal,Simon,2018-04-03,normand.dube@rona.ca,4508989400,1522777209,"NORMAND DUBE",165941,,"Toiture Simontoit"
178,ci.41330@rona.ca,ci.41330,Pierre,Généreux,2018-04-04,ci.41330@rona.ca,514-586-2498,1522849695,"Aucun représentant",103908,,"Couverture P Généreux"
179,leclercmarcantoine1@gmail.com,leclercmarcantoine1,Marc-Antoine,Leclerc,2018-11-06,,5149104488,1541530312,"Aucun représentant",1234abcdef,,"Marc-Antoine Leclerc"
180,marcmorindeziel@gmail.com,marcmorindeziel,Marc-André,Déziel,2019-03-12,,5146182932,1552354541,"ALAIN CANTARA",123456,,Codestack
181,mamd94@hotmail.com,mamd94,Marc-André,Déziel,2019-03-12,,5146182932,1552355421,"Aucun représentant",123456,,Codestack
182,eagle_174@hotmail.com,eagle_174,Test,Test,2019-03-12,,514-910-4488,1552359552,"Aucun représentant",Testtest12,,Test
183,melissa@serveko.ca,melissa,Mélissa,Sigouin,2019-03-12,,5144758074,1552415959,"NORMAND DUBE",172417,,"Groupe Serveko Inc."
184,toitureftd@hotmail.com,toitureftd,Francis,Tremblay-Desjardins,2019-03-12,,450-486-4757,1552419005,"ETIENNE FECTEAU",105143,,"Toiture FTD"
185,benponton@hotmail.com,benponton,Benoit,Ponton,2019-03-12,benponton@hotmail.com,5148332012,1581881693,"Aucun représentant",0000113310,,"Toitures Benoit Ponton inc"
186,info@lesconstructionsnb.com,info17,Nicolas,Bellegarde,2019-03-14,,418-227-5301,1552584980,"Aucun représentant",111377.000,,"Les Constructions Nicolas Bellegarde Inc."
187,plourde.unic@bellnet.ca,plourde.unic,Sébastien,Plourde,2019-03-14,,418-893-2242,1552586479,"DANNY MICHAUD",208984,,"Les Constructions Unic inc."
188,renovationguildochouinard@hotmail.com,renovationguildochouinard,GUILDO,CHOUINARD,2019-03-14,renovationguildochouinard@hotmail.com,418-853-2444,1581881776,"DANNY MICHAUD",130660,,"RENOVATION GUILDO CHOUINARD"
189,marco@constructionsnormandpigeon.com,marco,Marco,Pigeon,2019-03-14,,5147771446,1552595160,"Aucun représentant",0000113319,,"Const.Normand Pigeon&fils inc."
190,jean-francois@rmrleblanc.com,jean-francois,Jean-francois,Leblanc,2019-03-14,jean-francois@rmrleblanc.com,5144444973,1581881741,"Aucun représentant",141915,,"Les constructions RMR Leblanc"
191,charbonneauclaude6@gmail.com,charbonneauclaude6,Claude,Charbonneau,2019-03-14,,"514 572 6600",1552598998,"GILLES PELLETIER","514 572660",,"CHARBONNEAU E. G. INC."
192,constructionmlb@gmail.com,constructionmlb,"Mike allen","Lavoie Berube",2019-03-14,constructionmlb@gmail.com,418-750-9067,1581881748,"DANNY MICHAUD",143406,,"Construction Rénovation MLB"
193,constructionpatrickleclair@gmail.com,constructionpatrickleclair,Patrick,Leclair,2019-03-14,,450-522-2239,1552601829,"Aucun représentant",124062,,"Construction Patrick Leclair"
194,lapointef267@gmail.com,lapointef267,François,Lapointe,2019-03-14,,5142647053,1552605932,"Aucun représentant",105209,,"Constructions f.lapointe inc"
195,ncaron.enc@gmail.com,ncaron.enc,Nicolas,Caron,2019-03-15,ncaron.enc@gmail.com,4388873500,1581881743,"AUDREY BOURGEOIS",132259,,"Construction Flip Design inc"
196,constructionmarcc@gmail.com,constructionmarcc,marc,chevalier,2019-03-15,constructionmarcc@gmail.com,5147941148,1581881740,"Aucun représentant",01049656,,"construction marc chevalier"
197,laboiteconstruction@gmail.com,laboiteconstruction,Félix,Monette-Dubeau,2019-03-15,laboiteconstruction@gmail.com,514-916-6666,1581881731,"Aucun représentant",171968,,"La BOÎTE Construction Inc."
198,constlpaquette@gmail.com,constlpaquette,LUC,PAQUETTE,2019-03-15,,819-773-0141,1552650964,"Aucun représentant",108197,,"CONSTRUCTION l. pAQUETTE"
199,f.bouchard.robko@gmail.com,f.bouchard.robko,Francis,Bouchard,2019-03-15,,"418.407.0752 p.3",1552657369,"GAETAN SYLVESTRE",103455,,Robko
200,lucouimet@hotmail.fr,lucouimet,luc,ouimet,2019-03-15,lucouimet@hotmail.fr,514-248-7891,1581881735,"Aucun représentant",165003,,"Construction CL"
201,constructionmaximegagne@gmail.com,constructionmaximegagne,Maxime,Gagné,2019-03-16,constructionmaximegagne@gmail.com,5149473078,1581881775,"PIERRE LACHANCE",145544,,"Construction et Rénovation Maxime Gagné"
202,maxco_construction@hotmail.com,maxco_construction,Maxime,Trepanier,2019-03-16,maxco_construction@hotmail.com,5146178224,1581881737,"Aucun représentant",161753,,"Maxco Construction Inc"
203,mathieupicotin19@hotmail.com,mathieupicotin19,Mathieu,Picotin,2019-03-17,,5067401312,1552837381,"Aucun représentant",130838,,"Mathieu Picotin construction ltée"
204,constructiondumais@live.ca,constructiondumais,Steve,Barriault,2019-03-18,constructiondumais@live.ca,724-6319,1581881729,"Aucun représentant",142634,,"Construction Dumais"
205,couvreurroch@live.ca,couvreurroch,Danny,Bolduc,2019-03-18,,450-830-5399,1581881781,"Aucun représentant",165969,,"Couvreur Roch et fils"
206,workmanmtl@gmail.com,workmanmtl,Alex,Workman,2019-03-18,workmanmtl@gmail.com,"514 995697",1581881743,"AUDREY BOURGEOIS",171083,,"Workman INC"
207,ngaboury@mayton.ca,ngaboury,NANCY,GABOURY,2019-03-18,,4505341785,1552930641,"MARIO DOYON",100221,,"BBD CONSTRUCTIONS INC"
208,const.bl@videotron.ca,const.bl,Benoit,Laflamme,2019-03-18,const.bl@videotron.ca,450-777-3882,1581881744,"MARIO DOYON",138257,,"Constructions Benoit Laflamme inc."
209,constructionfmaloinc@hotmail.com,constructionfmaloinc,Francois,Malo,2019-03-19,,4503795417,1552960403,"MARIO DOYON",137023,,"Construction francois malo inc"
210,guysalvas@gmail.com,guysalvas,guy,salvas,2019-03-19,,5148982989,1553008590,"GILLES PELLETIER",168778,,"construction decor prestige inc."
211,toituresvarin@gmail.com,toituresvarin,Eric,Varin,2019-03-19,toituresvarin@gmail.com,819-351-7647,1581881698,"PATRICK CHEVALIER",107674,,"Toiture Varin fils"
212,j.bilodeau@outlook.com,j.bilodeau,Jimmy,Bilodeau,2019-03-19,j.bilodeau@outlook.com,4182223612,1581881740,"DOMINIC BOULE",111828,,"construction Jimmy Bilodeau inc"
213,mrichard@agilis.ca,mrichard,Michèle,Richard,2019-03-19,,819-663-5430,1553017094,"Aucun représentant",108419,,AGILIS
214,entrpquirion@gmail.com,entrpquirion,pascal,quirion,2019-03-19,entrpquirion@gmail.com,418-226-7513,1581881772,"Aucun représentant",111844,,"les entreprises pascal quirion inc."
215,cotetoitures@hotmail.com,cotetoitures,Martin,Côté,2019-03-19,,5147084830,1553018902,"ETIENNE FECTEAU",112413,,"Côté Toitures inc."
216,admin@groupegince.com,admin3,Karine,Gince,2019-03-19,,4505390370,1553023208,"MARIO DOYON",137460,,"Groupe immobilier Rejean Gince inc."
217,Toitelegant@gmail.com,Toitelegant,Pierre,Filion,2019-03-19,Toitelegant@gmail.com,418-387-0101,1581881717,"ETIENNE FECTEAU",132150,,"Toit Élégant"
218,gillesboulianne@bell.net,gillesboulianne,Gilles,Boulianne,2019-03-19,,418-805-0672,1553024721,"Aucun représentant",0000213192,,"Toiture Aluminium Classic inc."
219,renodker@hotmail.com,renodker,Daniel,Brisson,2019-03-19,,4183385351,1553030265,"Aucun représentant",125371,,"Renovation DKER"
220,sebastienmorin@globetrotter.net,sebastienmorin,Sebastien,Morin,2019-03-19,,4182223228,1553030813,"Aucun représentant",111113,,"constructions sebastien morin inc"
221,davelachance@live.ca,davelachance,Dave,Lachance,2019-03-20,,418-221-5865,1553045442,"Aucun représentant",111123,,"Construction Dave Lachance inc"
222,rn.nwr@nb.aibn.com,rn.nwr,Real,Nadeau,2019-03-20,rn.nwr@nb.aibn.com,5067391811,1582145965,"DANNY MICHAUD",130454,,"Northwest Roofers Ltd"
223,lavoie.pierre68@gmail.com,lavoie.pierre68,Pierre,Lavoie,2019-03-20,lavoie.pierre68@gmail.com,514-918-6655,1581881728,"SYLVIE PLOURDE",2270019,,"construction dubé lavoie"
224,toitureslarose@gmail.com,toitureslarose,Marc-Edouard,Larose,2019-03-20,,4509947779,1553090838,"JEAN-OLIVIER LEVESQUE",43020,,"Toitures Larose"
225,lise.lajoie@uqo.ca,lise.lajoie,Denis,Martel,2019-03-20,,819-767-2186,1553092763,"PATRICK CHEVALIER",108200,,"Toiture Dibeauséjour"
226,johamannconstruction@gmail.com,johamannconstruction,jean-olivier,hamann,2019-03-20,johamannconstruction@gmail.com,4505218369,1581881737,"JEAN-OLIVIER LEVESQUE",122968,,"hamann construction ltée"
227,info@hu-nic.com,info18,Nicholas,Audet-Besner,2019-03-20,info@hu-nic.com,5149079013,1581881729,"AUDREY BOURGEOIS",168371,,"Hu-Nic Construction"
228,toituresbmt@gmail.com,toituresbmt,Benjamin,Ménard,2019-03-20,toituresbmt@gmail.com,450-558-3358,1581881694,"Aucun représentant",208849,,"Toitures BMT inc."
229,pprimeau@constructionprimeau.ca,pprimeau,Pascal,Primeau,2019-03-20,pprimeau@constructionprimeau.ca,450-427-2387,1581881746,"ALEXANDRE MCKENNA",141817,,"Les Constructions D. & M. Primeau Inc."
230,info@toitureroyalemd.com,info19,Martin,daigle,2019-03-20,,418-999-2166,1553105481,"Aucun représentant",43210,,"toiture royale md"
231,toitures.vnc@hotmail.com,toitures.vnc,vincent,vachon,2019-03-20,,4384941665,1553105872,"Aucun représentant",0000213284,,"toitures vnc inc"
232,Toituresnordika@hotmail.ca,Toituresnordika,Frederic,Viens,2019-03-20,,4507127601,1553105878,"Aucun représentant",7127601,,"Toitures nordika"
233,test123@gmail.com,test123,Marc-André,Déziel,2019-03-20,,5146182932,1553105948,"ALAIN CANTARA",1234,,Test
234,david.dube@rona.ca,david.dube,David,Dube,2019-03-20,,4189315274,1553106249,"Aucun représentant",111234,,rona
235,alexandre.mckenna@rona.ca,alexandre.mckenna,Alexandre,McKenna,2019-03-20,,5146862203,1553106293,"ALEXANDRE MCKENNA",123456,,Rona
236,yves.massicotte@rona.ca,yves.massicotte,yves,massicotte,2019-03-20,,8195314227,1553106334,"YVES MASSICOTTE",12345600,,rona
237,b.b-8toitures@hotmail.com,b.b-8toitures,Benjamin,Boyer,2019-03-20,,450-525-0081,1553106631,"Aucun représentant",41350,,"B.B-8Toitures inc"
238,mc3jconstruction@gmail.com,mc3jconstruction,Josianne,Tardif,2019-03-20,,514-820-3388,1553106635,"MARIO DOYON",0000126106,,"MC3J Construction"
239,yann.dufault@rona.ca,yann.dufault1,Yann,Dufault,2019-03-20,,514-239-3256,1553106734,"YANN DUFAULT",123456,,RONA
240,alexandre.champagne@rona.ca,alexandre.champagne,alexandre,champagne,2019-03-20,,5146901385,1553106784,"ALEXANDRE CHAMPAGNE",0000000,,rona
241,patrick.chevalier@rona.ca,patrick.chevalier,Patrick,Chevalier,2019-03-20,,613-408-0435,1553106839,"PATRICK CHEVALIER",107732,,"Rona Rep"
242,sammy_ranciurt@hotmail.com,sammy_ranciurt,Sammy,Rancourt,2019-03-20,,8197908164,1553107475,"Aucun représentant",146133,,Sam
243,m_lefort11@hotmail.com,m_lefort11,Mélanie,Lefort,2019-03-20,m_lefort11@hotmail.com,514-975-3926,1581881693,"ALAIN CANTARA",123456,,rona
244,constructionscrg@hotmail.com,constructionscrg,Goulet,Jacques,2019-03-20,constructionscrg@hotmail.com,4183336113,1581881694,"DOMINIC BOULE",125545,,"Constructions C.R.G oulet"
245,k.d.g.construction.inc@gmail.com,k.d.g.construction.inc,Gilles,Veronneau,2019-03-20,,5148674520,1553109596,"PATRICK BLAIS",113676,,"K.d.g. Construction"
246,isabelletremblay.irq@videotron.ca,isabelletremblay.irq,Isabelle,tremblay,2019-03-20,,"450 906-3207",1553111927,"ETIENNE FECTEAU",133876,,"Imperméabilisation revêtement Québec IRQ inc"
247,ent.berube@videoteron.ca,ent.berube1,Donald,Bérubé,2019-03-20,,"819 243 4115",1553111952,"Aucun représentant",107851,,"Les entreprises Bérubé"
248,slacasse@lasseetfils.com,slacasse1,SERGE,LACASSE,2019-03-20,,819-843-2681,1553112229,"MARIO DOYON",124394,,"LACASSE ET FILS MAITRES COUREURS INC."
249,st.blais@hotmail.com,st.blais,Alain,Rivest,2019-03-20,,514-371-7182,1553112435,"Aucun représentant",165947,,MATOITURE
250,danielgouin@hotmail.com,danielgouin,Daniel,Gouin,2019-03-20,danielgouin@hotmail.com,8195711602,1581881703,"MARIO DOYON",115295,,"Constructions et rénovations DGouin"
251,samuel@toituresphenix.com,samuel,Samuel,Phénix,2019-03-20,samuel@toituresphenix.com,4509290550,1581881704,"PATRICK BLAIS",113951,,"Toitures Phénix Inc."
252,constructionyvonbouchard@live.ca,constructionyvonbouchard,Yvon,Bouchard,2019-03-20,,5142623135,1553114944,"Aucun représentant",5142623135,,"Construction Yvon Bouchard inc"
253,lclginc@hotmail.com,lclginc,Luc,Girard,2019-03-20,,5142298859,1553115667,"Aucun représentant",123456,,"Les constructions luc girard inc."
254,info@couverturesgarneau.com,info20,Jean-François,Garneau,2019-03-20,info@couverturesgarneau.com,418-334-1626,1581881704,"DOMINIC BOULE",127043,,"Couvertures Garneau inc."
255,Info@optiontoiture.com,Info22,Mathieu,Lafleur,2019-03-20,Info@optiontoiture.com,5149665580,1581881719,"Aucun représentant",0000113819,,"Option toiture"
256,info@toiture-polaire.com,info23,Bruno,"Gagnon Duval",2019-03-20,info@toiture-polaire.com,418-871-0875,1581881714,"DAVID DUBÉ",522,,"Toiture Polaire Inc"
257,gabriel_lussier@icloud.com,gabriel_lussier,Gabriel,Lussier,2019-03-20,gabriel_lussier@icloud.com,5149628721,1581881769,"AUDREY BOURGEOIS",167715,,"G.L.O.B.E. Paysage Inc"
258,j-p-dufour@hotmail.com,j-p-dufour,JEAN-PIERRE,DUFOUR,2019-03-20,j-p-dufour@hotmail.com,514-838-1377,1581881724,"Aucun représentant",128453,,"TOITURES JEAN-PIERRE DUFOUR INC"
259,alex_tha_pimp@hotmail.com,alex_tha_pimp,Alex,Chevalier,2019-03-20,,8192093465,1553118953,"Aucun représentant",105954,,"Chevalier construction"
260,carlpoirier@hotmail.com,carlpoirier,Carl,Poirier,2019-03-20,carlpoirier@hotmail.com,4504551643,1581881710,"DOMINIC BERTRAND",139754,,"Toiture Poirier"
261,toituresd.s@gmail.com,toituresd.s,Dany,Simard-collins,2019-03-20,toituresd.s@gmail.com,8196399401,1581881722,"Aucun représentant",108243,,"Toitures Ds"
262,kokandelroofing@gmail.com,kokandelroofing,Dave,Topping,2019-03-20,kokandelroofing@gmail.com,514-972-9604,1581881715,"DOMINIC BERTRAND",200409,,"Kokandel roofing"
263,toiture.titans@gmail.com,toiture.titans,philipe,menard,2019-03-20,toiture.titans@gmail.com,450-531-7447,1581881721,"MARIO DOYON",205314,,"toiture titan"
264,heleneboilard@icloud.com,heleneboilard,Helene,Boilard,2019-03-20,heleneboilard@icloud.com,418-687-6668,1581881723,"DAVID DUBÉ",1234,,Protectoit
265,toituresamh@videotron.ca,toituresamh,Michel,Harvey,2019-03-20,toituresamh@videotron.ca,418-569-4561,1581881725,"DAVID DUBÉ",215380,,"Toitures AMH inc"
266,constructionlbl@hotmail.com,constructionlbl,yanick,dube,2019-03-20,,4188946699,1553124162,"Aucun représentant",129776,,"construction dube lbl"
267,claudesylvetteperreault@gmail.com,claudesylvetteperreault,Claude,Perreault,2019-03-20,,15067402841,1553124536,"DANNY MICHAUD",104669,,"Perreault Pro Réno"
268,m.ouellet@maisonsouellet.com,m.ouellet,Marco,Ouellet,2019-03-20,m.ouellet@maisonsouellet.com,"418 867-2329",1581881745,"Aucun représentant",218294,,"Les Maisons Ouellet"
269,alex@renovationsvachon.com,alex,alexandre,vachon,2019-03-21,,4183312127,1553129853,"Aucun représentant",125442,,"Les Rénovations A. Vachon"
270,constructionmad@hotmail.com,constructionmad,marc-andré,dion,2019-03-21,,5147542157,1553167664,"NORMAND DUBE",170509,,"contruction marc-andré dion inc"
271,eric.harrisson@hmcmaison.com,eric.harrisson,Eric,Harrisson,2019-03-21,,4183643838,1553169604,"DANNY MICHAUD",142414,,"Les Habitations Mont-Carleton Inc."
272,michael@construction-harmonie.com,michael,Michael,Lequin,2019-03-21,michael@construction-harmonie.com,450-775-9777,1581881731,"MARIO DOYON",124326,,"Construction Harmonie + inc."
273,nathalie@tremblayetassocies.ca,nathalie,NATHALIE,MARTEL,2019-03-21,,418-338-5791,1553173040,"DOMINIC BOULE",111916,,"Construction Tremblay et Associés inc."
274,gestionscaron@gmail.com,gestionscaron,Steve,Scattolin,2019-03-21,,514-928-3616,1553177549,"AUDREY BOURGEOIS",4504490703,,"Gestion Scaron"
275,cdesgens@athenaconstruction.ca,cdesgens,Cassandra,Desgens,2019-03-21,,4502630445,1553177931,"JEAN-OLIVIER LEVESQUE",100007,,"Athena Construction Inc."
276,test@gmail.com,test,Marc-André,Déziel,2019-03-21,,5146182932,1553180563,"ALAIN CANTARA",2342342,,"Agence CC"
277,alexandre@groupebbc.com,alexandre,Alexandre,Sauvé,2019-03-21,alexandre@groupebbc.com,514-667-9874,1581881742,"PATRICK BLAIS",113945,,"Le Groupe BBC"
278,info@constructionrancourt.com,info24,Dave,Rancourt,2019-03-21,,4182257821,1553181905,"DOMINIC BOULE",112162,,"Constructions Rancourt & Fils inc"
279,liligarden4@hotmail.com,liligarden4,Alain,Seguin,2019-03-21,,514-947-4609,1553182562,"NORMAND DUBE",168733,,"Construction Alin Seguin Inc"
280,lc-construction@videotron.ca,lc-construction,Luc,Hivon,2019-03-21,lc-construction@videotron.ca,4508801580,1581881747,"PATRICK BLAIS",209220,,"Lc construction"
281,mnolin@constructionsnovard.com,mnolin,Michel,Nolin,2019-03-21,mnolin@constructionsnovard.com,450-293-2999,1581881771,"JEAN-OLIVIER LEVESQUE",124301,,"Constructions Novard inc"
282,info@constructioninnovaction.ca,info25,Christian,Hétu,2019-03-21,,5142603214,1553187231,"Aucun représentant",170816,,"Construction Innovaction"
283,martin@mavicconstruction.com,martin,Martin,"Vienneau T.P.",2019-03-21,martin@mavicconstruction.com,"613 762 4833",1581881767,"Aucun représentant",108010,,"3563677 Canada inc."
284,info@habitationjlj.com,info26,Carl-andré,Gagnon,2019-03-21,,5245834766,1553191537,"AUDREY BOURGEOIS",5145834766,,"Habitation JLJ Prestige"
285,yann@tremblaymaitreconstructeur.com,yann,yann,tremblay,2019-03-21,,4503729223,1553191902,"JEAN-PIERRE GAUTHIER",117614,,"Tremblay Maitre Constructeur inc"
286,Benchekconstruction@gmail.com,Benchekconstruction,Taoufiq,Benchekroun,2019-03-21,,5142093336,1553191975,"GILLES PELLETIER",2093336,,"Benchek construction"
287,habitationsmara@videotron.ca,habitationsmara,lavoie,derek,2019-03-21,,"438 868 6272",1553191995,"Aucun représentant",8686272,,"habitations mara"
288,constructionspremium@hotmail.com,constructionspremium,Kevin,Deschenes,2019-03-21,constructionspremium@hotmail.com,4507700335,1581881747,"MARIO DOYON",137714,,"Constructions premium"
289,slapointegesconov@cgocable.ca,slapointegesconov,Steeve,Lapointe,2019-03-21,,418-333-5379,1553192630,"Aucun représentant",125487,,Gesconov
290,info@pascalusereau.com,info27,Pascal,Usereau,2019-03-21,,5147021259,1553192686,"Aucun représentant",168673,,"Gestion construction Pascal Usereau inc"
291,construction@bernardgrondin.com,construction,Bernard,Grondin,2019-03-21,construction@bernardgrondin.com,4504058950,1581881734,"MARIO DOYON",137131,,"Bernard grondin construction et renovation inc"
292,alexbelisle@live.ca,alexbelisle,alexandre,bélisle,2019-03-21,alexbelisle@live.ca,4508800643,1553193923,"PATRICK BLAIS",4508000643,,"Construction Alexandre Bélisle inc."
293,sylvainroy@expertmaison.com,sylvainroy,Sylvain,Roy,2019-03-21,sylvainroy@expertmaison.com,418-862-9628,1581881775,"DANNY MICHAUD",211531,,"Expert Maison Inc"
294,Mike@structureajm.com,Mike,Michel,Perusse,2019-03-21,,5142295326,1553194180,"AUDREY BOURGEOIS",5142295326,,"Structure ajm inc"
295,constfmb@yahoo.ca,constfmb,Francis,Beaudoin,2019-03-21,,418-334-6870,1553194213,"Aucun représentant",125353,,"Construction FMB"
296,rmorin@habitationsroussillon.ca,rmorin,Rémi,Morin,2019-03-21,,5149745204,1553194217,"Aucun représentant",165199,,"Les Habitations Roussillon inc"
297,habitationscontractor@gmail.com,habitationscontractor,Olivier,Raynauld,2019-03-21,,5142339586,1553194237,"YVAN BOIVIN",101190,,"Habitation contract’or inc"
298,constructioncroteau@gmail.com,constructioncroteau,Jf,Croteau,2019-03-21,,4505786905,1553194243,"Aucun représentant",124474,,"Construction croteau"
299,plaliberte@constructionspl2.com,plaliberte,Pierre,laliberte,2019-03-21,,5147795184,1553194376,"DOMINIC BERTRAND",208210,,"les constructions pl2"
300,ptconst@globetrotter.net,ptconst,Donald,Turmel,2019-03-21,ptconst@globetrotter.net,418-253-6400,1581881744,"DOMINIC BOULE",131458,,"Pierre Turmel Construction Inc."
301,aucare@live.ca,aucare,Patrice,Quevillon,2019-03-21,,819-360-8368,1553194457,"PATRICK CHEVALIER",108279,,AuCaré
302,rioux_jeff@hotmail.com,rioux_jeff,Jean-françois,Rioux,2019-03-21,,4187235518,1553194690,"DANNY MICHAUD",142523,,"Construction Bruno Rioux"
303,kalypso@videotron.ca,kalypso,Freferic,Veilleux,2019-03-21,,5149796452,1553194943,"ALEXANDRE MCKENNA",5149796452,,"Kalypso constructions inc"
304,info@constructionsjt.com,info28,Jonathan,Tetreault,2019-03-21,info@constructionsjt.com,5147138205,1581881738,"JEAN-PIERRE GAUTHIER",215244,,"Construction Jonathan Tétreault inc"
305,Jprimeau@constructionprimeau.ca,Jprimeau,Jasmin,Primeau,2019-03-21,Jprimeau@constructionprimeau.ca,514-242-9383,1581881732,"ALEXANDRE MCKENNA",141817,,"Les Constructions d et m Primeau"
306,habitationsentourages@gmail.com,habitationsentourages,Marie-Philipe,Maltais,2019-03-21,,4388885856,1553196196,"Aucun représentant",134291,,"Les habitations Entourages inc."
307,samuel.paquet22@icloud.com,samuel.paquet22,Samuel,Paquet,2019-03-21,samuel.paquet22@icloud.com,514-983-5226,1581881731,"DOMINIC BERTRAND",203974,,"PV construction"
308,habitatforceconstruction@hotmail.com,habitatforceconstruction,Jean,sebastien,2019-03-21,habitatforceconstruction@hotmail.com,5148636785,1581881773,"Aucun représentant",113909,,"Habitat Force"
309,constructionag@videotron.ca,constructionag,Alain,Gaudreault,2019-03-21,,5142697199,1553196756,"NORMAND DUBE",163590,,"Les constructions Alain Gaudreault et fils inc."
310,test@test1234.ca,test1,test1234,test1234,2019-03-21,,5149104488,1553196841,"Aucun représentant",test1234,,test1234
311,patrice@entdaunais.com,patrice,Patrice,Daunais,2019-03-21,,4504745412,1553197006,"YANN DUFAULT",167794,,"Ent Daunais"
312,test@test.ca,test2,"Marc-Antoine test",test,2019-03-21,,"514 910 5599",1553197274,"Aucun représentant",test,,test
313,pereira@construction-reno.com,pereira,Vérissimo,Pereira,2019-03-21,,5148316183,1553197483,"AUDREY BOURGEOIS",0000119453,,"Construction et rénovation Pereira"
314,bpconstruction2011@live.com,bpconstruction2011,bertrand,poisson,2019-03-21,,"450 880 0735",1553197642,"PATRICK BLAIS",114000,,"bp construction"
315,renoclement@hotmail.com,renoclement,Clément,Bouchard,2019-03-21,,4508261450,1553197797,"PIERRE LACHANCE",171253,,"Rénovation Clément Bouchard senc."
316,achats@constructionmgp.com,achats,remi,fecteau,2019-03-21,achats@constructionmgp.com,418-484-5740,1581881739,"ETIENNE FECTEAU",112088,,"construction mgp inc"
317,jean-pierre.gauthier@rona.ca,jean-pierre.gauthier,jean-pierre,gauthier,2019-03-21,,514-816-7860,1553198111,"JEAN-PIERRE GAUTHIER",45678,,rona
318,Nroy@fmenard.com,Nroy,Nicolas,Roy,2019-03-21,,450293-5349,1553198128,"Aucun représentant",117606,,"F.Ménard Inc."
319,info@thibodeaupere.com,info29,Francis,Thibodeau,2019-03-21,,5819994934,1553198351,"DAVID DUBÉ",103413,,"Construction Thibodeau & Père"
320,menuiseriem.b@hotmail.ca,menuiseriem.b,Mario,Blanchard,2019-03-21,,4503340588,1553198296,"JEAN-OLIVIER LEVESQUE",123241,,"Menuiserie M.B. Inc."
321,info@leveq.ca,info30,Maxime,Levesque,2019-03-21,,4508306045,1553198736,"MARIO DOYON",138457,,"Levesque Inc"
322,joelaperle@hotmail.ca,joelaperle,Jonathan,Laperle,2019-03-21,joelaperle@hotmail.ca,450-521-6827,1581881736,"MARIO DOYON",137247,,"Les constructions Jonathan Laperle Inc"
323,constructionmborduas@hotmail.com,constructionmborduas,MATHIEU,BORDUAS,2019-03-21,constructionmborduas@hotmail.com,4508300163,1581881740,"MARIO DOYON",138438,,"construction mathieu borduas inc"
324,b2g2construction@hotmail.ca,b2g2construction,Hugo,Gentelletti,2019-03-21,b2g2construction@hotmail.ca,8199964919,1581881739,"YVES MASSICOTTE",8199964919,,b2g2construction
325,gparent@legroupeultra.com,gparent,gilles,Parent,2019-03-21,gparent@legroupeultra.com,"450 378 9600",1581881738,"MARIO DOYON",113990,,"Le Groupe Ultra 9000-3104 Quebec Inc."
326,constrsanterre@gmail.com,constrsanterre,Réjean,Santerre,2019-03-21,,4502445794,1553199792,"Aucun représentant",122386,,"Constructions R. Santerre"
327,elevasseur83@hotmail.com,elevasseur83,Levasseur,Gilles,2019-03-21,elevasseur83@hotmail.com,5067397147,1581881770,"DANNY MICHAUD",0000130543,,"Gilles Levasseur menuiserie et construction"
328,ronalddomingue@videotron.ca,ronalddomingue,Ronald,Domingue,2019-03-21,ronalddomingue@videotron.ca,450-375-0795,1581881769,"MARIO DOYON",136194,,"Constructions et Rénovations R. Domingue inc."
329,renovationshanel@bell.net,renovationshanel,Christian,Dery,2019-03-21,,5147572121,1553201574,"ALEXANDRE CHAMPAGNE",5147572121,,"Renovation shanel"
330,francisgirard87@hotmail.com,francisgirard87,Francis,Girard,2019-03-21,francisgirard87@hotmail.com,418-809-2895,1581881745,"DAVID DUBÉ",214480,,"Construction Francis Girard inc."
331,ssjoncas@sympatico.ca,ssjoncas,serge,joncas,2019-03-21,ssjoncas@sympatico.ca,4502937351,1581881741,"JEAN-OLIVIER LEVESQUE",123546,,"construction renovation serge joncas inc"
332,d_labelle1002@hotmail.com,d_labelle1002,Daniel,Labelle,2019-03-21,d_labelle1002@hotmail.com,5147030445,1581881774,"GILLES PELLETIER","170155,000",,"9027-5207 Québec inc"
333,kevin@provek.ca,kevin,Kevin,Proulx,2019-03-21,kevin@provek.ca,4505771473,1581881773,"MARIO DOYON",5771473,,"Construction Provek"
334,regesco@hotmail.com,regesco,Daniel,Luc,2019-03-21,,8196741733,1553202646,"MARIO DOYON",116370,,"Construction Regesco inc"
335,adesgens@athenaconstruction.ca,adesgens,Alexandre,Desgens,2019-03-21,adesgens@athenaconstruction.ca,4502630445,1581881742,"JEAN-OLIVIER LEVESQUE",1000007,,"Athena Construction inc."
336,mathchevalier@hotmail.com,mathchevalier,mathieu,chevalier,2019-03-21,,8196390245,1553202957,"PATRICK CHEVALIER",106451,,"gouttiere x-treme"
337,bouladierlocation803@hotmail.com,bouladierlocation803,denis,leblanc,2019-03-21,bouladierlocation803@hotmail.com,819-568-3492,1581881743,"Aucun représentant",0000112263,,"location bouladier"
338,info@coffragesisolants.com,info31,Oliver,Houle,2019-03-21,info@coffragesisolants.com,4507753784,1581881746,"MARIO DOYON",218153,,"Les coffrages Isolants"
339,charestjoel1@hotmail.com,charestjoel1,Joël,Charest,2019-03-21,,5149494617,1553203344,"ALEXANDRE CHAMPAGNE",172252,,"Les Constructions Et Rénovations Joël Charest Inc"
340,dodo7406@hotmail.com,dodo7406,Marcus,Bernard,2019-03-21,dodo7406@hotmail.com,(506)263-5206,1581881748,"DANNY MICHAUD",130413,,"Dial a baby barn"
341,chuyenvu@hotmail.com,chuyenvu,Uy,Vu,2019-03-21,chuyenvu@hotmail.com,5148861893,1581881766,"NORMAND DUBÉ",217743,,"construction lvl inc"
342,philippedube@msn.com,philippedube,Philippe,Dubé,2019-03-21,,"514 531 8618",1553205275,"NORMAND DUBE",000001,,Phil
343,cetremblay@hotmail.com,cetremblay,Eric,Tremblay,2019-03-21,cetremblay@hotmail.com,4504540013,1581881767,"PIERRE LACHANCE",167020,,"Construction E.Tremblay inc"
344,jonathan@royaljp.com,jonathan,jonathan,perreault,2019-03-21,,4505784842,1553206003,"MARIO DOYON",0121719501,,"Constructions Royaljp"
345,info@lescharpenteselite.com,info32,Jean-Sébastien,Bergeron,2019-03-21,,5144625194,1581881780,"AUDREY BOURGEOIS",5144625194,,"Les charpentes Élite"
346,entrepreneur.cpg@gmail.com,entrepreneur.cpg,Patrick,Giard,2019-03-21,entrepreneur.cpg@gmail.com,514-239-9777,1581881768,"Aucun représentant",13654,,"Entrepreneur cpg inc."
347,mike_blais@videotron.ca,mike_blais,Mike,Blais,2019-03-21,,"450 759 7400",1553206633,"YANN DUFAULT",170567,,"Construction Mike Blais"
348,info@mach2000construction.com,info33,Marc-André,Martin,2019-03-21,info@mach2000construction.com,418-732-8799,1581881771,"DANNY MICHAUD",142652,,"Mach 2000 construction Inc."
349,info@devcaldi.ca,info34,Alain,Dicaire,2019-03-21,,819-678-1718,1553207074,"MARIO DOYON",218176,,"Les Développements Caldi inc."
350,info@constructionericostiguy.com,info35,ERIC,OSTIGUY,2019-03-21,info@constructionericostiguy.com,4507773172,1581881770,"MARIO DOYON",138219,,"Construction Eric Ostiguy inc."
351,const.laflamme@videotron.ca,const.laflamme,Éric,Laflamme,2019-03-21,const.laflamme@videotron.ca,450-777-0954,1581881769,"JEAN-OLIVIER LEVESQUE",124350,,"Construction Éric Laflamme"
352,esp.construction@yahoo.ca,esp.construction,Éric,St-Pierre,2019-03-21,,450-621-4540,1553207588,"NORMAND DUBE",4506214540,,"Éric St-Pierre Construction Inc."
353,do-bert@videotron.ca,do-bert,dominic,gilbert,2019-03-21,do-bert@videotron.ca,5148388185,1581881772,"JEAN-PIERRE GAUTHIER",145520,,do-bert
354,constructionsfortier@videotron.ca,constructionsfortier,Sylvain,Fortier,2019-03-21,constructionsfortier@videotron.ca,4507779515,1581881774,"Aucun représentant",137417,,"construction sylvain fortier"
355,Const.jftoulouse@hotmail.com,Const.jftoulouse,"Jean francois",Toulouse,2019-03-21,,5148380261,1553207863,"PATRICK BLAIS",113329,,"Construction jean f toulouse inc"
356,const.laflamme@cideotron.ca,const.laflamme1,Eric,Laflamme,2019-03-21,,"(450) 777-0954",1553208021,"JEAN-OLIVIER LEVESQUE",124350,,"Les Constructions Eric Laflamme Inc."
357,hugo.carufel@gmail.com,hugo.carufel,Carufel,Hugo,2019-03-21,hugo.carufel@gmail.com,514-206-0416,1581881772,"ALEXANDRE CHAMPAGNE",164041,,"Construction Hugo Carufel inc."
358,info@habitationsmathieurivard.com,info36,Mathieu,Rivard,2019-03-21,,4505312676,1553208843,"Aucun représentant",4505312676,,"Les habitations Mathieu Rivard"
359,marc_antoinelussier@hotmail.com,marc_antoinelussier,marc-antoine,lussier,2019-03-21,,4503303679,1553209486,"Aucun représentant",123831,,"construction lussard"
360,info@exessconstruction.com,info37,Mathieu,Proulx,2019-03-21,info@exessconstruction.com,450-521-6313,1581881775,"MARIO DOYON",137242,,"Exess construction"
361,toiturecema@gmail.com,toiturecema,ouimetema,cedric,2020-02-12,toiturecema@gmail.com,5147437770,1582146835,"Aucun représentant",82307,,"toiture c"
362,c.rheaumelajeunesse@outlook.com,c.rheaumelajeunesse,Dave,Rheaume,2020-02-12,,5148953463,1581545800,"NORMAND DUBE",214413,,"Couvreur Rhéaume Lajeunesse inc"
363,glupien@toituresimoertech.com,glupien,Gabriel,Lupien,2020-02-13,,5145547104,1581552957,"Aucun représentant",219597,,"Les toitures imper-tech inc."
364,info@constructionsublime.ca,info38,Cédric,Rioux,2020-02-13,,4187327360,1581599427,"DANNY MICHAUD",142789,,"Construction Sublime inc."
365,info@toituresvp.com,info39,Vincent,Perreault,2020-02-13,,514-799-7334,1581620116,"NORMAND DUBE",170829,,"Toitures V.Perreault"
366,tglinc@hotmail.com,tglinc,Normand,Legault,2020-02-13,tglinc@hotmail.com,"450 473 2944",1582145866,"Aucun représentant",167785,,"Les Toitures Gilles Legault (2010) inc"
367,protoitoutaouais@gmail.com,protoitoutaouais,Mélanie,Ruel,2020-02-13,,8196698068,1581636673,"Aucun représentant",212954,,"Pro-toit Outaouais Inc"
368,goose36@videotron.ca,goose36,andre,Gosselin,2020-02-14,,5149263735,1581683225,"Aucun représentant",141691,,"les toitures supremes du quebec inc"
369,info@toiturerhino.com,info40,Dale,Scullion,2020-02-15,,4186555599,1581792369,"Aucun représentant",105272,,"Toiture Rhino inc"
370,ben.jenni@icloud.com,ben.jenni,Bernard,Jenni,2020-02-18,,819-384-2754,1582035758,"Aucun représentant",211216,,"Toiture Massicotte"
371,carl.revetementsmaxguard@gmail.com,carl.revetementsmaxguard,Carl,Vesnaver,2020-02-18,,438-499-7057,1582041157,"ETIENNE FECTEAU",146948,,"Revêtements Maxguard"
372,jbelhumeur@icloud.com,jbelhumeur,Jonathan,Belhumeur,2020-02-18,,514-892-7878,1582047003,"Aucun représentant",213760,,"JBC toiture et revetement"
373,yveslortie64@msn.com,yveslortie64,Yves,Lortie,2020-02-18,,5149775683,1582047670,"ALAIN CANTARA",113573,,"Couvreur Rive-Sud"
374,toiturebenjamin@outlook.com,toiturebenjamin,Steve,Benjamin,2020-02-18,,4508951412,1582051981,"Aucun représentant",167938,,"Toiture benjamin"
375,projet@toituresblp.ca,projet,Renaud,Grenier,2020-02-18,,4189621241,1582054225,"Aucun représentant",148906,,"Toitures BLP"
376,carlfleury@toituresgillesveilleux.com,carlfleury,Carl,Fleury,2020-02-18,,4185407235,1582055635,"Aucun représentant",202693,,"Gilles Veilleux Ltée"
377,francis@toiturespro-tech.ca,francis1,Francis,Brunet,2020-02-18,,514-239-2868,1582056863,"YANN DUFAULT",164405,,"Toitures Pro-Tech"
378,toitures@toituressmithetdubois.ca,toitures,Andre,Smith,2020-02-18,,450-263-6111,1582057714,"Aucun représentant",122965,,toiture
379,info@couverturerivenord.com,info41,Kevin,Chartrand,2020-02-18,,5148357617,1582066438,"Aucun représentant",514-835-71,,"Couverture De La Rive Nord"
380,info@groupetoitutesancestrales.com,info42,Marc,Nareau,2020-02-19,,418-977-1100,1582071176,"Aucun représentant",208136,,"Groupe Toitures Ancestrales"
381,keven@toitureskl.com,keven,Keven,Lebrun,2020-02-19,,5144513086,1582071214,"NORMAND DUBE",166970,,"Les Toitures Keven Lebrun inc."
382,info@toituresmathieugravel.com,info43,Mathieu,Gravel,2020-02-19,,5148169672,1582071777,"NORMAND DUBE",170968,,"Les Toitures Mathieu Gravel Inc"
383,toituresd2@outlook.com,toituresd2,Francis,Hawkins,2020-02-19,,514-269-7019,1582075919,"Aucun représentant",219376,,"Toitures D2"
384,toituresstpierre@gmail.com,toituresstpierre,Benoît,St-Pierre,2020-02-19,,819-696-4656,1582121254,"Aucun représentant",157723,,"Aux Toitures S. St-Pierre"
385,toitureamigau@gmail.com,toitureamigau,Jonathan,"Loyer coderre",2020-02-19,,5148386044,1582121361,"Aucun représentant",222193,,"Toiture a-mi-gau"
386,toiture.sbujold@videotron.ca,toiture.sbujold,Shawn,bujold,2020-02-19,toiture.sbujold@videotron.ca,8196647693,1582145838,"PATRICK CHEVALIER",218741,,"toiture s. bujold inc."
387,caron.bergeron@cgocable.ca,caron.bergeron,Eric,Marois,2020-02-19,,8194775167,1582126914,"MARIO DOYON",113980,,"Les Couvreurs Caron et Bergeron"
388,toituresouellet@videotron.ca,toituresouellet,Annik,Ouellet,2020-02-19,,4503784893,1582132015,"Aucun représentant",123939,,"Toitures OUellet de père en fille Inc."
389,p.cote@hotmail.com,p.cote,Patrick,Côté,2020-02-19,,5149718332,1582133419,"Aucun représentant",201319,,"A. Duplantis"
390,info@toituregsigne.com,info44,Martin,Genest,2020-02-19,,4185543644,1582137501,"Aucun représentant",000000,,"Toiture G Signé"
391,info@toituresvallee.com,info45,François,Vallée,2020-02-19,,5146184695,1582138107,"MARC CLOUTIER",203498,,"Les Toitures Vallée et Fils Inc."
392,toiturestacygosselin@live.ca,toiturestacygosselin1,Stacy,Gosselin,2020-02-19,,5145670935,1582140898,"Aucun représentant",185351,,"Toiture Stacy Gosselin"
393,toitures_serenite@outlook.com,toitures_serenite,Stephan,Pitre,2020-02-19,,5818881472,1582140947,"Aucun représentant",1855791179,,"Toitures Sérénité INC"
394,toituressergeetfilles@gmail.com,toituressergeetfilles,melissa,bigras,2020-02-19,,819-665-7999,1582143673,"PATRICK CHEVALIER",220664,,"toitures serge et fille"
395,A.L.COUVREUR@VIDEOTRON.CA,A.L.COUVREUR,Andre,Levesque,2020-02-19,A.L.COUVREUR@VIDEOTRON.CA,514-444-9209,1582147144,"Aucun représentant",202700,,"A.L. COUVREUR INC."
396,toituresbmt@hotmail.com,toituresbmt1,Benjamin,Ménard,2020-02-19,toituresbmt@hotmail.com,450-558-3358,1582147393,"Aucun représentant",208849,,"Toitures BMT inc."
397,jhtoitures@gmail.com,jhtoitures,samuel,bire,2020-02-19,,438-797-8227,1582146513,"Aucun représentant",215379,,"JH Toitures & Contructions Inc."
