id,"User Email","User Login"
1,marc-antoine.leclerc@rona.ca,admin
2,hekka.ca@gmail.com,hekka.ca
3,elpe23@hotmail.com,elpe23
4,messier.jp@hotmail.com,messier.jp
5,melanie.lefort@rona.ca,melanie.lefort
6,tony.levesque@rona.ca,tony.levesque
7,gabriel@serveko.ca,gabriel
8,claude.tomco@hotmail.com,claude.tomco
9,couvreurastral@videotron.ca,couvreurastral
10,benoitgougeon@videotron.ca,benoitgougeon
11,mftoitureelite@gmail.com,mftoitureelite
12,niko9h@hotmail.ca,niko9h
13,st-pierreguylainecouvreur@hotmail.com,st-pierreguylainecouvreur
14,toitvallee@globetrotter.net,toitvallee
15,ce_brodeur@hotmail.com,ce_brodeur
16,couvreurduquette@hotmail.com,couvreurduquette
17,toituregiroux@hotmail.com,toituregiroux
18,toiturealarie@hotmail.ca,toiturealarie
19,marcandre_lavoie@yahoo.ca,marcandre_lavoie
20,benoit@toituresboyer.com,benoit
21,constructiongc2001@gmail.com,constructiongc2001
22,patrickpelchat@hotmail.com,patrickpelchat
23,sommet.renovation@gmail.com,sommet.renovation
24,toituressurmesures@hotmail.com,toituressurmesures
25,jean-olivier.levesque@rona.ca,jean-olivier.levesque
26,patrick.blais@rona.ca,patrick.blais
27,bruno@toiture-polaire.com,bruno
28,mario.doyon@rona.ca,mario.doyon
29,msca1170@live.com,msca1170
30,toituresjsbrisson@hotmail.com,toituresjsbrisson
31,info@lesentrepriseslafco.ca,info
32,caron.richard@videotron.ca,caron.richard
33,patrickchevalier@live.ca,patrickchevalier
34,info@toituresadrenaline.com,info1
35,info@toitureunion.com,info2
36,toituresnlegault@gmail.com,toituresnlegault
37,toiturelesassocies@yahoo.ca,toiturelesassocies
38,loumay@videotron.ca,loumay
39,guylussier@gmail.com,guylussier
40,info@matoitureinc.ca,info3
41,revetementshsolution@hotmail.com,revetementshsolution
42,danny.michaud@rona.ca,danny.michaud
43,rpbjimmy@nb.aibn.com,rpbjimmy
44,entreprisesblevesque@hotmail.com,entreprisesblevesque
45,constructionj.lepage@gmail.com,constructionj.lepage
46,info@protectoit.com,info4
49,cboyer@boyerduretterenos.com,cboyer
51,info@centroconstruction.ca,info5
52,aemichaud@outlook.com,aemichaud
53,audrey.bourgeois@rona.ca,audrey.bourgeois
54,toituresylevesque@globetrotter.net,toituresylevesque
55,isabelle.raymond@actiplus.ca,isabelle.raymond
56,xavier@durotoit.com,xavier
57,toitures.sirois@gmail.com,toitures.sirois
58,toiturerivesud@gmail.com,toiturerivesud
59,toitureskarolfrancis@gmail.com,toitureskarolfrancis
60,pc.qualitetoits@gmail.com,pc.qualitetoits
61,toitures.protex@outlook.com,toitures.protex
62,stephane-gauthier2010@hotmail.com,stephane-gauthier2010
63,info@toitureslapointe.ca,info6
64,toiturespolygone@hotmail.com,toiturespolygone
65,toituresfrancoismiron@hotmail.com,toituresfrancoismiron
66,donbanville263@outlook.com,donbanville263
67,refectoit.inc@hotmail.com,refectoit.inc
68,jsdroofing@gmail.com,jsdroofing
69,couverturesmichelsylvain@gmail.com,couverturesmichelsylvain
70,renovationts@gmail.com,renovationts
71,gilles.pelletier@rona.ca,gilles.pelletier
72,ent.berube@videotron.ca,ent.berube
73,yves@toituresphenix.com,yves
74,info@couvreurcdp.com,info7
75,constructions.srdk@gmail.com,constructions.srdk
76,v.perreault@toituresvperreault.com,v.perreault
77,jls.lamontagnes@gmail.com,jls.lamontagnes
78,couvreurrivesud2006@msn.com,couvreurrivesud2006
79,alaindesjardinscouvreur@msn.com,alaindesjardinscouvreur
80,sl.nwr@nb.aibn.com,sl.nwr
81,bininngroofing@hotmail.com,bininngroofing
82,toiturejfberard@hotmail.com,toiturejfberard
83,babyland06@hotmail.fr,babyland06
84,c.grenier@lesgeants.ca,c.grenier
85,slacasse@lacasseetfils.com,slacasse
86,toiturestplinc@hotmail.com,toiturestplinc
87,guyleger01@gmail.com,guyleger01
88,toiturestacygosselin@hotmail.com,toiturestacygosselin
89,info@mecba.ca,info8
90,jf-ski@hotmail.com,jf-ski
91,admin@silanictoitures.com,admin1
92,toitures.lg@gmail.com,toitures.lg
93,info@hekka.ca,info9
94,toituresdavidpage@gmail.com,toituresdavidpage
95,pierreluclaberge@yahoo.ca,pierreluclaberge
96,sfiliatreault@asfiliatreault.com,sfiliatreault
97,toituresuperieure@gmail.com,toituresuperieure
98,billy@couvreurcouvtoit.com,billy
99,info@lesconstructionsdpsignature.com,info10
100,select.dant@gmail.com,select.dant
101,francis@toitures-tech.ca,francis
102,mcaron@toiturescaron.com,mcaron
103,toituresmartinlafontaine@videotron.ca,toituresmartinlafontaine
104,info@toitureslarose.com,info11
105,alain.cantara@rona.ca,alain.cantara
106,toituresguillette@hotmail.com,toituresguillette
107,lestoituresgaumond@hotmail.com,lestoituresgaumond
108,pmenardcouvreur@hotmail.com,pmenardcouvreur
109,gbcouvreur@bellnet.ca,gbcouvreur
110,info@toituressoleil.com,info12
111,toiturelavoie@gmail.com,toiturelavoie
112,mgeoffrion87@Gmail.com,mgeoffrion87
113,mjbhivon@videotron.ca,mjbhivon
114,info2@hekka.ca,info21
115,sebastien@groupebouda.com,sebastien
116,stephane@lestoituresmorel.com,stephane
117,infos@toiturescemalie.com,infos
119,toiturebeaudoin@outlook.com,toiturebeaudoin
120,jagnew@brico-toit.com,jagnew
121,pierre.lachance@rona.ca,pierre.lachance
122,DOMINIC.BERTRAND@RONA.CA,DOMINIC.BERTRAND
123,etienne.fecteau@rona.ca,etienne.fecteau
124,daniel.lauzon@rona.ca,daniel.lauzon
125,yann.dufault@marcilcdr.com,yann.dufault
126,alain_stjean2000@yahoo.ca,alain_stjean2000
127,MARC.CLOUTIER@RONA.CA,MARC.CLOUTIER
128,sylvie.plourde@rona.ca,sylvie.plourde
129,info@toitureunix.com,info13
130,pierre-henri.ouellette@rona.ca,pierre-henri.ouellette
131,mikeblatter929@gmail.com,mikeblatter929
132,jbriere@couvertures.ca,jbriere
133,lestoituresadvitam@hotmail.ca,lestoituresadvitam
134,daniel.chevrier@rona.ca,daniel.chevrier
135,production@rfd2000.ca,production
136,toituresg@gmail.com,toituresg
137,toituresatherrien@videotron.ca,toituresatherrien
138,toituresdupont@hotmail.comn,toituresdupont
139,toituredg@gmail.com,toituredg
140,toiturechaudiereappalaches@hotmail.com,toiturechaudiereappalaches
141,andrevinet@live.ca,andrevinet
142,denis@toituresbl.ca,denis
143,toituresparagon@gmail.com,toituresparagon
144,eric.dubois@hotmail.com,eric.dubois
145,steve.racicot@live.ca,steve.racicot
146,eric@toiturelajoie.com,eric
147,admin@toiture-bardeaux.com,admin2
148,yoakim@hotmail.ca,yoakim
149,j.lauze@toituredelta.com,j.lauze
150,toituresultima@gmail.com,toituresultima
151,benoit@toitures24.ca,benoit1
152,bstgeorges@liquiteck.com,bstgeorges
153,fred.lajoie.71@gmail.com,fred.lajoie.71
154,carj@rona.ca,carj
155,gigi@rona.ca,gigi
156,sergelavallee@videotron.ca,sergelavallee
157,alainmorin61@hotmail.com,alainmorin61
158,aptoituresetfils@gmail.com,aptoituresetfils
159,toituresremigagne@hotmail.com,toituresremigagne
160,info@couvreurexcel.com,info14
161,toituresbolduc@gmail.com,toituresbolduc
162,707marco@gmail.com,707marco
163,couvreurs@toit-direct.com,couvreurs
164,dominique.boule@rona.ca,dominique.boule
165,dale_scullion@yahoo.ca,dale_scullion
166,hamelfrancois1@hormail.com,hamelfrancois1
167,info@toiture640.com,info15
168,pifpafconstruction@icloud.com,pifpafconstruction
169,welonboss@hotmail.com,welonboss
170,couvreurcomtois@hotmail.com,couvreurcomtois
171,toiturequalipro@hotmail.com,toiturequalipro
172,info@toituresbarbeauetfils.com,info16
173,toitureroy@hotmail.ca,toitureroy
174,,seed_cspv5_clientview_test
175,simontoit@hotmail.com,simontoit
176,dg.44070@marcilcdr.com,dg.44070
177,normand.dube@rona.ca,normand.dube
178,ci.41330@rona.ca,ci.41330
179,leclercmarcantoine1@gmail.com,leclercmarcantoine1
180,marcmorindeziel@gmail.com,marcmorindeziel
181,mamd94@hotmail.com,mamd94
182,eagle_174@hotmail.com,eagle_174
183,melissa@serveko.ca,melissa
184,toitureftd@hotmail.com,toitureftd
185,benponton@hotmail.com,benponton
186,info@lesconstructionsnb.com,info17
187,plourde.unic@bellnet.ca,plourde.unic
188,renovationguildochouinard@hotmail.com,renovationguildochouinard
189,marco@constructionsnormandpigeon.com,marco
190,jean-francois@rmrleblanc.com,jean-francois
191,charbonneauclaude6@gmail.com,charbonneauclaude6
192,constructionmlb@gmail.com,constructionmlb
193,constructionpatrickleclair@gmail.com,constructionpatrickleclair
194,lapointef267@gmail.com,lapointef267
195,ncaron.enc@gmail.com,ncaron.enc
196,constructionmarcc@gmail.com,constructionmarcc
197,laboiteconstruction@gmail.com,laboiteconstruction
198,constlpaquette@gmail.com,constlpaquette
199,f.bouchard.robko@gmail.com,f.bouchard.robko
200,lucouimet@hotmail.fr,lucouimet
201,constructionmaximegagne@gmail.com,constructionmaximegagne
202,maxco_construction@hotmail.com,maxco_construction
203,mathieupicotin19@hotmail.com,mathieupicotin19
204,constructiondumais@live.ca,constructiondumais
205,couvreurroch@live.ca,couvreurroch
206,workmanmtl@gmail.com,workmanmtl
207,ngaboury@mayton.ca,ngaboury
208,const.bl@videotron.ca,const.bl
209,constructionfmaloinc@hotmail.com,constructionfmaloinc
210,guysalvas@gmail.com,guysalvas
211,toituresvarin@gmail.com,toituresvarin
212,j.bilodeau@outlook.com,j.bilodeau
213,mrichard@agilis.ca,mrichard
214,entrpquirion@gmail.com,entrpquirion
215,cotetoitures@hotmail.com,cotetoitures
216,admin@groupegince.com,admin3
217,Toitelegant@gmail.com,Toitelegant
218,gillesboulianne@bell.net,gillesboulianne
219,renodker@hotmail.com,renodker
220,sebastienmorin@globetrotter.net,sebastienmorin
221,davelachance@live.ca,davelachance
222,rn.nwr@nb.aibn.com,rn.nwr
223,lavoie.pierre68@gmail.com,lavoie.pierre68
224,toitureslarose@gmail.com,toitureslarose
225,lise.lajoie@uqo.ca,lise.lajoie
226,johamannconstruction@gmail.com,johamannconstruction
227,info@hu-nic.com,info18
228,toituresbmt@gmail.com,toituresbmt
229,pprimeau@constructionprimeau.ca,pprimeau
230,info@toitureroyalemd.com,info19
231,toitures.vnc@hotmail.com,toitures.vnc
232,Toituresnordika@hotmail.ca,Toituresnordika
233,test123@gmail.com,test123
234,david.dube@rona.ca,david.dube
235,alexandre.mckenna@rona.ca,alexandre.mckenna
236,yves.massicotte@rona.ca,yves.massicotte
237,b.b-8toitures@hotmail.com,b.b-8toitures
238,mc3jconstruction@gmail.com,mc3jconstruction
239,yann.dufault@rona.ca,yann.dufault1
240,alexandre.champagne@rona.ca,alexandre.champagne
241,patrick.chevalier@rona.ca,patrick.chevalier
242,sammy_ranciurt@hotmail.com,sammy_ranciurt
243,m_lefort11@hotmail.com,m_lefort11
244,constructionscrg@hotmail.com,constructionscrg
245,k.d.g.construction.inc@gmail.com,k.d.g.construction.inc
246,isabelletremblay.irq@videotron.ca,isabelletremblay.irq
247,ent.berube@videoteron.ca,ent.berube1
248,slacasse@lasseetfils.com,slacasse1
249,st.blais@hotmail.com,st.blais
250,danielgouin@hotmail.com,danielgouin
251,samuel@toituresphenix.com,samuel
252,constructionyvonbouchard@live.ca,constructionyvonbouchard
253,lclginc@hotmail.com,lclginc
254,info@couverturesgarneau.com,info20
255,Info@optiontoiture.com,Info22
256,info@toiture-polaire.com,info23
257,gabriel_lussier@icloud.com,gabriel_lussier
258,j-p-dufour@hotmail.com,j-p-dufour
259,alex_tha_pimp@hotmail.com,alex_tha_pimp
260,carlpoirier@hotmail.com,carlpoirier
261,toituresd.s@gmail.com,toituresd.s
262,kokandelroofing@gmail.com,kokandelroofing
263,toiture.titans@gmail.com,toiture.titans
264,heleneboilard@icloud.com,heleneboilard
265,toituresamh@videotron.ca,toituresamh
266,constructionlbl@hotmail.com,constructionlbl
267,claudesylvetteperreault@gmail.com,claudesylvetteperreault
268,m.ouellet@maisonsouellet.com,m.ouellet
269,alex@renovationsvachon.com,alex
270,constructionmad@hotmail.com,constructionmad
271,eric.harrisson@hmcmaison.com,eric.harrisson
272,michael@construction-harmonie.com,michael
