id,"User Email","User Login","First Name","Last Name","Billing Email","Billing Phone",numero_de_compte,nom_du_rep,"User Registered"
1,marc-antoine.leclerc@rona.ca,admin,Mélanie,Lefort,melanie.lefort@rona.ca,514-975-3926,1234567890,"YVES MASSICOTTE",2018-02-06
2,hekka.ca@gmail.com,hekka.ca,Louis,Lebel,hekka.ca@gmail.com,"514 966-0415",1234567890,"DANNY MICHAUD",2018-02-07
3,elpe23@hotmail.com,elpe23,Brian,Lebel,,5149660415,0000123456,"No sales representative",2018-03-14
4,messier.jp@hotmail.com,messier.jp,Jean-Philippe,Messier,messier.jp@hotmail.com,819-469-0689,1837603411,"Aucun représentant",2018-03-14
5,melanie.lefort@rona.ca,melanie.lefort,Mélanie,Lefort,melanie.lefort@rona.ca,514-975-3926,1234564,"Aucun représentant",2018-03-14
6,tony.levesque@rona.ca,tony.levesque,Tony,Levesque,,5142166227,000000,"ALAIN CANTARA",2018-03-14
7,gabriel@serveko.ca,gabriel,Gabriel,Michaud-Lacoste,gabriel@serveko.ca,5148840432,007552,"Aucun représentant",2018-03-14
8,claude.tomco@hotmail.com,claude.tomco,Claude,Berthelot,,"514 942-8159",5149428159,"NORMAND DUBE",2018-03-14
9,couvreurastral@videotron.ca,couvreurastral,claude,gravel,gucci2@videotron.ca,5142943601,0000162981,"NORMAND DUBE",2018-03-14
10,benoitgougeon@videotron.ca,benoitgougeon,benoit,gougeon,,"514 209 9720",555000,"NORMAND DUBE",2018-03-14
11,mftoitureelite@gmail.com,mftoitureelite,michael,houle,mftoitureelite@gmail.com,5142473491,164979,"NORMAND DUBE",2018-03-14
12,niko9h@hotmail.ca,niko9h,nicolas,houde,niko9h@hotmail.ca,5145735879,168369,"Aucun représentant",2018-03-14
13,st-pierreguylainecouvreur@hotmail.com,st-pierreguylainecouvreur,GUYLAINE,ST-PIERRE,,514-386-1237,10214,"Aucun représentant",2018-03-14
14,toitvallee@globetrotter.net,toitvallee,STEVE,CHAREST,,418-629-7281,142455,"DANNY MICHAUD",2018-03-15
15,ce_brodeur@hotmail.com,ce_brodeur,"charles etienne",Brodeur,,"514 835 3828",8353828,"AUDREY BOURGEOIS",2018-03-15
16,couvreurduquette@hotmail.com,couvreurduquette,mario,duquette,,450-776-4955,9408993380,"MARIO DOYON",2018-03-15
17,toituregiroux@hotmail.com,toituregiroux,pascal,giroux,toituregiroux@hotmail.com,5146086629,141840,"Aucun représentant",2018-03-15
18,toiturealarie@hotmail.ca,toiturealarie,mario,alarie,toiturealarie@hotmail.ca,514-220-3569,141981,"Aucun représentant",2018-03-15
19,marcandre_lavoie@yahoo.ca,marcandre_lavoie,Marc-André,Lavoie,,514-209-6272,5142096272,"PATRICK LEMIEUX",2018-03-15
20,benoit@toituresboyer.com,benoit,benoit,boyer,benoit@toituresboyer.com,514-706-5794,5147725794,"Aucun représentant",2018-03-15
21,constructiongc2001@gmail.com,constructiongc2001,Gaetan,Comtois,constructiongc2001@gmail.com,450-444-3755,166845.000,"AUDREY BOURGEOIS",2018-03-15
22,patrickpelchat@hotmail.com,patrickpelchat,Patrick,Pelchat,patrickpelchat@hotmail.com,514-919-1960,172010,"MARC CLOUTIER",2018-03-16
23,sommet.renovation@gmail.com,sommet.renovation,Brigitte,Chevalier,sommet.renovation@gmail.com,4504678587,0000113738,"AUDREY BOURGEOIS",2018-03-16
24,toituressurmesures@hotmail.com,toituressurmesures,Frederic,Carriere,,514-660-6920,169534,"PIERRE-HENRI OUELLETTE",2018-03-16
25,jean-olivier.levesque@rona.ca,jean-olivier.levesque,Jean-Olivier,Lévesque,,450-405-3486,000000,"JEAN-OLIVIER LEVESQUE",2018-03-16
26,patrick.blais@rona.ca,patrick.blais,patrick,blais,,450-521-2557,000000,"Aucun représentant",2018-03-16
27,bruno@toiture-polaire.com,bruno,Bruno,Gagnon-Duval,bruno@toiture-polaire.com,418-520-0413,8710875,"GAETAN SYLVESTRE",2018-03-16
28,mario.doyon@rona.ca,mario.doyon,mario,doyon,,450-775-7221,775722,"MARIO DOYON",2018-03-16
29,msca1170@live.com,msca1170,Mélanie,Beaudoin,,5147040196,172541.000,"Aucun représentant",2018-03-16
30,toituresjsbrisson@hotmail.com,toituresjsbrisson,Jannie,Martel-Mercier,toituresjsbrisson@hotmail.com,418-951-6260,0000117355,"GAETAN SYLVESTRE",2018-03-16
31,info@lesentrepriseslafco.ca,info,Lafco,Entreprises,info@lesentrepriseslafco.ca,8196698292,108308,"Aucun représentant",2018-03-16
32,caron.richard@videotron.ca,caron.richard,Richard,Caron,,5149447272,5149447272,"Aucun représentant",2018-03-16
33,patrickchevalier@live.ca,patrickchevalier,Patrick,Chevalier,,6134080435,8195983352,"Aucun représentant",2018-03-17
34,info@toituresadrenaline.com,info1,THIERRY,MIGNOT,info@toituresadrenaline.com,5142904344,41450,"DOMINIC BERTRAND",2018-03-17
35,info@toitureunion.com,info2,Philippe,Marcoux,,514-816-8168,113270,"PATRICK BLAIS",2018-03-17
36,toituresnlegault@gmail.com,toituresnlegault,Marcel,Brossard,toituresnlegault@gmail.com,514-214-2363,169100,"Aucun représentant",2018-03-17
37,toiturelesassocies@yahoo.ca,toiturelesassocies,Sebastien,Brunet,toiturelesassocies@yahoo.ca,5147715875,170608,"DOMINIC BERTRAND",2018-03-17
38,loumay@videotron.ca,loumay,louis,lemay,loumay@videotron.ca,819-643-5656,0000108313,"Aucun représentant",2018-03-17
39,guylussier@gmail.com,guylussier,Guy,Lussier,,450-522-3335,0000138691,"Aucun représentant",2018-03-19
40,info@matoitureinc.ca,info3,Alain,Rivest,info@matoitureinc.ca,514-371-7182,5143717182,"Aucun représentant",2018-03-19
41,revetementshsolution@hotmail.com,revetementshsolution,Tina,Marleau,revetementshsolution@hotmail.com,5149173510,142003,"Aucun représentant",2018-03-19
42,danny.michaud@rona.ca,danny.michaud,Danny,Michaud,,4185092229,111111,"DANNY MICHAUD",2018-03-19
43,rpbjimmy@nb.aibn.com,rpbjimmy,Jimmy,Bosse,rpbjimmy@nb.aibn.com,506-736-9804,130-281,"DANNY MICHAUD",2018-03-19
44,entreprisesblevesque@hotmail.com,entreprisesblevesque,Levesque,Bruno,entreprisesblevesque@hotmail.com,4186676777,103520,"GAETAN SYLVESTRE",2018-03-19
45,constructionj.lepage@gmail.com,constructionj.lepage,Jacques,Lepage,constructionj.lepage@gmail.com,4187242569,142797,"DANNY MICHAUD",2018-03-19
46,info@protectoit.com,info4,Eric,Bergeron,info@protectoit.com,4185207125,103461,"GAETAN SYLVESTRE",2018-03-19
49,cboyer@boyerduretterenos.com,cboyer,Christian,Boyer,cboyer@boyerduretterenos.com,514-709-2121,170240,"DOMINIC BERTRAND",2018-03-19
51,info@centroconstruction.ca,info5,DAVE,PELETIER,info@centroconstruction.ca,438-862-2004,171583,"PIERRE-HENRI OUELLETTE",2018-03-19
52,aemichaud@outlook.com,aemichaud,André,Emond,,5067373989,130291,"DANNY MICHAUD",2018-03-19
53,audrey.bourgeois@rona.ca,audrey.bourgeois,audrey,bourgeois,,514-347-0566,207518,"AUDREY BOURGEOIS",2018-03-19
54,toituresylevesque@globetrotter.net,toituresylevesque,Yvan,Levesque,toituresylevesque@globetrotter.net,4187229542,142295,"DANNY MICHAUD",2018-03-19
55,isabelle.raymond@actiplus.ca,isabelle.raymond,Christian,Boire,,514-299-6694,145541,"Aucun représentant",2018-03-19
56,xavier@durotoit.com,xavier,Xavier,Trépanier,,5147798648,1705410000,"Aucun représentant",2018-03-19
57,toitures.sirois@gmail.com,toitures.sirois,Maxime,Sirois,,8196987529,144553,"Aucun représentant",2018-03-19
58,toiturerivesud@gmail.com,toiturerivesud,Christian,Fettu,,"514 726 7033",113315,"Aucun représentant",2018-03-19
59,toitureskarolfrancis@gmail.com,toitureskarolfrancis,Karol,Francis,,4187322511,000142277,"DANNY MICHAUD",2018-03-19
60,pc.qualitetoits@gmail.com,pc.qualitetoits,Cassandra,Castonguay,,514-699-5086,QC,"Aucun représentant",2018-03-19
61,toitures.protex@outlook.com,toitures.protex,Mixalis,Rizos,,5145783204,0000100171,"Aucun représentant",2018-03-19
62,stephane-gauthier2010@hotmail.com,stephane-gauthier2010,Gauthier,Stephane,,8193456423,134770,"Aucun représentant",2018-03-19
63,info@toitureslapointe.ca,info6,Gaétan,Lapointe,,514-616-7385,112712,"Aucun représentant",2018-03-19
64,toiturespolygone@hotmail.com,toiturespolygone,Robert,Dugas,toiturespolygone@hotmail.com,514-506-9250,113162,"PATRICK BLAIS",2018-03-19
65,toituresfrancoismiron@hotmail.com,toituresfrancoismiron,francois,miron,toituresfrancoismiron@hotmail.com,514-884-5696,5884276,"NORMAND DUBE",2018-03-19
66,donbanville263@outlook.com,donbanville263,DONALD,BANVILLE,donbanville263@outlook.com,"(506) 733-0977",130321,"DANNY MICHAUD",2018-03-19
67,refectoit.inc@hotmail.com,refectoit.inc,s,b,,"514 968-1564",0000119386,"Aucun représentant",2018-03-20
68,jsdroofing@gmail.com,jsdroofing,Jeansimon,Dufour,,8197903736,0000106130,"Aucun représentant",2018-03-20
69,couverturesmichelsylvain@gmail.com,couverturesmichelsylvain,Michel,Sylvain,,"514 237 9147",134186,"Aucun représentant",2018-03-20
70,renovationts@gmail.com,renovationts,Guy,Rollin,,"819 431 9399",0000115025,"Aucun représentant",2018-03-20
71,gilles.pelletier@rona.ca,gilles.pelletier,gilles,pelletier,,514-347-0271,160130,"Aucun représentant",2018-03-20
72,ent.berube@videotron.ca,ent.berube,Donald,Bérubé,ent.berube@videotron.ca,"819 243 4115",107851,"Aucun représentant",2018-03-20
73,yves@toituresphenix.com,yves,Yves,Brodeur,yves@toituresphenix.com,514-269-4583,113951,"PATRICK BLAIS",2018-03-20
74,info@couvreurcdp.com,info7,Esther,Dupont,,8195620123,0000157139,"Aucun représentant",2018-03-20
75,constructions.srdk@gmail.com,constructions.srdk,kevin,bouchard,,506-740-1222,0000130705,"Aucun représentant",2018-03-20
76,v.perreault@toituresvperreault.com,v.perreault,Vincent,Perreault,v.perreault@toituresvperreault.com,5147997856,170829,"NORMAND DUBE",2018-03-20
77,jls.lamontagnes@gmail.com,jls.lamontagnes,Sylvain,Lamontagne,,514-830-3218,0000112498,"Aucun représentant",2018-03-20
78,couvreurrivesud2006@msn.com,couvreurrivesud2006,Yves,Lortie,,5149775683,113573,"Aucun représentant",2018-03-20
79,alaindesjardinscouvreur@msn.com,alaindesjardinscouvreur,Alain,Desjardins,,4506600441,147653,"Aucun représentant",2018-03-20
80,sl.nwr@nb.aibn.com,sl.nwr,STEVEN,LAVOIE,,506-733-1814,130454,"DANNY MICHAUD",2018-03-20
81,bininngroofing@hotmail.com,bininngroofing,amrik,bininng,bininngroofing@hotmail.com,5146388282,13221647,"Aucun représentant",2018-03-20
82,toiturejfberard@hotmail.com,toiturejfberard,Jeanfrancois,Berard,,5145131066,168017,"MARC CLOUTIER",2018-03-20
83,babyland06@hotmail.fr,babyland06,Stéphane,Picard,,"450 378 1240",3781240,"Aucun représentant",2018-03-20
84,c.grenier@lesgeants.ca,c.grenier,CLEMENT,GRENIER,,514-838-8525,165769.000,"Aucun représentant",2018-03-20
85,slacasse@lacasseetfils.com,slacasse,Serge,Lacasse,,819-578-3407,124394,"MARIO DOYON",2018-03-20
86,toiturestplinc@hotmail.com,toiturestplinc,Pascal,Tribout,,514-268-0372,7176662,"NORMAND DUBE",2018-03-20
87,guyleger01@gmail.com,guyleger01,Guy,Léger,,5147033641,3641,"Aucun représentant",2018-03-20
88,toiturestacygosselin@hotmail.com,toiturestacygosselin,Stacy,Gosselin,toiturestacygosselin@hotmail.com,5145670935,185351,"Aucun représentant",2018-03-20
89,info@mecba.ca,info8,Marie-Josée,Goulet,info@mecba.ca,4185700620,103171,"Aucun représentant",2018-03-20
90,jf-ski@hotmail.com,jf-ski,jean-frederic,pinard,,5147585954,5147585954,"PATRICK LEMIEUX",2018-03-20
91,admin@silanictoitures.com,admin1,Sylvain,Durance,,514-945-250,172201,"NORMAND DUBE",2018-03-20
92,toitures.lg@gmail.com,toitures.lg,Luc,Champigny,toitures.lg@gmail.com,5149177487,113715,"ALAIN CANTARA",2018-03-20
93,info@hekka.ca,info9,Mario,Lebel,,514-966-0415,1234567890,"Aucun représentant",2018-03-20
94,toituresdavidpage@gmail.com,toituresdavidpage,David,Pagé,toituresdavidpage@gmail.com,819-531-0321,150917,"Aucun représentant",2018-03-20
95,pierreluclaberge@yahoo.ca,pierreluclaberge,pierre-luc,laberge,,"514 707-5875",5147075875,"PATRICK LEMIEUX",2018-03-20
96,sfiliatreault@asfiliatreault.com,sfiliatreault,Sébastien,Filiatreault,,514-914-8482,12345,"Aucun représentant",2018-03-20
97,toituresuperieure@gmail.com,toituresuperieure,Tomy,Payeur,,418-281-9615,125782,"Aucun représentant",2018-03-20
98,billy@couvreurcouvtoit.com,billy,Billy,Ouimet,,5144448641,00000000 »,"Aucun représentant",2018-03-20
99,info@lesconstructionsdpsignature.com,info10,Dario,Truchon,,5148173750,207013,"ETIENNE FECTEAU",2018-03-20
100,select.dant@gmail.com,select.dant,Daniel,Thériault,,506-737-7528,130420,"DANNY MICHAUD",2018-03-21
101,francis@toitures-tech.ca,francis,Francis,"Brunet PT",francis@toitures-tech.ca,5142392868,164405,"PIERRE-HENRI OUELLETTE",2018-03-21
102,mcaron@toiturescaron.com,mcaron,Mario,Caron,mcaron@toiturescaron.com,4505301436,168093,"SYLVIE PLOURDE",2018-03-21
103,toituresmartinlafontaine@videotron.ca,toituresmartinlafontaine,Martin,Lafontaine,toituresmartinlafontaine@videotron.ca,"514 924 5466",172059,"MARC CLOUTIER",2018-03-21
104,info@toitureslarose.com,info11,Marc,Larose,info@toitureslarose.com,450-994-7779,0000113825,"JEAN-OLIVIER LEVESQUE",2018-03-21
105,alain.cantara@rona.ca,alain.cantara,Alain,Cantara,,450-587-3937,043040,"ALAIN CANTARA",2018-03-21
106,toituresguillette@hotmail.com,toituresguillette,Pierre,Guillette,toituresguillette@hotmail.com,4505784129,135915.000,"Aucun représentant",2018-03-21
107,lestoituresgaumond@hotmail.com,lestoituresgaumond,Jean-Francois,Gaumond,,514-884-1604,171706,"NORMAND DUBE",2018-03-21
108,pmenardcouvreur@hotmail.com,pmenardcouvreur,Philippe,Ménard,pmenardcouvreur@hotmail.com,"450 531-7447",000000,"MARIO DOYON",2018-03-21
109,gbcouvreur@bellnet.ca,gbcouvreur,Eric,"L\\\\\\\\\\\\\\\\\\\\\\\\\\\\\\\\\\\\\\\\\\\\\\\\\\\\\\\\\\\\\\\'Archeveque",,450-368-5221,4503685221,"Aucun représentant",2018-03-21
110,info@toituressoleil.com,info12,Marie-Lyne,Charest-Brunet,,4504784530,6174530,"NORMAND DUBE",2018-03-21
111,toiturelavoie@gmail.com,toiturelavoie,Gino,Lavoie,,4505617869,113361,"PATRICK BLAIS",2018-03-21
112,mgeoffrion87@Gmail.com,mgeoffrion87,martin,geoffrion,,5142229786,174114,"DANIEL CHEVRIER",2018-03-21
113,mjbhivon@videotron.ca,mjbhivon,Benoit,Hivon,mjbhivon@videotron.ca,450-880-0233,122059,"ALAIN CANTARA",2018-03-21
114,info2@hekka.ca,info21,Louis,Lebel,,"514 966-0415",#123456789,"Aucun représentant",2018-03-21
115,sebastien@groupebouda.com,sebastien,Sebastien,Boulanger,,5145813928,172363,"AUDREY BOURGEOIS",2018-03-21
116,stephane@lestoituresmorel.com,stephane,Stéphane,Morel,stephane@lestoituresmorel.com,4508989061,4507609061,"Aucun représentant",2018-03-21
117,infos@toiturescemalie.com,infos,Cedric,Lepine,,5149100246,0000112364,"Aucun représentant",2018-03-21
119,toiturebeaudoin@outlook.com,toiturebeaudoin,Eric,Beaudoin,,450-670-6771,0000125719,"Aucun représentant",2018-03-21
120,jagnew@brico-toit.com,jagnew,Jessica,Agnew,,514-663-3277,170991,"NORMAND DUBE",2018-03-21
121,pierre.lachance@rona.ca,pierre.lachance,pierre,lachance,pierre.lachance@rona.ca,5142128459,1234567890,"Aucun représentant",2018-03-21
122,DOMINIC.BERTRAND@RONA.CA,DOMINIC.BERTRAND,DOMINIC,BERTRAND,,514-972-2392,11111111,"DOMINIC BERTRAND",2018-03-21
123,etienne.fecteau@rona.ca,etienne.fecteau,Etienne,Fecteau,,"514 239 0811",123456,"Aucun représentant",2018-03-21
124,daniel.lauzon@rona.ca,daniel.lauzon,Daniel,Lauzon,,514-863-5905,123456789,"DANIEL LAUZON",2018-03-21
125,yann.dufault@marcilcdr.com,yann.dufault,Yann,Dufault,,514-239-3256,1234567890,"Aucun représentant",2018-03-21
126,alain_stjean2000@yahoo.ca,alain_stjean2000,Alain,"St Jean",,5148389595,169417,"AUDREY BOURGEOIS",2018-03-21
127,MARC.CLOUTIER@RONA.CA,MARC.CLOUTIER,Marc,Cloutier,,5143472619,000000,"Aucun représentant",2018-03-21
128,sylvie.plourde@rona.ca,sylvie.plourde,sylvie,plourde,,5144443135,000000,"SYLVIE PLOURDE",2018-03-21
129,info@toitureunix.com,info13,Andy,Tremblay,,514-742-8647,5142577337,"ALAIN CANTARA",2018-03-21
130,pierre-henri.ouellette@rona.ca,pierre-henri.ouellette,pierre-henri,ouellette,,"514 217 9114",000000,"Aucun représentant",2018-03-21
131,mikeblatter929@gmail.com,mikeblatter929,Mike,Blatter,,5147309019,0004587,"Aucun représentant",2018-03-21
132,jbriere@couvertures.ca,jbriere,johanne,briere,,514-926-0399,0000112511,"Aucun représentant",2018-03-21
133,lestoituresadvitam@hotmail.ca,lestoituresadvitam,Yan,Cormier,,5148209198,194927,"Aucun représentant",2018-03-21
134,daniel.chevrier@rona.ca,daniel.chevrier,Daniel,Chevrier,,5149840487,123456,"Aucun représentant",2018-03-21
135,production@rfd2000.ca,production,Francis,Doyon,,4506555031,0000113333,"ALAIN CANTARA",2018-03-21
136,toituresg@gmail.com,toituresg,sylvain,garceau,,8195386661,00000,"Aucun représentant",2018-03-21
137,toituresatherrien@videotron.ca,toituresatherrien,alain,therrien,,"819 668 2432",151837,"Aucun représentant",2018-03-21
138,toituresdupont@hotmail.comn,toituresdupont,François,Dupont,,"514 444 9360",134239,"Aucun représentant",2018-03-21
139,toituredg@gmail.com,toituredg,Ghislaing,Grenier,toituredg@gmail.com,819-829-3889,8198293889,"Aucun représentant",2018-03-21
140,toiturechaudiereappalaches@hotmail.com,toiturechaudiereappalaches,Mathieu,Ruel,,4182819421,138925,"Aucun représentant",2018-03-21
141,andrevinet@live.ca,andrevinet,andre,Vinet,andrevinet@live.ca,514-918-0241,171988,"DOMINIC BERTRAND",2018-03-21
142,denis@toituresbl.ca,denis,Denis,Boisvert,,"514 3490305",3490305,"ALAIN CANTARA",2018-03-21
143,toituresparagon@gmail.com,toituresparagon,Kenny,Clarke,,514-290-5646,165218,"AUDREY BOURGEOIS",2018-03-21
144,eric.dubois@hotmail.com,eric.dubois,Eric,Dubois,eric.dubois@hotmail.com,4505250597,122965,"MARIO DOYON",2018-03-21
145,steve.racicot@live.ca,steve.racicot,steve,racicot,,514-501-0087,000000,"ETIENNE FECTEAU",2018-03-21
146,eric@toiturelajoie.com,eric,Eric,Lajoie,,418-3344277,125340,"Aucun représentant",2018-03-21
147,admin@toiture-bardeaux.com,admin2,Pascal,Belanger,,5148385945,000000,"ALAIN CANTARA",2018-03-21
148,yoakim@hotmail.ca,yoakim,"Abdel Hakim",Dahir,,4389897375,000000,"Aucun représentant",2018-03-21
149,j.lauze@toituredelta.com,j.lauze,Julien,Lauzé,j.lauze@toituredelta.com,4188321007,103160,"GAETAN SYLVESTRE",2018-03-21
150,toituresultima@gmail.com,toituresultima,Éric,Bigeault,,450-516-4802,147601,"Aucun représentant",2018-03-21
151,benoit@toitures24.ca,benoit1,benoit,trussart,,5144047927,7547927,"Aucun représentant",2018-03-21
152,bstgeorges@liquiteck.com,bstgeorges,benoit,st-georges,,438-827-8327,60,"Aucun représentant",2018-03-21
153,fred.lajoie.71@gmail.com,fred.lajoie.71,Frédérik,Lajoie,,418-932-2767,102707,"Aucun représentant",2018-03-21
154,carj@rona.ca,carj,Julie,Caron,,5145995900,000000,"Aucun représentant",2018-03-21
155,gigi@rona.ca,gigi,Isabelle,Giguère,,5147924324,000000,"ALAIN CANTARA",2018-03-21
156,sergelavallee@videotron.ca,sergelavallee,Serge,Lavallée,sergelavallee@videotron.ca,5148177458,0000166877,"DANIEL CHEVRIER",2018-03-21
157,alainmorin61@hotmail.com,alainmorin61,Alain,Morin,alainmorin61@hotmail.com,450-378-2037,136642,"MARIO DOYON",2018-03-21
158,aptoituresetfils@gmail.com,aptoituresetfils,Peter,Massie,aptoituresetfils@gmail.com,514-220-8492,164130,"DOMINIC BERTRAND",2018-03-21
159,toituresremigagne@hotmail.com,toituresremigagne,Rémi,Gagné,toituresremigagne@hotmail.com,514-919-6016,0000172017,"DANIEL CHEVRIER",2018-03-21
160,info@couvreurexcel.com,info14,thedy,joseph,,5146861695,145770,"Aucun représentant",2018-03-21
161,toituresbolduc@gmail.com,toituresbolduc,Marc,Bolduc,toituresbolduc@gmail.com,4189564144,0000103485,"Aucun représentant",2018-03-21
162,707marco@gmail.com,707marco,Marco,Ricignuolo,707marco@gmail.com,514-629-5404,160022,"Aucun représentant",2018-03-21
163,couvreurs@toit-direct.com,couvreurs,simon,benoit,,4388808648,172732,"NORMAND DUBE",2018-03-21
164,dominique.boule@rona.ca,dominique.boule,Dominique,Boule,,4182227756,123456,"Aucun représentant",2018-03-21
165,dale_scullion@yahoo.ca,dale_scullion,Dale,Scullion,,418-655-5599,000000,"Aucun représentant",2018-03-21
166,hamelfrancois1@hormail.com,hamelfrancois1,François,Hamel,,819-574-4255,000000,"Aucun représentant",2018-03-21
167,info@toiture640.com,info15,Marco,Brisson,,514-945-8977,172387,"NORMAND DUBE",2018-03-21
168,pifpafconstruction@icloud.com,pifpafconstruction,Manuel,Moreau,pifpafconstruction@icloud.com,4508064666,170868,"Aucun représentant",2018-03-21
169,welonboss@hotmail.com,welonboss,Steven,Gladu,,514-291-5775,203173,"Aucun représentant",2018-03-21
170,couvreurcomtois@hotmail.com,couvreurcomtois,Claude,Comtois,couvreurcomtois@hotmail.com,524-269-5394,113952,"ALAIN CANTARA",2018-03-21
171,toiturequalipro@hotmail.com,toiturequalipro,Eric,"Boulanger Gaudreau",toiturequalipro@hotmail.com,4182918454,114191,"Aucun représentant",2018-03-21
172,info@toituresbarbeauetfils.com,info16,Pascal,Barbeau,,"514 821-8348",0000000000,"Aucun représentant",2018-03-21
173,toitureroy@hotmail.ca,toitureroy,Pierre,Roy,,514-829-3777,167762,"NORMAND DUBE",2018-03-21
174,,seed_cspv5_clientview_test,,,,,,,2018-03-28
175,simontoit@hotmail.com,simontoit,Pascal,simon,simontoit@hotmail.com,4503689400,165941,"NORMAND DUBE",2018-03-28
176,dg.44070@marcilcdr.com,dg.44070,gilbert,leblanc,normand.dube@rona.ca,549530369,168948,"NORMAND DUBE",2018-03-28
177,normand.dube@rona.ca,normand.dube,Pascal,Simon,normand.dube@rona.ca,4508989400,165941,"NORMAND DUBE",2018-04-03
178,ci.41330@rona.ca,ci.41330,Pierre,Généreux,ci.41330@rona.ca,514-586-2498,103908,"Aucun représentant",2018-04-04
179,leclercmarcantoine1@gmail.com,leclercmarcantoine1,Marc-Antoine,Leclerc,,5149104488,1234abcdef,"Aucun représentant",2018-11-06
180,marcmorindeziel@gmail.com,marcmorindeziel,Marc-André,Déziel,,5146182932,123456,"ALAIN CANTARA",2019-03-12
181,mamd94@hotmail.com,mamd94,Marc-André,Déziel,,5146182932,123456,"Aucun représentant",2019-03-12
182,eagle_174@hotmail.com,eagle_174,Test,Test,,514-910-4488,Testtest12,"Aucun représentant",2019-03-12
183,melissa@serveko.ca,melissa,Mélissa,Sigouin,,5144758074,172417,"NORMAND DUBE",2019-03-12
184,toitureftd@hotmail.com,toitureftd,Francis,Tremblay-Desjardins,,450-486-4757,105143,"ETIENNE FECTEAU",2019-03-12
185,benponton@hotmail.com,benponton,Benoit,Ponton,benponton@hotmail.com,5148332012,0000113310,"Aucun représentant",2019-03-12
186,info@lesconstructionsnb.com,info17,Nicolas,Bellegarde,,418-227-5301,111377.000,"Aucun représentant",2019-03-14
187,plourde.unic@bellnet.ca,plourde.unic,Sébastien,Plourde,,418-893-2242,208984,"DANNY MICHAUD",2019-03-14
188,renovationguildochouinard@hotmail.com,renovationguildochouinard,GUILDO,CHOUINARD,,418-853-2444,130660,"DANNY MICHAUD",2019-03-14
189,marco@constructionsnormandpigeon.com,marco,Marco,Pigeon,,5147771446,0000113319,"Aucun représentant",2019-03-14
190,jean-francois@rmrleblanc.com,jean-francois,Jean-francois,Leblanc,,5144444973,141915,"Aucun représentant",2019-03-14
191,charbonneauclaude6@gmail.com,charbonneauclaude6,Claude,Charbonneau,,"514 572 6600","514 572660","GILLES PELLETIER",2019-03-14
192,constructionmlb@gmail.com,constructionmlb,"Mike allen","Lavoie Berube",,418-750-9067,143406,"DANNY MICHAUD",2019-03-14
193,constructionpatrickleclair@gmail.com,constructionpatrickleclair,Patrick,Leclair,,450-522-2239,124062,"Aucun représentant",2019-03-14
194,lapointef267@gmail.com,lapointef267,François,Lapointe,,5142647053,105209,"Aucun représentant",2019-03-14
195,ncaron.enc@gmail.com,ncaron.enc,Nicolas,Caron,,4388873500,132259,"AUDREY BOURGEOIS",2019-03-15
196,constructionmarcc@gmail.com,constructionmarcc,marc,chevalier,,5147941148,01049656,"Aucun représentant",2019-03-15
197,laboiteconstruction@gmail.com,laboiteconstruction,Félix,Monette-Dubeau,,514-916-6666,171968,"Aucun représentant",2019-03-15
198,constlpaquette@gmail.com,constlpaquette,LUC,PAQUETTE,,819-773-0141,108197,"Aucun représentant",2019-03-15
199,f.bouchard.robko@gmail.com,f.bouchard.robko,Francis,Bouchard,,"418.407.0752 p.3",103455,"GAETAN SYLVESTRE",2019-03-15
200,lucouimet@hotmail.fr,lucouimet,luc,ouimet,,514-248-7891,165003,"Aucun représentant",2019-03-15
201,constructionmaximegagne@gmail.com,constructionmaximegagne,Maxime,Gagné,,5149473078,145544,"PIERRE LACHANCE",2019-03-16
202,maxco_construction@hotmail.com,maxco_construction,Maxime,Trepanier,,5146178224,161753,"Aucun représentant",2019-03-16
203,mathieupicotin19@hotmail.com,mathieupicotin19,Mathieu,Picotin,,5067401312,130838,"Aucun représentant",2019-03-17
204,constructiondumais@live.ca,constructiondumais,Steve,Barriault,,724-6319,142634,"Aucun représentant",2019-03-18
205,couvreurroch@live.ca,couvreurroch,Danny,Bolduc,,450-830-5399,165969,"Aucun représentant",2019-03-18
206,workmanmtl@gmail.com,workmanmtl,Alex,Workman,,"514 995697",171083,"AUDREY BOURGEOIS",2019-03-18
207,ngaboury@mayton.ca,ngaboury,NANCY,GABOURY,,4505341785,100221,"MARIO DOYON",2019-03-18
208,const.bl@videotron.ca,const.bl,Benoit,Laflamme,,450-777-3882,138257,"MARIO DOYON",2019-03-18
209,constructionfmaloinc@hotmail.com,constructionfmaloinc,Francois,Malo,,4503795417,137023,"MARIO DOYON",2019-03-19
210,guysalvas@gmail.com,guysalvas,guy,salvas,,5148982989,168778,"GILLES PELLETIER",2019-03-19
211,toituresvarin@gmail.com,toituresvarin,Eric,Varin,toituresvarin@gmail.com,819-351-7647,107674,"PATRICK CHEVALIER",2019-03-19
212,j.bilodeau@outlook.com,j.bilodeau,Jimmy,Bilodeau,,4182223612,111828,"DOMINIC BOULE",2019-03-19
213,mrichard@agilis.ca,mrichard,Michèle,Richard,,819-663-5430,108419,"Aucun représentant",2019-03-19
214,entrpquirion@gmail.com,entrpquirion,pascal,quirion,,418-226-7513,111844,"Aucun représentant",2019-03-19
215,cotetoitures@hotmail.com,cotetoitures,Martin,Côté,,5147084830,112413,"ETIENNE FECTEAU",2019-03-19
216,admin@groupegince.com,admin3,Karine,Gince,,4505390370,137460,"MARIO DOYON",2019-03-19
217,Toitelegant@gmail.com,Toitelegant,Pierre,Filion,Toitelegant@gmail.com,418-387-0101,132150,"ETIENNE FECTEAU",2019-03-19
218,gillesboulianne@bell.net,gillesboulianne,Gilles,Boulianne,,418-805-0672,0000213192,"Aucun représentant",2019-03-19
219,renodker@hotmail.com,renodker,Daniel,Brisson,,4183385351,125371,"Aucun représentant",2019-03-19
220,sebastienmorin@globetrotter.net,sebastienmorin,Sebastien,Morin,,4182223228,111113,"Aucun représentant",2019-03-19
221,davelachance@live.ca,davelachance,Dave,Lachance,,418-221-5865,111123,"Aucun représentant",2019-03-20
222,rn.nwr@nb.aibn.com,rn.nwr,Real,Nadeau,rn.nwr@nb.aibn.com,5067391811,130454,"DANNY MICHAUD",2019-03-20
223,lavoie.pierre68@gmail.com,lavoie.pierre68,Pierre,Lavoie,lavoie.pierre68@gmail.com,514-918-6655,2270019,"SYLVIE PLOURDE",2019-03-20
224,toitureslarose@gmail.com,toitureslarose,Marc-Edouard,Larose,,4509947779,43020,"JEAN-OLIVIER LEVESQUE",2019-03-20
225,lise.lajoie@uqo.ca,lise.lajoie,Denis,Martel,,819-767-2186,108200,"PATRICK CHEVALIER",2019-03-20
226,johamannconstruction@gmail.com,johamannconstruction,jean-olivier,hamann,,4505218369,122968,"JEAN-OLIVIER LEVESQUE",2019-03-20
227,info@hu-nic.com,info18,Nicholas,Audet-Besner,,5149079013,168371,"AUDREY BOURGEOIS",2019-03-20
228,toituresbmt@gmail.com,toituresbmt,Benjamin,Ménard,toituresbmt@gmail.com,450-558-3358,208849,"Aucun représentant",2019-03-20
229,pprimeau@constructionprimeau.ca,pprimeau,Pascal,Primeau,,450-427-2387,141817,"ALEXANDRE MCKENNA",2019-03-20
230,info@toitureroyalemd.com,info19,Martin,daigle,,418-999-2166,43210,"Aucun représentant",2019-03-20
231,toitures.vnc@hotmail.com,toitures.vnc,vincent,vachon,,4384941665,0000213284,"Aucun représentant",2019-03-20
232,Toituresnordika@hotmail.ca,Toituresnordika,Frederic,Viens,,4507127601,7127601,"Aucun représentant",2019-03-20
233,test123@gmail.com,test123,Marc-André,Déziel,,5146182932,1234,"ALAIN CANTARA",2019-03-20
234,david.dube@rona.ca,david.dube,David,Dube,,4189315274,111234,"Aucun représentant",2019-03-20
235,alexandre.mckenna@rona.ca,alexandre.mckenna,Alexandre,McKenna,,5146862203,123456,"ALEXANDRE MCKENNA",2019-03-20
236,yves.massicotte@rona.ca,yves.massicotte,yves,massicotte,,8195314227,12345600,"YVES MASSICOTTE",2019-03-20
237,b.b-8toitures@hotmail.com,b.b-8toitures,Benjamin,Boyer,,450-525-0081,41350,"Aucun représentant",2019-03-20
238,mc3jconstruction@gmail.com,mc3jconstruction,Josianne,Tardif,,514-820-3388,0000126106,"MARIO DOYON",2019-03-20
239,yann.dufault@rona.ca,yann.dufault1,Yann,Dufault,,514-239-3256,123456,"YANN DUFAULT",2019-03-20
240,alexandre.champagne@rona.ca,alexandre.champagne,alexandre,champagne,,5146901385,0000000,"ALEXANDRE CHAMPAGNE",2019-03-20
241,patrick.chevalier@rona.ca,patrick.chevalier,Patrick,Chevalier,,613-408-0435,107732,"PATRICK CHEVALIER",2019-03-20
242,sammy_ranciurt@hotmail.com,sammy_ranciurt,Sammy,Rancourt,,8197908164,146133,"Aucun représentant",2019-03-20
243,m_lefort11@hotmail.com,m_lefort11,Mélanie,Lefort,m_lefort11@hotmail.com,514-975-3926,123456,"ALAIN CANTARA",2019-03-20
244,constructionscrg@hotmail.com,constructionscrg,Goulet,Jacques,constructionscrg@hotmail.com,4183336113,125545,"DOMINIC BOULE",2019-03-20
245,k.d.g.construction.inc@gmail.com,k.d.g.construction.inc,Gilles,Veronneau,,5148674520,113676,"PATRICK BLAIS",2019-03-20
246,isabelletremblay.irq@videotron.ca,isabelletremblay.irq,Isabelle,tremblay,,"450 906-3207",133876,"ETIENNE FECTEAU",2019-03-20
247,ent.berube@videoteron.ca,ent.berube1,Donald,Bérubé,,"819 243 4115",107851,"Aucun représentant",2019-03-20
248,slacasse@lasseetfils.com,slacasse1,SERGE,LACASSE,,819-843-2681,124394,"MARIO DOYON",2019-03-20
249,st.blais@hotmail.com,st.blais,Alain,Rivest,,514-371-7182,165947,"Aucun représentant",2019-03-20
250,danielgouin@hotmail.com,danielgouin,Daniel,Gouin,danielgouin@hotmail.com,8195711602,115295,"MARIO DOYON",2019-03-20
251,samuel@toituresphenix.com,samuel,Samuel,Phénix,samuel@toituresphenix.com,4509290550,113951,"PATRICK BLAIS",2019-03-20
252,constructionyvonbouchard@live.ca,constructionyvonbouchard,Yvon,Bouchard,,5142623135,5142623135,"Aucun représentant",2019-03-20
253,lclginc@hotmail.com,lclginc,Luc,Girard,,5142298859,123456,"Aucun représentant",2019-03-20
254,info@couverturesgarneau.com,info20,Jean-François,Garneau,info@couverturesgarneau.com,418-334-1626,127043,"DOMINIC BOULE",2019-03-20
255,Info@optiontoiture.com,Info22,Mathieu,Lafleur,Info@optiontoiture.com,5149665580,0000113819,"Aucun représentant",2019-03-20
256,info@toiture-polaire.com,info23,Bruno,"Gagnon Duval",info@toiture-polaire.com,418-871-0875,522,"DAVID DUBÉ",2019-03-20
257,gabriel_lussier@icloud.com,gabriel_lussier,Gabriel,Lussier,,5149628721,167715,"AUDREY BOURGEOIS",2019-03-20
258,j-p-dufour@hotmail.com,j-p-dufour,JEAN-PIERRE,DUFOUR,j-p-dufour@hotmail.com,514-838-1377,128453,"Aucun représentant",2019-03-20
259,alex_tha_pimp@hotmail.com,alex_tha_pimp,Alex,Chevalier,,8192093465,105954,"Aucun représentant",2019-03-20
260,carlpoirier@hotmail.com,carlpoirier,Carl,Poirier,carlpoirier@hotmail.com,4504551643,139754,"DOMINIC BERTRAND",2019-03-20
261,toituresd.s@gmail.com,toituresd.s,Dany,Simard-collins,toituresd.s@gmail.com,8196399401,108243,"Aucun représentant",2019-03-20
262,kokandelroofing@gmail.com,kokandelroofing,Dave,Topping,kokandelroofing@gmail.com,514-972-9604,200409,"DOMINIC BERTRAND",2019-03-20
263,toiture.titans@gmail.com,toiture.titans,philipe,menard,toiture.titans@gmail.com,450-531-7447,205314,"MARIO DOYON",2019-03-20
264,heleneboilard@icloud.com,heleneboilard,Helene,Boilard,heleneboilard@icloud.com,418-687-6668,1234,"DAVID DUBÉ",2019-03-20
265,toituresamh@videotron.ca,toituresamh,Michel,Harvey,toituresamh@videotron.ca,418-569-4561,215380,"DAVID DUBÉ",2019-03-20
266,constructionlbl@hotmail.com,constructionlbl,yanick,dube,,4188946699,129776,"Aucun représentant",2019-03-20
267,claudesylvetteperreault@gmail.com,claudesylvetteperreault,Claude,Perreault,,15067402841,104669,"DANNY MICHAUD",2019-03-20
268,m.ouellet@maisonsouellet.com,m.ouellet,Marco,Ouellet,,"418 867-2329",218294,"Aucun représentant",2019-03-20
269,alex@renovationsvachon.com,alex,alexandre,vachon,,4183312127,125442,"Aucun représentant",2019-03-21
270,constructionmad@hotmail.com,constructionmad,marc-andré,dion,,5147542157,170509,"NORMAND DUBE",2019-03-21
271,eric.harrisson@hmcmaison.com,eric.harrisson,Eric,Harrisson,,4183643838,142414,"DANNY MICHAUD",2019-03-21
272,michael@construction-harmonie.com,michael,Michael,Lequin,,450-775-9777,124326,"MARIO DOYON",2019-03-21
273,nathalie@tremblayetassocies.ca,nathalie,NATHALIE,MARTEL,,418-338-5791,111916,"DOMINIC BOULE",2019-03-21
274,gestionscaron@gmail.com,gestionscaron,Steve,Scattolin,,514-928-3616,4504490703,"AUDREY BOURGEOIS",2019-03-21
275,cdesgens@athenaconstruction.ca,cdesgens,Cassandra,Desgens,,4502630445,100007,"JEAN-OLIVIER LEVESQUE",2019-03-21
276,test@gmail.com,test,Marc-André,Déziel,,5146182932,2342342,"ALAIN CANTARA",2019-03-21
277,alexandre@groupebbc.com,alexandre,Alexandre,Sauvé,,514-667-9874,113945,"PATRICK BLAIS",2019-03-21
278,info@constructionrancourt.com,info24,Dave,Rancourt,,4182257821,112162,"DOMINIC BOULE",2019-03-21
279,liligarden4@hotmail.com,liligarden4,Alain,Seguin,,514-947-4609,168733,"NORMAND DUBE",2019-03-21
280,lc-construction@videotron.ca,lc-construction,Luc,Hivon,,4508801580,209220,"PATRICK BLAIS",2019-03-21
281,mnolin@constructionsnovard.com,mnolin,Michel,Nolin,,450-293-2999,124301,"JEAN-OLIVIER LEVESQUE",2019-03-21
282,info@constructioninnovaction.ca,info25,Christian,Hétu,,5142603214,170816,"Aucun représentant",2019-03-21
283,martin@mavicconstruction.com,martin,Martin,"Vienneau T.P.",,"613 762 4833",108010,"Aucun représentant",2019-03-21
284,info@habitationjlj.com,info26,Carl-andré,Gagnon,,5245834766,5145834766,"AUDREY BOURGEOIS",2019-03-21
285,yann@tremblaymaitreconstructeur.com,yann,yann,tremblay,,4503729223,117614,"JEAN-PIERRE GAUTHIER",2019-03-21
286,Benchekconstruction@gmail.com,Benchekconstruction,Taoufiq,Benchekroun,,5142093336,2093336,"GILLES PELLETIER",2019-03-21
287,habitationsmara@videotron.ca,habitationsmara,lavoie,derek,,"438 868 6272",8686272,"Aucun représentant",2019-03-21
288,constructionspremium@hotmail.com,constructionspremium,Kevin,Deschenes,,4507700335,137714,"MARIO DOYON",2019-03-21
